EESchema Schematic File Version 2
LIBS:power
LIBS:device
LIBS:transistors
LIBS:conn
LIBS:linear
LIBS:regul
LIBS:74xx
LIBS:cmos4000
LIBS:adc-dac
LIBS:memory
LIBS:xilinx
LIBS:microcontrollers
LIBS:dsp
LIBS:microchip
LIBS:analog_switches
LIBS:motorola
LIBS:texas
LIBS:intel
LIBS:audio
LIBS:interface
LIBS:digital-audio
LIBS:philips
LIBS:display
LIBS:cypress
LIBS:siliconi
LIBS:opto
LIBS:atmel
LIBS:contrib
LIBS:valves
LIBS:bridge
LIBS:addon
LIBS:stm32
LIBS:hall
LIBS:driver
LIBS:lph7366
LIBS:handler
LIBS:iface
LIBS:radio
LIBS:esdprot
LIBS:project-cache
EELAYER 25 0
EELAYER END
$Descr A4 11693 8268
encoding utf-8
Sheet 3 5
Title "3-Phase Inverter"
Date "2017-02-07"
Rev "Rev. 0.3"
Comp "Illumium.Org"
Comment1 ""
Comment2 ""
Comment3 ""
Comment4 ""
$EndDescr
$Comp
L HCPL-3120 U201
U 1 1 5772D557
P 2500 1700
F 0 "U201" H 2500 2150 60  0000 C CNN
F 1 "HCPL-3120" H 2500 1225 60  0000 C CNN
F 2 "Local:SOP-8_W7.62mm" H 2375 1700 60  0001 C CNN
F 3 "" H 2375 1700 60  0000 C CNN
	1    2500 1700
	1    0    0    -1  
$EndComp
$Comp
L CP C202
U 1 1 5772D6F1
P 3500 2150
F 0 "C202" H 3525 2250 50  0000 L CNN
F 1 "47u 50V" H 3350 2050 50  0000 L CNN
F 2 "Local:CP_Radial_D6.3mm_P2.50mm" H 3538 2000 50  0001 C CNN
F 3 "" H 3500 2150 50  0000 C CNN
	1    3500 2150
	1    0    0    -1  
$EndComp
$Comp
L D D201
U 1 1 5772D773
P 3550 900
F 0 "D201" H 3550 1000 50  0000 C CNN
F 1 "FR207" H 3550 800 50  0000 C CNN
F 2 "Local:Diode_DO-41_SOD81_Vertical_KathodeUp" H 3550 900 50  0001 C CNN
F 3 "" H 3550 900 50  0000 C CNN
	1    3550 900 
	1    0    0    -1  
$EndComp
$Comp
L +24V #PWR048
U 1 1 5772D891
P 3800 800
F 0 "#PWR048" H 3800 650 50  0001 C CNN
F 1 "+24V" H 3800 940 50  0000 C CNN
F 2 "" H 3800 800 50  0000 C CNN
F 3 "" H 3800 800 50  0000 C CNN
	1    3800 800 
	1    0    0    -1  
$EndComp
$Comp
L Q_NIGBT_GCE Q201
U 1 1 5772D93E
P 4800 1600
F 0 "Q201" H 4800 1750 50  0000 R CNN
F 1 "FGA25N120ANTD" V 5050 1600 50  0000 C CNN
F 2 "Local:TO-247_Horizontal_Neutral123_largePads" H 5000 1700 50  0001 C CNN
F 3 "" H 4800 1600 50  0000 C CNN
	1    4800 1600
	1    0    0    -1  
$EndComp
$Comp
L R R206
U 1 1 5772DB47
P 4250 1300
F 0 "R206" V 4330 1300 50  0000 C CNN
F 1 "270K" V 4250 1300 50  0000 C CNN
F 2 "Local:R_0603" V 4180 1300 50  0001 C CNN
F 3 "" H 4250 1300 50  0000 C CNN
	1    4250 1300
	0    1    -1   0   
$EndComp
$Comp
L R R208
U 1 1 5772DC63
P 3750 1600
F 0 "R208" V 3830 1600 50  0000 C CNN
F 1 "10R" V 3750 1600 50  0000 C CNN
F 2 "Local:R_1206" V 3680 1600 50  0001 C CNN
F 3 "" H 3750 1600 50  0000 C CNN
	1    3750 1600
	0    -1   -1   0   
$EndComp
$Comp
L TVS D202
U 1 1 5772DE42
P 4500 2000
F 0 "D202" H 4500 2100 50  0000 C CNN
F 1 "P6KE15CA" H 4500 1900 50  0000 C CNN
F 2 "Local:Diode_DO-41_SOD81_Horizontal_RM10" H 4500 2000 50  0001 C CNN
F 3 "" H 4500 2000 50  0000 C CNN
	1    4500 2000
	0    -1   -1   0   
$EndComp
$Comp
L HCPL-3120 U202
U 1 1 5772E55B
P 2500 3200
F 0 "U202" H 2500 3650 60  0000 C CNN
F 1 "HCPL-3120" H 2500 2725 60  0000 C CNN
F 2 "Local:SOP-8_W7.62mm" H 2375 3200 60  0001 C CNN
F 3 "" H 2375 3200 60  0000 C CNN
	1    2500 3200
	1    0    0    -1  
$EndComp
$Comp
L Q_NIGBT_GCE Q202
U 1 1 5772E5FB
P 4800 3100
F 0 "Q202" H 4800 3250 50  0000 R CNN
F 1 "FGA25N120ANTD" V 5050 3100 50  0000 C CNN
F 2 "Local:TO-247_Horizontal_Neutral123_largePads" H 5000 3200 50  0001 C CNN
F 3 "" H 4800 3100 50  0000 C CNN
	1    4800 3100
	1    0    0    -1  
$EndComp
$Comp
L TVS D203
U 1 1 5772E6DF
P 4500 3500
F 0 "D203" H 4500 3600 50  0000 C CNN
F 1 "P6KE15CA" H 4500 3400 50  0000 C CNN
F 2 "Local:Diode_DO-41_SOD81_Horizontal_RM10" H 4500 3500 50  0001 C CNN
F 3 "" H 4500 3500 50  0000 C CNN
	1    4500 3500
	0    -1   -1   0   
$EndComp
$Comp
L R R209
U 1 1 5772E76E
P 3750 3100
F 0 "R209" V 3830 3100 50  0000 C CNN
F 1 "10R" V 3750 3100 50  0000 C CNN
F 2 "Local:R_1206" V 3680 3100 50  0001 C CNN
F 3 "" H 3750 3100 50  0000 C CNN
	1    3750 3100
	0    -1   -1   0   
$EndComp
$Comp
L R R207
U 1 1 5772E7F2
P 4250 2800
F 0 "R207" V 4330 2800 50  0000 C CNN
F 1 "270K" V 4250 2800 50  0000 C CNN
F 2 "Local:R_0603" V 4180 2800 50  0001 C CNN
F 3 "" H 4250 2800 50  0000 C CNN
	1    4250 2800
	0    1    -1   0   
$EndComp
$Comp
L CP C204
U 1 1 5772EA47
P 3500 3650
F 0 "C204" H 3525 3750 50  0000 L CNN
F 1 "47u 50V" H 3350 3550 50  0000 L CNN
F 2 "Local:CP_Radial_D6.3mm_P2.50mm" H 3538 3500 50  0001 C CNN
F 3 "" H 3500 3650 50  0000 C CNN
	1    3500 3650
	1    0    0    -1  
$EndComp
$Comp
L +24V #PWR049
U 1 1 5772EB37
P 3300 2800
F 0 "#PWR049" H 3300 2650 50  0001 C CNN
F 1 "+24V" H 3300 2940 50  0000 C CNN
F 2 "" H 3300 2800 50  0000 C CNN
F 3 "" H 3300 2800 50  0000 C CNN
	1    3300 2800
	1    0    0    -1  
$EndComp
$Comp
L R R211
U 1 1 5772EFCA
P 5300 3050
F 0 "R211" V 5380 3050 50  0000 C CNN
F 1 "150K" V 5300 3050 50  0000 C CNN
F 2 "Local:R_1206" V 5230 3050 50  0001 C CNN
F 3 "" H 5300 3050 50  0000 C CNN
	1    5300 3050
	-1   0    0    -1  
$EndComp
$Comp
L VPP #PWR050
U 1 1 5772F45E
P 4900 900
F 0 "#PWR050" H 4900 750 50  0001 C CNN
F 1 "VPP" H 4900 1050 50  0000 C CNN
F 2 "" H 4900 900 50  0000 C CNN
F 3 "" H 4900 900 50  0000 C CNN
	1    4900 900 
	1    0    0    -1  
$EndComp
Text GLabel 5300 2300 1    47   Input ~ 0
PH_A_OUT
Text GLabel 1400 2300 3    47   Input ~ 0
PH_A_CTL
Text GLabel 1400 3800 3    47   Input ~ 0
~PH_A_CTL
$Comp
L HCPL-3120 U203
U 1 1 5773189B
P 7600 1700
F 0 "U203" H 7600 2150 60  0000 C CNN
F 1 "HCPL-3120" H 7600 1225 60  0000 C CNN
F 2 "Local:SOP-8_W7.62mm" H 7475 1700 60  0001 C CNN
F 3 "" H 7475 1700 60  0000 C CNN
	1    7600 1700
	1    0    0    -1  
$EndComp
$Comp
L CP C206
U 1 1 577318A1
P 8600 2150
F 0 "C206" H 8625 2250 50  0000 L CNN
F 1 "47u 50V" H 8450 2050 50  0000 L CNN
F 2 "Local:CP_Radial_D6.3mm_P2.50mm" H 8638 2000 50  0001 C CNN
F 3 "" H 8600 2150 50  0000 C CNN
	1    8600 2150
	1    0    0    -1  
$EndComp
$Comp
L D D204
U 1 1 577318A7
P 8650 900
F 0 "D204" H 8650 1000 50  0000 C CNN
F 1 "FR207" H 8650 800 50  0000 C CNN
F 2 "Local:Diode_DO-41_SOD81_Vertical_KathodeUp" H 8650 900 50  0001 C CNN
F 3 "" H 8650 900 50  0000 C CNN
	1    8650 900 
	1    0    0    -1  
$EndComp
$Comp
L +24V #PWR051
U 1 1 577318AD
P 8900 800
F 0 "#PWR051" H 8900 650 50  0001 C CNN
F 1 "+24V" H 8900 940 50  0000 C CNN
F 2 "" H 8900 800 50  0000 C CNN
F 3 "" H 8900 800 50  0000 C CNN
	1    8900 800 
	1    0    0    -1  
$EndComp
$Comp
L Q_NIGBT_GCE Q203
U 1 1 577318B3
P 9900 1600
F 0 "Q203" H 9900 1750 50  0000 R CNN
F 1 "FGA25N120ANTD" V 10150 1600 50  0000 C CNN
F 2 "Local:TO-247_Horizontal_Neutral123_largePads" H 10100 1700 50  0001 C CNN
F 3 "" H 9900 1600 50  0000 C CNN
	1    9900 1600
	1    0    0    -1  
$EndComp
$Comp
L R R226
U 1 1 577318BF
P 9350 1300
F 0 "R226" V 9430 1300 50  0000 C CNN
F 1 "270K" V 9350 1300 50  0000 C CNN
F 2 "Local:R_0603" V 9280 1300 50  0001 C CNN
F 3 "" H 9350 1300 50  0000 C CNN
	1    9350 1300
	0    1    -1   0   
$EndComp
$Comp
L R R228
U 1 1 577318C5
P 8850 1600
F 0 "R228" V 8930 1600 50  0000 C CNN
F 1 "10R" V 8850 1600 50  0000 C CNN
F 2 "Local:R_1206" V 8780 1600 50  0001 C CNN
F 3 "" H 8850 1600 50  0000 C CNN
	1    8850 1600
	0    -1   -1   0   
$EndComp
$Comp
L TVS D205
U 1 1 577318D8
P 9600 2000
F 0 "D205" H 9600 2100 50  0000 C CNN
F 1 "P6KE15CA" H 9600 1900 50  0000 C CNN
F 2 "Local:Diode_DO-41_SOD81_Horizontal_RM10" H 9600 2000 50  0001 C CNN
F 3 "" H 9600 2000 50  0000 C CNN
	1    9600 2000
	0    -1   -1   0   
$EndComp
$Comp
L HCPL-3120 U204
U 1 1 577318E8
P 7600 3200
F 0 "U204" H 7600 3650 60  0000 C CNN
F 1 "HCPL-3120" H 7600 2725 60  0000 C CNN
F 2 "Local:SOP-8_W7.62mm" H 7475 3200 60  0001 C CNN
F 3 "" H 7475 3200 60  0000 C CNN
	1    7600 3200
	1    0    0    -1  
$EndComp
$Comp
L Q_NIGBT_GCE Q204
U 1 1 577318EE
P 9900 3100
F 0 "Q204" H 9900 3250 50  0000 R CNN
F 1 "FGA25N120ANTD" V 10150 3100 50  0000 C CNN
F 2 "Local:TO-247_Horizontal_Neutral123_largePads" H 10100 3200 50  0001 C CNN
F 3 "" H 9900 3100 50  0000 C CNN
	1    9900 3100
	1    0    0    -1  
$EndComp
$Comp
L TVS D206
U 1 1 577318F5
P 9600 3500
F 0 "D206" H 9600 3600 50  0000 C CNN
F 1 "P6KE15CA" H 9600 3400 50  0000 C CNN
F 2 "Local:Diode_DO-41_SOD81_Horizontal_RM10" H 9600 3500 50  0001 C CNN
F 3 "" H 9600 3500 50  0000 C CNN
	1    9600 3500
	0    -1   -1   0   
$EndComp
$Comp
L R R229
U 1 1 577318FB
P 8850 3100
F 0 "R229" V 8930 3100 50  0000 C CNN
F 1 "10R" V 8850 3100 50  0000 C CNN
F 2 "Local:R_1206" V 8780 3100 50  0001 C CNN
F 3 "" H 8850 3100 50  0000 C CNN
	1    8850 3100
	0    -1   -1   0   
$EndComp
$Comp
L R R227
U 1 1 57731901
P 9350 2800
F 0 "R227" V 9430 2800 50  0000 C CNN
F 1 "270K" V 9350 2800 50  0000 C CNN
F 2 "Local:R_0603" V 9280 2800 50  0001 C CNN
F 3 "" H 9350 2800 50  0000 C CNN
	1    9350 2800
	0    1    -1   0   
$EndComp
$Comp
L CP C208
U 1 1 5773191C
P 8600 3650
F 0 "C208" H 8625 3750 50  0000 L CNN
F 1 "47u 50V" H 8450 3550 50  0000 L CNN
F 2 "Local:CP_Radial_D6.3mm_P2.50mm" H 8638 3500 50  0001 C CNN
F 3 "" H 8600 3650 50  0000 C CNN
	1    8600 3650
	1    0    0    -1  
$EndComp
$Comp
L +24V #PWR052
U 1 1 57731926
P 8400 2800
F 0 "#PWR052" H 8400 2650 50  0001 C CNN
F 1 "+24V" H 8400 2940 50  0000 C CNN
F 2 "" H 8400 2800 50  0000 C CNN
F 3 "" H 8400 2800 50  0000 C CNN
	1    8400 2800
	1    0    0    -1  
$EndComp
$Comp
L VPP #PWR053
U 1 1 5773193F
P 10000 900
F 0 "#PWR053" H 10000 750 50  0001 C CNN
F 1 "VPP" H 10000 1050 50  0000 C CNN
F 2 "" H 10000 900 50  0000 C CNN
F 3 "" H 10000 900 50  0000 C CNN
	1    10000 900 
	1    0    0    -1  
$EndComp
Text GLabel 10400 2300 1    47   Input ~ 0
PH_B_OUT
Text GLabel 6500 2300 3    47   Input ~ 0
PH_B_CTL
Text GLabel 6500 3800 3    47   Input ~ 0
~PH_B_CTL
$Comp
L HCPL-3120 U205
U 1 1 57732AD9
P 2500 5200
F 0 "U205" H 2500 5650 60  0000 C CNN
F 1 "HCPL-3120" H 2500 4725 60  0000 C CNN
F 2 "Local:SOP-8_W7.62mm" H 2375 5200 60  0001 C CNN
F 3 "" H 2375 5200 60  0000 C CNN
	1    2500 5200
	1    0    0    -1  
$EndComp
$Comp
L CP C210
U 1 1 57732ADF
P 3500 5650
F 0 "C210" H 3525 5750 50  0000 L CNN
F 1 "47u 50V" H 3350 5550 50  0000 L CNN
F 2 "Local:CP_Radial_D6.3mm_P2.50mm" H 3538 5500 50  0001 C CNN
F 3 "" H 3500 5650 50  0000 C CNN
	1    3500 5650
	1    0    0    -1  
$EndComp
$Comp
L D D207
U 1 1 57732AE5
P 3550 4400
F 0 "D207" H 3550 4500 50  0000 C CNN
F 1 "FR207" H 3550 4300 50  0000 C CNN
F 2 "Local:Diode_DO-41_SOD81_Vertical_KathodeUp" H 3550 4400 50  0001 C CNN
F 3 "" H 3550 4400 50  0000 C CNN
	1    3550 4400
	1    0    0    -1  
$EndComp
$Comp
L +24V #PWR054
U 1 1 57732AEB
P 3800 4300
F 0 "#PWR054" H 3800 4150 50  0001 C CNN
F 1 "+24V" H 3800 4440 50  0000 C CNN
F 2 "" H 3800 4300 50  0000 C CNN
F 3 "" H 3800 4300 50  0000 C CNN
	1    3800 4300
	1    0    0    -1  
$EndComp
$Comp
L Q_NIGBT_GCE Q205
U 1 1 57732AF1
P 4800 5100
F 0 "Q205" H 4800 5250 50  0000 R CNN
F 1 "FGA25N120ANTD" V 5050 5100 50  0000 C CNN
F 2 "Local:TO-247_Horizontal_Neutral123_largePads" H 5000 5200 50  0001 C CNN
F 3 "" H 4800 5100 50  0000 C CNN
	1    4800 5100
	1    0    0    -1  
$EndComp
$Comp
L R R246
U 1 1 57732AFD
P 4250 4800
F 0 "R246" V 4330 4800 50  0000 C CNN
F 1 "270K" V 4250 4800 50  0000 C CNN
F 2 "Local:R_0603" V 4180 4800 50  0001 C CNN
F 3 "" H 4250 4800 50  0000 C CNN
	1    4250 4800
	0    1    -1   0   
$EndComp
$Comp
L R R248
U 1 1 57732B03
P 3750 5100
F 0 "R248" V 3830 5100 50  0000 C CNN
F 1 "10R" V 3750 5100 50  0000 C CNN
F 2 "Local:R_1206" V 3680 5100 50  0001 C CNN
F 3 "" H 3750 5100 50  0000 C CNN
	1    3750 5100
	0    -1   -1   0   
$EndComp
$Comp
L TVS D208
U 1 1 57732B16
P 4500 5500
F 0 "D208" H 4500 5600 50  0000 C CNN
F 1 "P6KE15CA" H 4500 5400 50  0000 C CNN
F 2 "Local:Diode_DO-41_SOD81_Horizontal_RM10" H 4500 5500 50  0001 C CNN
F 3 "" H 4500 5500 50  0000 C CNN
	1    4500 5500
	0    -1   -1   0   
$EndComp
$Comp
L HCPL-3120 U206
U 1 1 57732B26
P 2500 6700
F 0 "U206" H 2500 7150 60  0000 C CNN
F 1 "HCPL-3120" H 2500 6225 60  0000 C CNN
F 2 "Local:SOP-8_W7.62mm" H 2375 6700 60  0001 C CNN
F 3 "" H 2375 6700 60  0000 C CNN
	1    2500 6700
	1    0    0    -1  
$EndComp
$Comp
L Q_NIGBT_GCE Q206
U 1 1 57732B2C
P 4800 6600
F 0 "Q206" H 4800 6750 50  0000 R CNN
F 1 "FGA25N120ANTD" V 5050 6600 50  0000 C CNN
F 2 "Local:TO-247_Horizontal_Neutral123_largePads" H 5000 6700 50  0001 C CNN
F 3 "" H 4800 6600 50  0000 C CNN
	1    4800 6600
	1    0    0    -1  
$EndComp
$Comp
L TVS D209
U 1 1 57732B33
P 4500 7000
F 0 "D209" H 4500 7100 50  0000 C CNN
F 1 "P6KE15CA" H 4500 6900 50  0000 C CNN
F 2 "Local:Diode_DO-41_SOD81_Horizontal_RM10" H 4500 7000 50  0001 C CNN
F 3 "" H 4500 7000 50  0000 C CNN
	1    4500 7000
	0    -1   -1   0   
$EndComp
$Comp
L R R249
U 1 1 57732B39
P 3750 6600
F 0 "R249" V 3830 6600 50  0000 C CNN
F 1 "10R" V 3750 6600 50  0000 C CNN
F 2 "Local:R_1206" V 3680 6600 50  0001 C CNN
F 3 "" H 3750 6600 50  0000 C CNN
	1    3750 6600
	0    -1   -1   0   
$EndComp
$Comp
L R R247
U 1 1 57732B3F
P 4250 6300
F 0 "R247" V 4330 6300 50  0000 C CNN
F 1 "270K" V 4250 6300 50  0000 C CNN
F 2 "Local:R_0603" V 4180 6300 50  0001 C CNN
F 3 "" H 4250 6300 50  0000 C CNN
	1    4250 6300
	0    1    -1   0   
$EndComp
$Comp
L CP C212
U 1 1 57732B5A
P 3500 7150
F 0 "C212" H 3525 7250 50  0000 L CNN
F 1 "47u 50V" H 3350 7050 50  0000 L CNN
F 2 "Local:CP_Radial_D6.3mm_P2.50mm" H 3538 7000 50  0001 C CNN
F 3 "" H 3500 7150 50  0000 C CNN
	1    3500 7150
	1    0    0    -1  
$EndComp
$Comp
L +24V #PWR055
U 1 1 57732B64
P 3300 6300
F 0 "#PWR055" H 3300 6150 50  0001 C CNN
F 1 "+24V" H 3300 6440 50  0000 C CNN
F 2 "" H 3300 6300 50  0000 C CNN
F 3 "" H 3300 6300 50  0000 C CNN
	1    3300 6300
	1    0    0    -1  
$EndComp
$Comp
L VPP #PWR056
U 1 1 57732B7D
P 4900 4400
F 0 "#PWR056" H 4900 4250 50  0001 C CNN
F 1 "VPP" H 4900 4550 50  0000 C CNN
F 2 "" H 4900 4400 50  0000 C CNN
F 3 "" H 4900 4400 50  0000 C CNN
	1    4900 4400
	1    0    0    -1  
$EndComp
Text GLabel 5300 5800 1    47   Input ~ 0
PH_C_OUT
Text GLabel 1400 5800 3    47   Input ~ 0
PH_C_CTL
Text GLabel 1400 7300 3    47   Input ~ 0
~PH_C_CTL
Text GLabel 10000 5050 2    47   Input ~ 0
PH_A_OUT
Text GLabel 9900 6150 0    47   Input ~ 0
PH_C_OUT
Text GLabel 10000 5750 2    47   Input ~ 0
PH_B_OUT
$Comp
L R R222
U 1 1 577EBDD2
P 6500 2050
F 0 "R222" V 6580 2050 50  0000 C CNN
F 1 "180" V 6500 2050 50  0000 C CNN
F 2 "Local:R_0603" V 6430 2050 50  0001 C CNN
F 3 "" H 6500 2050 50  0000 C CNN
	1    6500 2050
	-1   0    0    -1  
$EndComp
$Comp
L R R224
U 1 1 577EC057
P 6500 3550
F 0 "R224" V 6580 3550 50  0000 C CNN
F 1 "180" V 6500 3550 50  0000 C CNN
F 2 "Local:R_0603" V 6430 3550 50  0001 C CNN
F 3 "" H 6500 3550 50  0000 C CNN
	1    6500 3550
	-1   0    0    -1  
$EndComp
$Comp
L R R202
U 1 1 577EC56D
P 1400 2050
F 0 "R202" V 1480 2050 50  0000 C CNN
F 1 "180" V 1400 2050 50  0000 C CNN
F 2 "Local:R_0603" V 1330 2050 50  0001 C CNN
F 3 "" H 1400 2050 50  0000 C CNN
	1    1400 2050
	-1   0    0    -1  
$EndComp
$Comp
L R R204
U 1 1 577EC6B5
P 1400 3550
F 0 "R204" V 1480 3550 50  0000 C CNN
F 1 "180" V 1400 3550 50  0000 C CNN
F 2 "Local:R_0603" V 1330 3550 50  0001 C CNN
F 3 "" H 1400 3550 50  0000 C CNN
	1    1400 3550
	-1   0    0    -1  
$EndComp
$Comp
L R R242
U 1 1 577EC858
P 1400 5550
F 0 "R242" V 1480 5550 50  0000 C CNN
F 1 "180" V 1400 5550 50  0000 C CNN
F 2 "Local:R_0603" V 1330 5550 50  0001 C CNN
F 3 "" H 1400 5550 50  0000 C CNN
	1    1400 5550
	-1   0    0    -1  
$EndComp
$Comp
L R R244
U 1 1 577EC972
P 1400 7050
F 0 "R244" V 1480 7050 50  0000 C CNN
F 1 "180" V 1400 7050 50  0000 C CNN
F 2 "Local:R_0603" V 1330 7050 50  0001 C CNN
F 3 "" H 1400 7050 50  0000 C CNN
	1    1400 7050
	-1   0    0    -1  
$EndComp
Text Label 4500 1300 0    47   ~ 0
PH_A_GH
Text Label 4500 2800 0    47   ~ 0
PH_A_GL
Text Label 4500 4800 0    47   ~ 0
PH_C_GH
Text Label 4500 6300 0    47   ~ 0
PH_C_GL
Text Label 9600 1300 0    47   ~ 0
PH_B_GH
Text Label 9600 2800 0    47   ~ 0
PH_B_GL
Text Label 3500 1400 0    47   ~ 0
PH_A_PH
Text Label 3500 4900 0    47   ~ 0
PH_C_PH
Text Label 8600 1400 0    47   ~ 0
PH_B_PH
$Comp
L CONN_01X01 P201
U 1 1 57FA8199
P 10200 4750
F 0 "P201" H 10200 4850 50  0000 C CNN
F 1 "M_PH_A" H 10200 4650 50  0000 C CNN
F 2 "Local:PIN_X1" H 10200 4750 50  0001 C CNN
F 3 "" H 10200 4750 50  0000 C CNN
	1    10200 4750
	1    0    0    -1  
$EndComp
$Comp
L CONN_01X01 P202
U 1 1 57FA8772
P 10200 5450
F 0 "P202" H 10200 5550 50  0000 C CNN
F 1 "M_PH_B" H 10200 5350 50  0000 C CNN
F 2 "Local:PIN_X1" H 10200 5450 50  0001 C CNN
F 3 "" H 10200 5450 50  0000 C CNN
	1    10200 5450
	1    0    0    -1  
$EndComp
$Comp
L CONN_01X01 P203
U 1 1 57FA89C3
P 10200 6150
F 0 "P203" H 10200 6250 50  0000 C CNN
F 1 "M_PH_C" H 10200 6050 50  0000 C CNN
F 2 "Local:PIN_X1" H 10200 6150 50  0001 C CNN
F 3 "" H 10200 6150 50  0000 C CNN
	1    10200 6150
	1    0    0    -1  
$EndComp
$Comp
L FERRITE_RING FR201
U 1 1 57FC02A8
P 9650 4900
F 0 "FR201" H 9650 5100 60  0000 C CNN
F 1 "D10_d6_h5" H 9650 4700 60  0000 C CNN
F 2 "Local:FR10_6" H 9650 4900 60  0001 C CNN
F 3 "" H 9650 4900 60  0000 C CNN
	1    9650 4900
	1    0    0    -1  
$EndComp
$Comp
L FERRITE_RING FR202
U 1 1 57FC1015
P 9650 5600
F 0 "FR202" H 9650 5800 60  0000 C CNN
F 1 "D10_d6_h5" H 9650 5400 60  0000 C CNN
F 2 "Local:FR10_6" H 9650 5600 60  0001 C CNN
F 3 "" H 9650 5600 60  0000 C CNN
	1    9650 5600
	1    0    0    -1  
$EndComp
$Comp
L SS49E U208
U 1 1 57FC1BC2
P 9100 5600
F 0 "U208" H 9150 5850 60  0000 C CNN
F 1 "SS49E" H 9150 5350 60  0000 C CNN
F 2 "Local:SS49E" H 9100 5600 60  0001 C CNN
F 3 "" H 9100 5600 60  0000 C CNN
	1    9100 5600
	1    0    0    -1  
$EndComp
$Comp
L SS49E U207
U 1 1 57FC1EF0
P 9100 4900
F 0 "U207" H 9150 5150 60  0000 C CNN
F 1 "SS49E" H 9150 4650 60  0000 C CNN
F 2 "Local:SS49E" H 9100 4900 60  0001 C CNN
F 3 "" H 9100 4900 60  0000 C CNN
	1    9100 4900
	1    0    0    -1  
$EndComp
$Comp
L GND #PWR057
U 1 1 57FC2A62
P 8800 5100
F 0 "#PWR057" H 8800 4850 50  0001 C CNN
F 1 "GND" H 8800 4950 50  0000 C CNN
F 2 "" H 8800 5100 50  0000 C CNN
F 3 "" H 8800 5100 50  0000 C CNN
	1    8800 5100
	1    0    0    -1  
$EndComp
$Comp
L GND #PWR058
U 1 1 57FC2B37
P 8800 5800
F 0 "#PWR058" H 8800 5550 50  0001 C CNN
F 1 "GND" H 8800 5650 50  0000 C CNN
F 2 "" H 8800 5800 50  0000 C CNN
F 3 "" H 8800 5800 50  0000 C CNN
	1    8800 5800
	1    0    0    -1  
$EndComp
$Comp
L R R261
U 1 1 57FC3DC7
P 8100 4550
F 0 "R261" V 8180 4550 50  0000 C CNN
F 1 "180" V 8100 4550 50  0000 C CNN
F 2 "Local:R_0603" V 8030 4550 50  0001 C CNN
F 3 "" H 8100 4550 50  0000 C CNN
	1    8100 4550
	-1   0    0    1   
$EndComp
$Comp
L +3V3 #PWR059
U 1 1 57FC47D1
P 6800 1200
F 0 "#PWR059" H 6800 1050 50  0001 C CNN
F 1 "+3V3" H 6800 1340 50  0000 C CNN
F 2 "" H 6800 1200 50  0000 C CNN
F 3 "" H 6800 1200 50  0000 C CNN
	1    6800 1200
	1    0    0    -1  
$EndComp
$Comp
L +3V3 #PWR060
U 1 1 57FC48A9
P 1700 1200
F 0 "#PWR060" H 1700 1050 50  0001 C CNN
F 1 "+3V3" H 1700 1340 50  0000 C CNN
F 2 "" H 1700 1200 50  0000 C CNN
F 3 "" H 1700 1200 50  0000 C CNN
	1    1700 1200
	1    0    0    -1  
$EndComp
$Comp
L +3V3 #PWR061
U 1 1 57FC4E1E
P 1700 4700
F 0 "#PWR061" H 1700 4550 50  0001 C CNN
F 1 "+3V3" H 1700 4840 50  0000 C CNN
F 2 "" H 1700 4700 50  0000 C CNN
F 3 "" H 1700 4700 50  0000 C CNN
	1    1700 4700
	1    0    0    -1  
$EndComp
Text GLabel 8700 5000 0    47   Input ~ 0
PH_A_SENS
Text GLabel 8700 5700 0    47   Input ~ 0
PH_B_SENS
$Comp
L C C261
U 1 1 57FC6497
P 8100 5750
F 0 "C261" H 8125 5850 50  0000 L CNN
F 1 "10u" H 8125 5650 50  0000 L CNN
F 2 "Local:C_0805" H 8138 5600 50  0001 C CNN
F 3 "" H 8100 5750 50  0000 C CNN
	1    8100 5750
	-1   0    0    -1  
$EndComp
$Comp
L GND #PWR062
U 1 1 57FC6ADA
P 8100 6000
F 0 "#PWR062" H 8100 5750 50  0001 C CNN
F 1 "GND" H 8100 5850 50  0000 C CNN
F 2 "" H 8100 6000 50  0000 C CNN
F 3 "" H 8100 6000 50  0000 C CNN
	1    8100 6000
	1    0    0    -1  
$EndComp
Text GLabel 8100 4300 1    60   Input ~ 0
+3V3A
Text GLabel 5000 3900 2    47   Input ~ 0
DRV_GND
Text GLabel 5000 7400 2    47   Input ~ 0
DRV_GND
Text GLabel 10100 3900 2    47   Input ~ 0
DRV_GND
Text Notes 7400 1000 0    60   ~ 0
t[D]=2uS
$Comp
L R R231
U 1 1 589278DB
P 10400 3050
F 0 "R231" V 10480 3050 50  0000 C CNN
F 1 "150K" V 10400 3050 50  0000 C CNN
F 2 "Local:R_1206" V 10330 3050 50  0001 C CNN
F 3 "" H 10400 3050 50  0000 C CNN
	1    10400 3050
	-1   0    0    -1  
$EndComp
$Comp
L R R251
U 1 1 58927980
P 5300 6550
F 0 "R251" V 5380 6550 50  0000 C CNN
F 1 "150K" V 5300 6550 50  0000 C CNN
F 2 "Local:R_1206" V 5230 6550 50  0001 C CNN
F 3 "" H 5300 6550 50  0000 C CNN
	1    5300 6550
	-1   0    0    -1  
$EndComp
$Comp
L R R210
U 1 1 58902438
P 5300 2650
F 0 "R210" V 5380 2650 50  0000 C CNN
F 1 "120K" V 5300 2650 50  0000 C CNN
F 2 "Local:R_1206" V 5230 2650 50  0001 C CNN
F 3 "" H 5300 2650 50  0000 C CNN
	1    5300 2650
	-1   0    0    -1  
$EndComp
$Comp
L R R230
U 1 1 58902A70
P 10400 2650
F 0 "R230" V 10480 2650 50  0000 C CNN
F 1 "120K" V 10400 2650 50  0000 C CNN
F 2 "Local:R_1206" V 10330 2650 50  0001 C CNN
F 3 "" H 10400 2650 50  0000 C CNN
	1    10400 2650
	-1   0    0    -1  
$EndComp
$Comp
L R R250
U 1 1 58902BD1
P 5300 6150
F 0 "R250" V 5380 6150 50  0000 C CNN
F 1 "120K" V 5300 6150 50  0000 C CNN
F 2 "Local:R_1206" V 5230 6150 50  0001 C CNN
F 3 "" H 5300 6150 50  0000 C CNN
	1    5300 6150
	-1   0    0    -1  
$EndComp
$Comp
L CP C201
U 1 1 5890A84B
P 4250 1600
F 0 "C201" V 4400 1600 50  0000 C CNN
F 1 "2u2 50V" V 4100 1600 50  0000 C CNN
F 2 "Local:CP_Radial_D4_L8_P2.0_HorizontalS" H 4288 1450 50  0001 C CNN
F 3 "" H 4250 1600 50  0000 C CNN
	1    4250 1600
	0    -1   -1   0   
$EndComp
$Comp
L CP C203
U 1 1 5890CCB7
P 4250 3100
F 0 "C203" V 4400 3100 50  0000 C CNN
F 1 "2u2 50V" V 4100 3100 50  0000 C CNN
F 2 "Local:CP_Radial_D4_L8_P2.0_HorizontalS" H 4288 2950 50  0001 C CNN
F 3 "" H 4250 3100 50  0000 C CNN
	1    4250 3100
	0    -1   -1   0   
$EndComp
$Comp
L CP C209
U 1 1 58910BDC
P 4250 5100
F 0 "C209" V 4400 5100 50  0000 C CNN
F 1 "2u2 50V" V 4100 5100 50  0000 C CNN
F 2 "Local:CP_Radial_D4_L8_P2.0_HorizontalS" H 4288 4950 50  0001 C CNN
F 3 "" H 4250 5100 50  0000 C CNN
	1    4250 5100
	0    -1   -1   0   
$EndComp
$Comp
L CP C211
U 1 1 58910D99
P 4250 6600
F 0 "C211" V 4400 6600 50  0000 C CNN
F 1 "2u2 50V" V 4100 6600 50  0000 C CNN
F 2 "Local:CP_Radial_D4_L8_P2.0_HorizontalS" H 4288 6450 50  0001 C CNN
F 3 "" H 4250 6600 50  0000 C CNN
	1    4250 6600
	0    -1   -1   0   
$EndComp
$Comp
L CP C205
U 1 1 589117A4
P 9350 1600
F 0 "C205" V 9500 1600 50  0000 C CNN
F 1 "2u2 50V" V 9200 1600 50  0000 C CNN
F 2 "Local:CP_Radial_D4_L8_P2.0_HorizontalS" H 9388 1450 50  0001 C CNN
F 3 "" H 9350 1600 50  0000 C CNN
	1    9350 1600
	0    -1   -1   0   
$EndComp
$Comp
L CP C207
U 1 1 5891192B
P 9350 3100
F 0 "C207" V 9500 3100 50  0000 C CNN
F 1 "2u2 50V" V 9200 3100 50  0000 C CNN
F 2 "Local:CP_Radial_D4_L8_P2.0_HorizontalS" H 9388 2950 50  0001 C CNN
F 3 "" H 9350 3100 50  0000 C CNN
	1    9350 3100
	0    -1   -1   0   
$EndComp
$Comp
L R R205
U 1 1 589120CF
P 3300 1150
F 0 "R205" V 3380 1150 50  0000 C CNN
F 1 "2R2" V 3300 1150 50  0000 C CNN
F 2 "Local:R_0603" V 3230 1150 50  0001 C CNN
F 3 "" H 3300 1150 50  0000 C CNN
	1    3300 1150
	-1   0    0    -1  
$EndComp
$Comp
L R R225
U 1 1 589138EA
P 8400 1150
F 0 "R225" V 8480 1150 50  0000 C CNN
F 1 "2R2" V 8400 1150 50  0000 C CNN
F 2 "Local:R_0603" V 8330 1150 50  0001 C CNN
F 3 "" H 8400 1150 50  0000 C CNN
	1    8400 1150
	-1   0    0    -1  
$EndComp
$Comp
L R R245
U 1 1 589142B4
P 3300 4650
F 0 "R245" V 3380 4650 50  0000 C CNN
F 1 "2R2" V 3300 4650 50  0000 C CNN
F 2 "Local:R_0603" V 3230 4650 50  0001 C CNN
F 3 "" H 3300 4650 50  0000 C CNN
	1    3300 4650
	-1   0    0    -1  
$EndComp
$Comp
L R R201
U 1 1 5891C0DA
P 1400 1550
F 0 "R201" V 1480 1550 50  0000 C CNN
F 1 "2K2" V 1400 1550 50  0000 C CNN
F 2 "Local:R_0603" V 1330 1550 50  0001 C CNN
F 3 "" H 1400 1550 50  0000 C CNN
	1    1400 1550
	-1   0    0    -1  
$EndComp
$Comp
L R R203
U 1 1 5891FE37
P 1400 3050
F 0 "R203" V 1480 3050 50  0000 C CNN
F 1 "2K2" V 1400 3050 50  0000 C CNN
F 2 "Local:R_0603" V 1330 3050 50  0001 C CNN
F 3 "" H 1400 3050 50  0000 C CNN
	1    1400 3050
	-1   0    0    -1  
$EndComp
$Comp
L R R241
U 1 1 58921788
P 1400 5050
F 0 "R241" V 1480 5050 50  0000 C CNN
F 1 "2K2" V 1400 5050 50  0000 C CNN
F 2 "Local:R_0603" V 1330 5050 50  0001 C CNN
F 3 "" H 1400 5050 50  0000 C CNN
	1    1400 5050
	-1   0    0    -1  
$EndComp
$Comp
L R R221
U 1 1 58922EF9
P 6500 1550
F 0 "R221" V 6580 1550 50  0000 C CNN
F 1 "2K2" V 6500 1550 50  0000 C CNN
F 2 "Local:R_0603" V 6430 1550 50  0001 C CNN
F 3 "" H 6500 1550 50  0000 C CNN
	1    6500 1550
	-1   0    0    -1  
$EndComp
$Comp
L R R243
U 1 1 5892472F
P 1400 6550
F 0 "R243" V 1480 6550 50  0000 C CNN
F 1 "2K2" V 1400 6550 50  0000 C CNN
F 2 "Local:R_0603" V 1330 6550 50  0001 C CNN
F 3 "" H 1400 6550 50  0000 C CNN
	1    1400 6550
	-1   0    0    -1  
$EndComp
$Comp
L R R223
U 1 1 58925D51
P 6500 3050
F 0 "R223" V 6580 3050 50  0000 C CNN
F 1 "2K2" V 6500 3050 50  0000 C CNN
F 2 "Local:R_0603" V 6430 3050 50  0001 C CNN
F 3 "" H 6500 3050 50  0000 C CNN
	1    6500 3050
	-1   0    0    -1  
$EndComp
$Comp
L R R262
U 1 1 58908D78
P 6500 5850
F 0 "R262" V 6580 5850 50  0000 C CNN
F 1 "4K7" V 6507 5851 50  0000 C CNN
F 2 "Local:R_0603" V 6430 5850 30  0001 C CNN
F 3 "" H 6500 5850 30  0000 C CNN
	1    6500 5850
	-1   0    0    1   
$EndComp
$Comp
L GND #PWR063
U 1 1 58908D7F
P 6500 6100
F 0 "#PWR063" H 6500 5850 50  0001 C CNN
F 1 "GND" H 6500 5950 50  0000 C CNN
F 2 "" H 6500 6100 60  0000 C CNN
F 3 "" H 6500 6100 60  0000 C CNN
	1    6500 6100
	1    0    0    -1  
$EndComp
Text GLabel 7100 5600 2    47   Input ~ 0
DRV_TMP
$Comp
L THERMISTOR TH201
U 1 1 58908D86
P 6500 5250
F 0 "TH201" V 6600 5300 50  0000 C CNN
F 1 "100K" V 6400 5250 50  0000 C BNN
F 2 "Local:Molex_KK-6410-02_02x2.54mm_Straight" H 6500 5250 60  0001 C CNN
F 3 "" H 6500 5250 60  0000 C CNN
	1    6500 5250
	-1   0    0    -1  
$EndComp
$Comp
L R R263
U 1 1 58908D93
P 6750 5600
F 0 "R263" V 6830 5600 50  0000 C CNN
F 1 "2K2" V 6757 5601 50  0000 C CNN
F 2 "Local:R_0603" V 6680 5600 30  0001 C CNN
F 3 "" H 6750 5600 30  0000 C CNN
	1    6750 5600
	0    -1   -1   0   
$EndComp
$Comp
L C C262
U 1 1 58908D9A
P 7000 5850
F 0 "C262" H 7025 5950 50  0000 L CNN
F 1 "10n" H 7000 5750 50  0000 L CNN
F 2 "Local:C_0603" H 7038 5700 50  0001 C CNN
F 3 "" H 7000 5850 50  0000 C CNN
	1    7000 5850
	-1   0    0    -1  
$EndComp
$Comp
L GND #PWR064
U 1 1 58908DA1
P 7000 6100
F 0 "#PWR064" H 7000 5850 50  0001 C CNN
F 1 "GND" H 7000 5950 50  0000 C CNN
F 2 "" H 7000 6100 60  0000 C CNN
F 3 "" H 7000 6100 60  0000 C CNN
	1    7000 6100
	1    0    0    -1  
$EndComp
Text GLabel 6500 4900 1    60   Input ~ 0
+3V3A
Text Notes 11800 4350 0    60   ~ 0
/* Motors data */\n\nEQ[Z]: Z = X[L] + R, X[L] = 2*%pi*f*L;\nPR[IN]: [f=50]$\nPR[M1]: [R=7.5, L=30e-3]$\nPR[M2]: [R=3.8, L=16.5e-3]$\nEQ[Z], PR[IN], PR[M1], numer;\nEQ[Z], PR[IN], PR[M2], numer;
NoConn ~ 6900 2000
NoConn ~ 6900 2900
NoConn ~ 6900 3500
NoConn ~ 1800 1400
NoConn ~ 1800 2000
NoConn ~ 1800 2900
NoConn ~ 1800 3500
NoConn ~ 1800 4900
NoConn ~ 1800 5500
NoConn ~ 1800 6400
NoConn ~ 1800 7000
NoConn ~ 6900 1400
$Comp
L PWR_FLAG #FLG065
U 1 1 5899DEB6
P 8700 1900
F 0 "#FLG065" H 8700 1995 50  0001 C CNN
F 1 "PWR_FLAG" V 8700 2250 50  0000 C CNN
F 2 "" H 8700 1900 50  0000 C CNN
F 3 "" H 8700 1900 50  0000 C CNN
	1    8700 1900
	0    1    1    0   
$EndComp
$Comp
L PWR_FLAG #FLG066
U 1 1 5899E2A4
P 3600 1900
F 0 "#FLG066" H 3600 1995 50  0001 C CNN
F 1 "PWR_FLAG" V 3600 2250 50  0000 C CNN
F 2 "" H 3600 1900 50  0000 C CNN
F 3 "" H 3600 1900 50  0000 C CNN
	1    3600 1900
	0    1    1    0   
$EndComp
$Comp
L PWR_FLAG #FLG067
U 1 1 5899E8FB
P 3600 3400
F 0 "#FLG067" H 3600 3495 50  0001 C CNN
F 1 "PWR_FLAG" V 3600 3750 50  0000 C CNN
F 2 "" H 3600 3400 50  0000 C CNN
F 3 "" H 3600 3400 50  0000 C CNN
	1    3600 3400
	0    1    1    0   
$EndComp
$Comp
L PWR_FLAG #FLG068
U 1 1 5899F0C5
P 3600 5400
F 0 "#FLG068" H 3600 5495 50  0001 C CNN
F 1 "PWR_FLAG" V 3600 5750 50  0000 C CNN
F 2 "" H 3600 5400 50  0000 C CNN
F 3 "" H 3600 5400 50  0000 C CNN
	1    3600 5400
	0    1    1    0   
$EndComp
$Comp
L PWR_FLAG #FLG069
U 1 1 589A3C19
P 8000 4800
F 0 "#FLG069" H 8000 4895 50  0001 C CNN
F 1 "PWR_FLAG" V 8000 5150 50  0000 C CNN
F 2 "" H 8000 4800 50  0000 C CNN
F 3 "" H 8000 4800 50  0000 C CNN
	1    8000 4800
	0    -1   -1   0   
$EndComp
$Comp
L PWR_FLAG #FLG070
U 1 1 589A4E5A
P 3200 2400
F 0 "#FLG070" H 3200 2495 50  0001 C CNN
F 1 "PWR_FLAG" V 3200 2750 50  0000 C CNN
F 2 "" H 3200 2400 50  0000 C CNN
F 3 "" H 3200 2400 50  0000 C CNN
	1    3200 2400
	0    -1   -1   0   
$EndComp
$Comp
L PWR_FLAG #FLG071
U 1 1 589A599C
P 3200 5900
F 0 "#FLG071" H 3200 5995 50  0001 C CNN
F 1 "PWR_FLAG" V 3200 6250 50  0000 C CNN
F 2 "" H 3200 5900 50  0000 C CNN
F 3 "" H 3200 5900 50  0000 C CNN
	1    3200 5900
	0    -1   -1   0   
$EndComp
$Comp
L PWR_FLAG #FLG072
U 1 1 589A6707
P 8300 2400
F 0 "#FLG072" H 8300 2495 50  0001 C CNN
F 1 "PWR_FLAG" V 8300 2750 50  0000 C CNN
F 2 "" H 8300 2400 50  0000 C CNN
F 3 "" H 8300 2400 50  0000 C CNN
	1    8300 2400
	0    -1   -1   0   
$EndComp
Connection ~ 8400 2400
Connection ~ 3300 5900
Connection ~ 3500 5400
Wire Wire Line
	3600 5400 3500 5400
Connection ~ 3500 3400
Wire Wire Line
	3600 3400 3500 3400
Connection ~ 3500 1900
Wire Wire Line
	3600 1900 3500 1900
Connection ~ 8600 1900
Wire Wire Line
	8700 1900 8600 1900
Wire Wire Line
	9500 2800 9600 2800
Wire Wire Line
	9500 1300 9600 1300
Wire Wire Line
	4400 6300 4500 6300
Wire Wire Line
	4400 4800 4500 4800
Wire Wire Line
	4500 2800 4400 2800
Wire Wire Line
	4500 1300 4400 1300
Wire Wire Line
	10000 5750 9900 5750
Wire Wire Line
	10000 5050 9900 5050
Connection ~ 4900 6900
Wire Wire Line
	5300 6900 4900 6900
Connection ~ 10000 3400
Wire Wire Line
	10400 3400 10000 3400
Connection ~ 4900 3400
Wire Wire Line
	5300 3400 4900 3400
Connection ~ 7000 5600
Wire Wire Line
	7000 6000 7000 6100
Wire Wire Line
	7000 5600 7000 5700
Wire Wire Line
	6900 5600 7100 5600
Connection ~ 6500 5600
Wire Wire Line
	6600 5600 6500 5600
Wire Wire Line
	6500 6000 6500 6100
Wire Wire Line
	6500 5500 6500 5700
Wire Wire Line
	6500 4900 6500 5000
Connection ~ 6800 2800
Wire Wire Line
	6800 2800 6500 2800
Wire Wire Line
	6500 2800 6500 2900
Connection ~ 6500 3300
Wire Wire Line
	6500 3200 6500 3400
Connection ~ 6500 1800
Wire Wire Line
	6500 1700 6500 1900
Connection ~ 6800 1300
Wire Wire Line
	6500 1300 6500 1400
Wire Wire Line
	6800 1300 6500 1300
Connection ~ 1400 6800
Wire Wire Line
	1400 6700 1400 6900
Connection ~ 1700 6300
Wire Wire Line
	1700 6300 1400 6300
Wire Wire Line
	1400 6300 1400 6400
Connection ~ 1400 5300
Wire Wire Line
	1400 5200 1400 5400
Connection ~ 1700 4800
Wire Wire Line
	1400 4800 1400 4900
Wire Wire Line
	1700 4800 1400 4800
Wire Wire Line
	1400 2200 1400 2300
Connection ~ 1400 3300
Wire Wire Line
	1400 3200 1400 3400
Connection ~ 1700 2800
Wire Wire Line
	1700 2800 1400 2800
Wire Wire Line
	1400 2800 1400 2900
Connection ~ 1700 1300
Wire Wire Line
	1400 1300 1400 1400
Wire Wire Line
	1700 1300 1400 1300
Connection ~ 1400 1800
Wire Wire Line
	1400 1700 1400 1900
Connection ~ 5300 5900
Connection ~ 10400 2400
Connection ~ 5300 2400
Wire Wire Line
	3800 4400 3800 4300
Wire Wire Line
	3700 4400 3800 4400
Wire Wire Line
	3300 4400 3400 4400
Wire Wire Line
	8900 900  8900 800 
Wire Wire Line
	8800 900  8900 900 
Wire Wire Line
	8400 900  8500 900 
Wire Wire Line
	3800 900  3800 800 
Wire Wire Line
	3700 900  3800 900 
Wire Wire Line
	3300 900  3400 900 
Wire Wire Line
	5300 6300 5300 6400
Wire Wire Line
	5300 6700 5300 6900
Wire Wire Line
	10400 2800 10400 2900
Wire Wire Line
	10400 3200 10400 3400
Connection ~ 10000 3900
Connection ~ 4900 3900
Connection ~ 4900 7400
Wire Wire Line
	8100 5900 8100 6000
Connection ~ 8100 5500
Wire Wire Line
	8100 4400 8100 4300
Connection ~ 8100 4800
Wire Wire Line
	8900 5000 8700 5000
Wire Wire Line
	8900 5700 8700 5700
Wire Wire Line
	8100 5500 8900 5500
Wire Wire Line
	8000 4800 8900 4800
Wire Wire Line
	8100 4700 8100 5600
Wire Wire Line
	8800 5600 8800 5800
Wire Wire Line
	8900 5600 8800 5600
Wire Wire Line
	8800 4900 8800 5100
Wire Wire Line
	8900 4900 8800 4900
Wire Wire Line
	5300 2800 5300 2900
Wire Wire Line
	1400 7200 1400 7300
Wire Wire Line
	1400 5700 1400 5800
Wire Wire Line
	1400 3700 1400 3800
Wire Wire Line
	6500 3700 6500 3800
Wire Wire Line
	6500 2200 6500 2300
Wire Wire Line
	10000 6150 9900 6150
Wire Wire Line
	9900 5450 10000 5450
Wire Wire Line
	9900 4750 10000 4750
Wire Wire Line
	5300 3200 5300 3400
Connection ~ 1700 5100
Wire Wire Line
	1400 6800 1800 6800
Wire Wire Line
	1400 5300 1800 5300
Wire Wire Line
	1700 6600 1800 6600
Wire Wire Line
	1700 4700 1700 6600
Wire Wire Line
	1700 5100 1800 5100
Wire Wire Line
	4900 4900 4900 4400
Connection ~ 4500 7400
Wire Wire Line
	4900 7400 4900 6800
Connection ~ 4900 5900
Connection ~ 4500 5900
Wire Wire Line
	4900 5300 4900 6400
Connection ~ 3300 6400
Wire Wire Line
	3300 6300 3300 6400
Wire Wire Line
	3200 6400 3500 6400
Wire Wire Line
	3500 6400 3500 7000
Connection ~ 3500 7400
Wire Wire Line
	3500 7300 3500 7400
Connection ~ 4500 6600
Wire Wire Line
	4500 6300 4500 6700
Wire Wire Line
	4500 7400 4500 7300
Wire Wire Line
	3300 7400 5000 7400
Wire Wire Line
	3300 7000 3300 7400
Wire Wire Line
	3200 7000 3300 7000
Connection ~ 3300 6600
Wire Wire Line
	3300 6800 3300 6600
Wire Wire Line
	3200 6800 3300 6800
Wire Wire Line
	3200 6600 3600 6600
Connection ~ 4000 6600
Wire Wire Line
	4000 6300 4100 6300
Wire Wire Line
	4000 6600 4000 6300
Wire Wire Line
	3900 6600 4100 6600
Wire Wire Line
	4400 6600 4600 6600
Connection ~ 3500 5900
Wire Wire Line
	4500 5900 4500 5800
Connection ~ 4000 5100
Wire Wire Line
	3900 5100 4100 5100
Wire Wire Line
	4000 4800 4000 5100
Wire Wire Line
	4100 4800 4000 4800
Connection ~ 3300 5100
Connection ~ 4500 5100
Wire Wire Line
	4500 4800 4500 5200
Wire Wire Line
	4400 5100 4600 5100
Connection ~ 3300 4900
Wire Wire Line
	3500 4900 3500 5500
Wire Wire Line
	3500 5900 3500 5800
Wire Wire Line
	5300 5800 5300 6000
Wire Wire Line
	3200 5900 5300 5900
Wire Wire Line
	3300 5500 3300 5900
Wire Wire Line
	3200 5500 3300 5500
Wire Wire Line
	3300 4500 3300 4400
Wire Wire Line
	3200 4900 3500 4900
Wire Wire Line
	3300 4800 3300 4900
Wire Wire Line
	3300 5300 3200 5300
Wire Wire Line
	3300 5100 3300 5300
Wire Wire Line
	3200 5100 3600 5100
Connection ~ 6800 1600
Wire Wire Line
	6500 3300 6900 3300
Wire Wire Line
	6500 1800 6900 1800
Wire Wire Line
	6800 3100 6900 3100
Wire Wire Line
	6800 1200 6800 3100
Wire Wire Line
	6800 1600 6900 1600
Wire Wire Line
	10000 1400 10000 900 
Connection ~ 9600 3900
Wire Wire Line
	10000 3900 10000 3300
Connection ~ 10000 2400
Connection ~ 9600 2400
Wire Wire Line
	10000 1800 10000 2900
Connection ~ 8400 2900
Wire Wire Line
	8400 2800 8400 2900
Wire Wire Line
	8300 2900 8600 2900
Wire Wire Line
	8600 2900 8600 3500
Connection ~ 8600 3900
Wire Wire Line
	8600 3800 8600 3900
Connection ~ 9600 3100
Wire Wire Line
	9600 2800 9600 3200
Wire Wire Line
	9600 3900 9600 3800
Wire Wire Line
	8400 3900 10100 3900
Wire Wire Line
	8400 3500 8400 3900
Wire Wire Line
	8300 3500 8400 3500
Connection ~ 8400 3100
Wire Wire Line
	8400 3300 8400 3100
Wire Wire Line
	8300 3300 8400 3300
Wire Wire Line
	8300 3100 8700 3100
Connection ~ 9100 3100
Wire Wire Line
	9100 2800 9200 2800
Wire Wire Line
	9100 3100 9100 2800
Wire Wire Line
	9000 3100 9200 3100
Wire Wire Line
	9500 3100 9700 3100
Connection ~ 8600 2400
Wire Wire Line
	9600 2400 9600 2300
Connection ~ 9100 1600
Wire Wire Line
	9000 1600 9200 1600
Wire Wire Line
	9100 1300 9100 1600
Wire Wire Line
	9200 1300 9100 1300
Connection ~ 8400 1600
Connection ~ 9600 1600
Wire Wire Line
	9600 1300 9600 1700
Wire Wire Line
	9500 1600 9700 1600
Connection ~ 8400 1400
Wire Wire Line
	8600 1400 8600 2000
Wire Wire Line
	8600 2400 8600 2300
Wire Wire Line
	10400 2300 10400 2500
Wire Wire Line
	8300 2400 10400 2400
Wire Wire Line
	8400 2000 8400 2400
Wire Wire Line
	8300 2000 8400 2000
Wire Wire Line
	8400 1000 8400 900 
Wire Wire Line
	8300 1400 8600 1400
Wire Wire Line
	8400 1300 8400 1400
Wire Wire Line
	8400 1800 8300 1800
Wire Wire Line
	8400 1600 8400 1800
Wire Wire Line
	8300 1600 8700 1600
Connection ~ 1700 1600
Wire Wire Line
	1400 3300 1800 3300
Wire Wire Line
	1400 1800 1800 1800
Wire Wire Line
	1700 3100 1800 3100
Wire Wire Line
	1700 1200 1700 3100
Wire Wire Line
	1700 1600 1800 1600
Wire Wire Line
	4900 1400 4900 900 
Connection ~ 4500 3900
Wire Wire Line
	4900 3900 4900 3300
Connection ~ 4900 2400
Connection ~ 4500 2400
Wire Wire Line
	4900 1800 4900 2900
Connection ~ 3300 2900
Wire Wire Line
	3300 2800 3300 2900
Wire Wire Line
	3200 2900 3500 2900
Wire Wire Line
	3500 2900 3500 3500
Connection ~ 3500 3900
Wire Wire Line
	3500 3800 3500 3900
Connection ~ 4500 3100
Wire Wire Line
	4500 2800 4500 3200
Wire Wire Line
	4500 3900 4500 3800
Wire Wire Line
	3300 3900 5000 3900
Wire Wire Line
	3300 3500 3300 3900
Wire Wire Line
	3200 3500 3300 3500
Connection ~ 3300 3100
Wire Wire Line
	3300 3300 3300 3100
Wire Wire Line
	3200 3300 3300 3300
Wire Wire Line
	3200 3100 3600 3100
Connection ~ 4000 3100
Wire Wire Line
	4000 2800 4100 2800
Wire Wire Line
	4000 3100 4000 2800
Wire Wire Line
	3900 3100 4100 3100
Wire Wire Line
	4400 3100 4600 3100
Connection ~ 3500 2400
Wire Wire Line
	4500 2400 4500 2300
Connection ~ 4000 1600
Wire Wire Line
	3900 1600 4100 1600
Wire Wire Line
	4000 1300 4000 1600
Wire Wire Line
	4100 1300 4000 1300
Connection ~ 3300 1600
Connection ~ 4500 1600
Wire Wire Line
	4500 1300 4500 1700
Wire Wire Line
	4400 1600 4600 1600
Connection ~ 3300 1400
Wire Wire Line
	3500 1400 3500 2000
Wire Wire Line
	3500 2400 3500 2300
Wire Wire Line
	5300 2300 5300 2500
Wire Wire Line
	3200 2400 5300 2400
Wire Wire Line
	3300 2000 3300 2400
Wire Wire Line
	3200 2000 3300 2000
Wire Wire Line
	3300 1000 3300 900 
Wire Wire Line
	3200 1400 3500 1400
Wire Wire Line
	3300 1300 3300 1400
Wire Wire Line
	3300 1800 3200 1800
Wire Wire Line
	3300 1600 3300 1800
Wire Wire Line
	3200 1600 3600 1600
Connection ~ 3300 2400
$EndSCHEMATC
