EESchema Schematic File Version 2
LIBS:power
LIBS:device
LIBS:transistors
LIBS:conn
LIBS:linear
LIBS:regul
LIBS:74xx
LIBS:cmos4000
LIBS:adc-dac
LIBS:memory
LIBS:xilinx
LIBS:microcontrollers
LIBS:dsp
LIBS:microchip
LIBS:analog_switches
LIBS:motorola
LIBS:texas
LIBS:intel
LIBS:audio
LIBS:interface
LIBS:digital-audio
LIBS:philips
LIBS:display
LIBS:cypress
LIBS:siliconi
LIBS:opto
LIBS:atmel
LIBS:contrib
LIBS:valves
LIBS:bridge
LIBS:addon
LIBS:stm32
LIBS:hall
LIBS:driver
LIBS:lph7366
LIBS:handler
LIBS:iface
LIBS:radio
LIBS:esdprot
LIBS:project-cache
EELAYER 25 0
EELAYER END
$Descr A4 11693 8268
encoding utf-8
Sheet 5 5
Title "3-Phase Inverter"
Date "2017-02-07"
Rev "Rev. 0.3"
Comp "Illumium.Org"
Comment1 ""
Comment2 ""
Comment3 ""
Comment4 ""
$EndDescr
$Comp
L PC817 U404
U 1 1 571D1672
P 1800 3100
F 0 "U404" H 1800 3300 50  0000 C CNN
F 1 "PC817C" H 1800 2900 50  0000 C CNN
F 2 "Local:SODIP-4_W7.62mm" H 1600 2900 50  0001 L CIN
F 3 "" H 1800 3100 50  0000 L CNN
	1    1800 3100
	-1   0    0    -1  
$EndComp
$Comp
L D_Schottky D403
U 1 1 571D18D1
P 6650 2900
F 0 "D403" H 6650 3000 50  0000 C CNN
F 1 "US1D" H 6650 2800 50  0000 C CNN
F 2 "Local:SMB_Standard" H 6650 2900 60  0001 C CNN
F 3 "" H 6650 2900 60  0000 C CNN
	1    6650 2900
	-1   0    0    -1  
$EndComp
$Comp
L CP C404
U 1 1 571D1A26
P 8500 3350
F 0 "C404" H 8525 3450 50  0000 L CNN
F 1 "1000u 35V" H 8250 3250 50  0000 L CNN
F 2 "Local:CP_Radial_D10.0mm_P5.00mm" H 8538 3200 30  0001 C CNN
F 3 "" H 8500 3350 60  0000 C CNN
	1    8500 3350
	1    0    0    -1  
$EndComp
$Comp
L TRANS_4X T401
U 1 1 571D1D9E
P 6000 3300
F 0 "T401" H 5850 3650 50  0000 C CNN
F 1 "PC40 EE19 GAP 0.4mm" H 6000 2800 50  0000 C CNN
F 2 "Local:TRANS_EE19_5" H 6000 3300 60  0001 C CNN
F 3 "" H 6000 3300 60  0000 C CNN
	1    6000 3300
	1    0    0    -1  
$EndComp
$Comp
L C C401
U 1 1 571D205F
P 5500 5050
F 0 "C401" H 5525 5150 50  0000 L CNN
F 1 "2n2 250V" H 5350 4950 50  0000 L CNN
F 2 "Local:C_Rect_L7_W4.5_P5" H 5538 4900 30  0001 C CNN
F 3 "" H 5500 5050 60  0000 C CNN
	1    5500 5050
	1    0    0    -1  
$EndComp
$Comp
L TNY278PN U401
U 1 1 571D2546
P 5000 4100
F 0 "U401" H 5000 4450 60  0000 C CNN
F 1 "TNY278PN" H 5000 3750 60  0000 C CNN
F 2 "Local:DIP-8_n3_W7.62mm" H 5000 4100 60  0001 C CNN
F 3 "" H 5000 4100 60  0000 C CNN
	1    5000 4100
	1    0    0    -1  
$EndComp
$Comp
L ZENER D402
U 1 1 571D2984
P 5000 3200
F 0 "D402" H 5000 3300 50  0000 C CNN
F 1 "P6KE150A" H 5000 3100 50  0000 C CNN
F 2 "Local:Diode_DO-41_SOD81_Vertical_KathodeUp" H 5000 3200 60  0001 C CNN
F 3 "" H 5000 3200 60  0000 C CNN
	1    5000 3200
	0    -1   -1   0   
$EndComp
Text GLabel 5000 2800 1    60   Input ~ 0
HV+PSU
$Comp
L D D406
U 1 1 571D2F9E
P 5250 3500
F 0 "D406" H 5250 3600 50  0000 C CNN
F 1 "FR107" H 5250 3400 50  0000 C CNN
F 2 "Local:D_SOD-123" H 5250 3500 60  0001 C CNN
F 3 "" H 5250 3500 60  0000 C CNN
	1    5250 3500
	1    0    0    -1  
$EndComp
$Comp
L R R407
U 1 1 571E341B
P 2400 3050
F 0 "R407" V 2480 3050 50  0000 C CNN
F 1 "1K" V 2400 3050 50  0000 C CNN
F 2 "Local:R_0603" V 2330 3050 30  0001 C CNN
F 3 "" H 2400 3050 30  0000 C CNN
	1    2400 3050
	-1   0    0    -1  
$EndComp
$Comp
L R R405
U 1 1 571E3FEC
P 2400 2550
F 0 "R405" V 2480 2550 50  0000 C CNN
F 1 "220" V 2400 2550 50  0000 C CNN
F 2 "Local:R_0603" V 2330 2550 30  0001 C CNN
F 3 "" H 2400 2550 30  0000 C CNN
	1    2400 2550
	-1   0    0    1   
$EndComp
$Comp
L D_Schottky D405
U 1 1 571E5BCC
P 6650 3400
F 0 "D405" H 6650 3500 50  0000 C CNN
F 1 "US1D" H 6650 3300 50  0000 C CNN
F 2 "Local:SMB_Standard" H 6650 3400 60  0001 C CNN
F 3 "" H 6650 3400 60  0000 C CNN
	1    6650 3400
	-1   0    0    -1  
$EndComp
$Comp
L CP C405
U 1 1 571E5DB9
P 8500 5450
F 0 "C405" H 8525 5550 50  0000 L CNN
F 1 "470u 25V" H 8300 5350 50  0000 L CNN
F 2 "Local:CP_Radial_D8.0mm_P3.50mm" H 8538 5300 30  0001 C CNN
F 3 "" H 8500 5450 60  0000 C CNN
	1    8500 5450
	1    0    0    -1  
$EndComp
$Comp
L CP C406
U 1 1 571E7B19
P 9100 3350
F 0 "C406" H 9125 3450 50  0000 L CNN
F 1 "1000u 35V" H 8850 3250 50  0000 L CNN
F 2 "Local:CP_Radial_D10.0mm_P5.00mm" H 9138 3200 30  0001 C CNN
F 3 "" H 9100 3350 60  0000 C CNN
	1    9100 3350
	1    0    0    -1  
$EndComp
$Comp
L R R403
U 1 1 57467054
P 4300 3750
F 0 "R403" V 4380 3750 50  0000 C CNN
F 1 "2M2" V 4300 3750 50  0000 C CNN
F 2 "Local:R_1206" V 4230 3750 30  0001 C CNN
F 3 "" H 4300 3750 30  0000 C CNN
	1    4300 3750
	-1   0    0    1   
$EndComp
$Comp
L R R401
U 1 1 57467419
P 4300 3150
F 0 "R401" V 4380 3150 50  0000 C CNN
F 1 "2M2" V 4300 3150 50  0000 C CNN
F 2 "Local:R_1206" V 4230 3150 30  0001 C CNN
F 3 "" H 4300 3150 30  0000 C CNN
	1    4300 3150
	-1   0    0    1   
$EndComp
Text Notes 4000 3500 0    60   ~ 0
R[UV]
Text GLabel 4300 4300 0    60   Input ~ 0
EN/UV
$Comp
L D_Schottky D404
U 1 1 5888C339
P 6950 3100
F 0 "D404" H 6950 3200 50  0000 C CNN
F 1 "US1D" H 6950 3000 50  0000 C CNN
F 2 "Local:SMB_Standard" H 6950 3100 60  0001 C CNN
F 3 "" H 6950 3100 60  0000 C CNN
	1    6950 3100
	-1   0    0    -1  
$EndComp
$Comp
L CP C409
U 1 1 5888DD6D
P 9500 5450
F 0 "C409" H 9525 5550 50  0000 L CNN
F 1 "47u 25V" H 9350 5350 50  0000 L CNN
F 2 "Local:CP_Radial_D5.0mm_P2.00mm" H 9538 5300 30  0001 C CNN
F 3 "" H 9500 5450 60  0000 C CNN
	1    9500 5450
	1    0    0    -1  
$EndComp
$Comp
L D_Schottky D407
U 1 1 5889092F
P 6950 3600
F 0 "D407" H 6950 3700 50  0000 C CNN
F 1 "US1D" H 6950 3500 50  0000 C CNN
F 2 "Local:SMB_Standard" H 6950 3600 60  0001 C CNN
F 3 "" H 6950 3600 60  0000 C CNN
	1    6950 3600
	-1   0    0    -1  
$EndComp
Text GLabel 1400 2900 1    60   Input ~ 0
EN/UV
$Comp
L CP C407
U 1 1 588951D3
P 9800 3350
F 0 "C407" H 9825 3450 50  0000 L CNN
F 1 "470u 25V" H 9600 3250 50  0000 L CNN
F 2 "Local:CP_Radial_D8.0mm_P3.50mm" H 9838 3200 30  0001 C CNN
F 3 "" H 9800 3350 60  0000 C CNN
	1    9800 3350
	1    0    0    -1  
$EndComp
$Comp
L PC817 U405
U 1 1 5889A496
P 1800 5600
F 0 "U405" H 1800 5800 50  0000 C CNN
F 1 "PC817C" H 1800 5400 50  0000 C CNN
F 2 "Local:SODIP-4_W7.62mm" H 1600 5400 50  0001 L CIN
F 3 "" H 1800 5600 50  0000 L CNN
	1    1800 5600
	-1   0    0    -1  
$EndComp
$Comp
L R R408
U 1 1 5889A49D
P 2400 5550
F 0 "R408" V 2480 5550 50  0000 C CNN
F 1 "1K" V 2400 5550 50  0000 C CNN
F 2 "Local:R_0603" V 2330 5550 30  0001 C CNN
F 3 "" H 2400 5550 30  0000 C CNN
	1    2400 5550
	-1   0    0    -1  
$EndComp
$Comp
L R R406
U 1 1 5889A4A3
P 2400 5050
F 0 "R406" V 2480 5050 50  0000 C CNN
F 1 "680" V 2400 5050 50  0000 C CNN
F 2 "Local:R_0603" V 2330 5050 30  0001 C CNN
F 3 "" H 2400 5050 30  0000 C CNN
	1    2400 5050
	-1   0    0    1   
$EndComp
Text GLabel 1400 5400 1    60   Input ~ 0
EN/UV
$Comp
L LD1117S33TR U402
U 1 1 5889D675
P 9000 5250
F 0 "U402" H 9000 5550 50  0000 C CNN
F 1 "AMS1117_33" H 9000 5450 50  0000 C CNN
F 2 "Local:SOT-223" H 9000 5350 50  0001 C CNN
F 3 "" H 9000 5250 50  0000 C CNN
	1    9000 5250
	1    0    0    -1  
$EndComp
$Comp
L CP C410
U 1 1 5889E6D5
P 10800 3350
F 0 "C410" H 10825 3450 50  0000 L CNN
F 1 "47u 25V" H 10650 3250 50  0000 L CNN
F 2 "Local:CP_Radial_D5.0mm_P2.00mm" H 10838 3200 30  0001 C CNN
F 3 "" H 10800 3350 60  0000 C CNN
	1    10800 3350
	1    0    0    -1  
$EndComp
$Comp
L LD1117S33TR U403
U 1 1 5889E6DB
P 10300 3150
F 0 "U403" H 10300 3450 50  0000 C CNN
F 1 "AMS1117_33" H 10300 3350 50  0000 C CNN
F 2 "Local:SOT-223" H 10300 3250 50  0001 C CNN
F 3 "" H 10300 3150 50  0000 C CNN
	1    10300 3150
	1    0    0    -1  
$EndComp
Text GLabel 10800 3000 1    47   Input ~ 0
HV+3V3
Text Notes 3800 1600 0    47   ~ 0
Transformer (v2):\n\nPrimary coil:\n  110T 30AWG (mm25) 1.25mH\n\nSecondary coil 24V: 31.66uH\n  Section 1 (6V): 4T 27AWG (mm35) 2.17uH\n  Section 2 (6V): 4T 27AWG (mm35) 18.35uH\n\nSecondary coil 12V: 8.46uH\n  Section 1 (6V): 4T 27AWG (mm35) 2.2uH\n  Section 2 (18V): 12T 27AWG (mm35) 2.0uH
Text Notes 2550 250  0    60   ~ 0
Transformer (v1):\n\nPrimary coil:\n  86T 30AWG (mm25) 1.425mH\n\nSecondary coil 24V:\n  Section 1 (6V): 4T 27AWG (mm35)\n  Section 2 (6V): 4T 27AWG (mm35)\n\nSecondary coil 12V:\n  Section 1 (6V): 4T 27AWG (mm35)\n  Section 2 (18V): 12T 27AWG (mm35)
$Comp
L TL431S U406
U 1 1 588E23D2
P 2400 3600
F 0 "U406" H 2350 3650 50  0000 R CNN
F 1 "TL431S" V 2500 3600 50  0000 C CNN
F 2 "Local:SOT-23-R" V 2400 3600 60  0001 C CNN
F 3 "" V 2400 3600 60  0000 C CNN
	1    2400 3600
	-1   0    0    -1  
$EndComp
$Comp
L C C412
U 1 1 588E314A
P 2650 3300
F 0 "C412" V 2800 3300 50  0000 C CNN
F 1 "100n" V 2500 3300 50  0000 C CNN
F 2 "Local:C_0603" H 2688 3150 30  0001 C CNN
F 3 "" H 2650 3300 60  0000 C CNN
	1    2650 3300
	0    -1   -1   0   
$EndComp
$Comp
L R R409
U 1 1 588E3AA8
P 3100 3050
F 0 "R409" V 3180 3050 50  0000 C CNN
F 1 "39K" V 3100 3050 50  0000 C CNN
F 2 "Local:R_0603" V 3030 3050 30  0001 C CNN
F 3 "" H 3100 3050 30  0000 C CNN
	1    3100 3050
	-1   0    0    -1  
$EndComp
$Comp
L R R411
U 1 1 588E3BA7
P 3100 3550
F 0 "R411" V 3180 3550 50  0000 C CNN
F 1 "10K" V 3100 3550 50  0000 C CNN
F 2 "Local:R_0603" V 3030 3550 30  0001 C CNN
F 3 "" H 3100 3550 30  0000 C CNN
	1    3100 3550
	-1   0    0    -1  
$EndComp
$Comp
L R R413
U 1 1 588E3C5B
P 3100 3950
F 0 "R413" V 3180 3950 50  0000 C CNN
F 1 "220" V 3100 3950 50  0000 C CNN
F 2 "Local:R_0603" V 3030 3950 30  0001 C CNN
F 3 "" H 3100 3950 30  0000 C CNN
	1    3100 3950
	-1   0    0    -1  
$EndComp
$Comp
L TL431S U407
U 1 1 588E4D8E
P 2400 6100
F 0 "U407" H 2350 6150 50  0000 R CNN
F 1 "TL431S" V 2500 6100 50  0000 C CNN
F 2 "Local:SOT-23-R" V 2400 6100 60  0001 C CNN
F 3 "" V 2400 6100 60  0000 C CNN
	1    2400 6100
	-1   0    0    -1  
$EndComp
$Comp
L C C413
U 1 1 588E4E99
P 2650 5800
F 0 "C413" V 2800 5800 50  0000 C CNN
F 1 "100n" V 2500 5800 50  0000 C CNN
F 2 "Local:C_0603" H 2688 5650 30  0001 C CNN
F 3 "" H 2650 5800 60  0000 C CNN
	1    2650 5800
	0    -1   -1   0   
$EndComp
$Comp
L R R410
U 1 1 588E4FDD
P 3100 5550
F 0 "R410" V 3180 5550 50  0000 C CNN
F 1 "100K" V 3100 5550 50  0000 C CNN
F 2 "Local:R_0603" V 3030 5550 30  0001 C CNN
F 3 "" H 3100 5550 30  0000 C CNN
	1    3100 5550
	-1   0    0    -1  
$EndComp
$Comp
L R R412
U 1 1 588E50DC
P 3100 6050
F 0 "R412" V 3180 6050 50  0000 C CNN
F 1 "10K" V 3100 6050 50  0000 C CNN
F 2 "Local:R_0603" V 3030 6050 30  0001 C CNN
F 3 "" H 3100 6050 30  0000 C CNN
	1    3100 6050
	-1   0    0    -1  
$EndComp
$Comp
L R R414
U 1 1 588E51E4
P 3100 6450
F 0 "R414" V 3180 6450 50  0000 C CNN
F 1 "1K5" V 3100 6450 50  0000 C CNN
F 2 "Local:R_0603" V 3030 6450 30  0001 C CNN
F 3 "" H 3100 6450 30  0000 C CNN
	1    3100 6450
	-1   0    0    -1  
$EndComp
Wire Wire Line
	2200 3000 2100 3000
Wire Wire Line
	2200 2800 2200 3000
Wire Wire Line
	6400 2900 6500 2900
Wire Wire Line
	5500 3100 5600 3100
Wire Wire Line
	5500 2900 5500 3100
Wire Wire Line
	4300 2900 5500 2900
Wire Wire Line
	5400 3500 5600 3500
Wire Wire Line
	5400 4000 5500 4000
Wire Wire Line
	5500 4000 5500 4900
Wire Wire Line
	5500 4300 5400 4300
Wire Wire Line
	5400 4200 5500 4200
Connection ~ 5500 4200
Wire Wire Line
	5400 4100 5500 4100
Connection ~ 5500 4100
Wire Wire Line
	5500 3900 5400 3900
Wire Wire Line
	5500 3500 5500 3900
Wire Wire Line
	5000 2800 5000 3000
Connection ~ 5000 2900
Connection ~ 5500 3500
Wire Wire Line
	4600 3900 4500 3900
Wire Wire Line
	4500 3900 4500 4400
Wire Wire Line
	4500 4700 4500 4800
Wire Wire Line
	4500 4800 5500 4800
Wire Wire Line
	5000 4800 5000 4900
Wire Wire Line
	1400 3000 1500 3000
Wire Wire Line
	4300 3900 4300 4300
Wire Wire Line
	4300 4300 4600 4300
Connection ~ 5500 4300
Connection ~ 5000 4800
Wire Wire Line
	1400 2900 1400 3000
Wire Wire Line
	6400 3400 6500 3400
Wire Wire Line
	5000 3400 5000 3500
Wire Wire Line
	4300 3000 4300 2900
Wire Wire Line
	4300 3600 4300 3300
Wire Notes Line
	4150 3150 4100 3150
Wire Notes Line
	4100 3150 4100 3350
Wire Notes Line
	4150 3750 4100 3750
Wire Notes Line
	4100 3750 4100 3550
Wire Wire Line
	6400 3200 6500 3200
Wire Wire Line
	6800 3100 6400 3100
Wire Wire Line
	6900 2900 6800 2900
Wire Wire Line
	6900 3400 6800 3400
Wire Wire Line
	8500 3100 8500 3200
Wire Wire Line
	8500 3500 8500 3600
Wire Wire Line
	7450 3100 7100 3100
Wire Wire Line
	6800 3600 6400 3600
Wire Wire Line
	6500 3700 6400 3700
Wire Wire Line
	7450 3600 7100 3600
Wire Wire Line
	1500 3200 1400 3200
Wire Wire Line
	1400 3200 1400 3300
Wire Wire Line
	9100 3100 9100 3200
Wire Wire Line
	9100 3500 9100 3600
Wire Wire Line
	8500 5600 8500 5700
Wire Wire Line
	9800 3500 9800 3600
Wire Wire Line
	2200 5500 2100 5500
Wire Wire Line
	2200 5300 2200 5500
Wire Wire Line
	1400 5500 1500 5500
Wire Wire Line
	1400 5400 1400 5500
Wire Wire Line
	1500 5700 1400 5700
Wire Wire Line
	1400 5700 1400 5800
Wire Wire Line
	2100 3200 2200 3200
Wire Wire Line
	2200 3200 2200 3300
Wire Wire Line
	2400 3200 2400 3400
Wire Wire Line
	2200 3300 2500 3300
Wire Wire Line
	2200 2800 2400 2800
Wire Wire Line
	2400 2700 2400 2900
Connection ~ 2400 3300
Connection ~ 2400 2800
Wire Wire Line
	2400 2400 2400 2300
Wire Wire Line
	2300 2300 3100 2300
Wire Wire Line
	2400 3800 2400 4300
Wire Wire Line
	2400 4200 3100 4200
Wire Wire Line
	2100 5700 2200 5700
Wire Wire Line
	2200 5700 2200 5800
Wire Wire Line
	2200 5800 2500 5800
Wire Wire Line
	2400 5700 2400 5900
Connection ~ 2400 5800
Wire Wire Line
	2400 6300 2400 6800
Wire Wire Line
	2400 6700 3100 6700
Wire Wire Line
	2400 5200 2400 5400
Wire Wire Line
	2400 5300 2200 5300
Connection ~ 2400 5300
Wire Wire Line
	2300 4800 3100 4800
Wire Wire Line
	2400 4800 2400 4900
Wire Wire Line
	9400 5200 9500 5200
Wire Wire Line
	9500 5100 9500 5300
Wire Wire Line
	9500 5600 9500 5700
Wire Wire Line
	9000 5500 9000 5700
Wire Wire Line
	8500 5200 8600 5200
Wire Wire Line
	8500 4850 8500 5300
Connection ~ 9500 5200
Wire Wire Line
	10700 3100 10800 3100
Wire Wire Line
	10800 3000 10800 3200
Wire Wire Line
	10800 3500 10800 3600
Wire Wire Line
	10300 3400 10300 3600
Wire Wire Line
	9800 3100 9900 3100
Wire Wire Line
	9800 2750 9800 3200
Connection ~ 10800 3100
Wire Wire Line
	5500 5200 5500 5300
Wire Wire Line
	2800 3300 3100 3300
Wire Wire Line
	2900 3300 2900 3600
Wire Wire Line
	2900 3600 2600 3600
Connection ~ 2900 3300
Wire Wire Line
	3100 3200 3100 3400
Connection ~ 3100 3300
Wire Wire Line
	3100 3700 3100 3800
Wire Wire Line
	3100 4200 3100 4100
Wire Wire Line
	3100 2300 3100 2900
Connection ~ 2400 2300
Connection ~ 2400 4200
Wire Wire Line
	3100 4800 3100 5400
Connection ~ 2400 4800
Wire Wire Line
	3100 5700 3100 5900
Wire Wire Line
	2800 5800 3100 5800
Connection ~ 3100 5800
Wire Wire Line
	3100 6200 3100 6300
Wire Wire Line
	2900 5800 2900 6100
Wire Wire Line
	2900 6100 2600 6100
Connection ~ 2900 5800
Wire Wire Line
	3100 6700 3100 6600
Connection ~ 2400 6700
Text Notes 2850 7250 0    60   ~ 0
68K\n3K3\n\n8K2
$Comp
L GND #PWR0126
U 1 1 589087E1
P 2400 4300
F 0 "#PWR0126" H 2400 4050 50  0001 C CNN
F 1 "GND" H 2400 4150 50  0000 C CNN
F 2 "" H 2400 4300 50  0000 C CNN
F 3 "" H 2400 4300 50  0000 C CNN
	1    2400 4300
	1    0    0    -1  
$EndComp
$Comp
L GND #PWR0127
U 1 1 589088C7
P 8500 3600
F 0 "#PWR0127" H 8500 3350 50  0001 C CNN
F 1 "GND" H 8500 3450 50  0000 C CNN
F 2 "" H 8500 3600 50  0000 C CNN
F 3 "" H 8500 3600 50  0000 C CNN
	1    8500 3600
	1    0    0    -1  
$EndComp
$Comp
L GND #PWR0128
U 1 1 58908BED
P 8500 5700
F 0 "#PWR0128" H 8500 5450 50  0001 C CNN
F 1 "GND" H 8500 5550 50  0000 C CNN
F 2 "" H 8500 5700 50  0000 C CNN
F 3 "" H 8500 5700 50  0000 C CNN
	1    8500 5700
	1    0    0    -1  
$EndComp
$Comp
L GNDPWR #PWR0129
U 1 1 58909433
P 9100 3600
F 0 "#PWR0129" H 9100 3400 50  0001 C CNN
F 1 "GNDPWR" H 9100 3470 50  0000 C CNN
F 2 "" H 9100 3550 50  0000 C CNN
F 3 "" H 9100 3550 50  0000 C CNN
	1    9100 3600
	1    0    0    -1  
$EndComp
$Comp
L GNDPWR #PWR0130
U 1 1 589095ED
P 9800 3600
F 0 "#PWR0130" H 9800 3400 50  0001 C CNN
F 1 "GNDPWR" H 9800 3470 50  0000 C CNN
F 2 "" H 9800 3550 50  0000 C CNN
F 3 "" H 9800 3550 50  0000 C CNN
	1    9800 3600
	1    0    0    -1  
$EndComp
$Comp
L GND #PWR0131
U 1 1 589099CD
P 9000 5700
F 0 "#PWR0131" H 9000 5450 50  0001 C CNN
F 1 "GND" H 9000 5550 50  0000 C CNN
F 2 "" H 9000 5700 50  0000 C CNN
F 3 "" H 9000 5700 50  0000 C CNN
	1    9000 5700
	1    0    0    -1  
$EndComp
$Comp
L GND #PWR0132
U 1 1 589099D3
P 9500 5700
F 0 "#PWR0132" H 9500 5450 50  0001 C CNN
F 1 "GND" H 9500 5550 50  0000 C CNN
F 2 "" H 9500 5700 50  0000 C CNN
F 3 "" H 9500 5700 50  0000 C CNN
	1    9500 5700
	1    0    0    -1  
$EndComp
$Comp
L +12V #PWR0133
U 1 1 58909EB3
P 6900 2900
F 0 "#PWR0133" H 6900 2750 50  0001 C CNN
F 1 "+12V" V 6900 3100 50  0000 C CNN
F 2 "" H 6900 2900 50  0000 C CNN
F 3 "" H 6900 2900 50  0000 C CNN
	1    6900 2900
	0    1    1    0   
$EndComp
$Comp
L +24V #PWR0134
U 1 1 5890A20A
P 6900 3400
F 0 "#PWR0134" H 6900 3250 50  0001 C CNN
F 1 "+24V" V 6900 3600 50  0000 C CNN
F 2 "" H 6900 3400 50  0000 C CNN
F 3 "" H 6900 3400 50  0000 C CNN
	1    6900 3400
	0    1    1    0   
$EndComp
Text Label 7450 3100 2    47   ~ 0
VCC1+6V
Text Label 7450 3600 2    47   ~ 0
VCC2+6V
$Comp
L GND #PWR0135
U 1 1 5890B1D9
P 6500 3200
F 0 "#PWR0135" H 6500 2950 50  0001 C CNN
F 1 "GND" V 6500 3000 50  0000 C CNN
F 2 "" H 6500 3200 50  0000 C CNN
F 3 "" H 6500 3200 50  0000 C CNN
	1    6500 3200
	0    -1   -1   0   
$EndComp
$Comp
L GNDPWR #PWR0136
U 1 1 5890B337
P 6500 3800
F 0 "#PWR0136" H 6500 3600 50  0001 C CNN
F 1 "GNDPWR" H 6500 3670 50  0000 C CNN
F 2 "" H 6500 3750 50  0000 C CNN
F 3 "" H 6500 3750 50  0000 C CNN
	1    6500 3800
	1    0    0    -1  
$EndComp
Wire Wire Line
	6500 3800 6500 3700
Text Label 5500 3500 1    60   ~ 0
FB_GATE
Text Label 8500 4850 3    47   ~ 0
VCC1+6V
Text Label 9800 2750 3    47   ~ 0
VCC2+6V
$Comp
L GNDPWR #PWR0137
U 1 1 5890D58B
P 10300 3600
F 0 "#PWR0137" H 10300 3400 50  0001 C CNN
F 1 "GNDPWR" H 10300 3470 50  0000 C CNN
F 2 "" H 10300 3550 50  0000 C CNN
F 3 "" H 10300 3550 50  0000 C CNN
	1    10300 3600
	1    0    0    -1  
$EndComp
$Comp
L GNDPWR #PWR0138
U 1 1 5890D591
P 10800 3600
F 0 "#PWR0138" H 10800 3400 50  0001 C CNN
F 1 "GNDPWR" H 10800 3470 50  0000 C CNN
F 2 "" H 10800 3550 50  0000 C CNN
F 3 "" H 10800 3550 50  0000 C CNN
	1    10800 3600
	1    0    0    -1  
$EndComp
$Comp
L +3V3 #PWR0139
U 1 1 5890DACF
P 9500 5100
F 0 "#PWR0139" H 9500 4950 50  0001 C CNN
F 1 "+3V3" H 9500 5240 50  0000 C CNN
F 2 "" H 9500 5100 50  0000 C CNN
F 3 "" H 9500 5100 50  0000 C CNN
	1    9500 5100
	1    0    0    -1  
$EndComp
$Comp
L CP C414
U 1 1 5890DE2A
P 10800 5450
F 0 "C414" H 10825 5550 50  0000 L CNN
F 1 "47u 25V" H 10650 5350 50  0000 L CNN
F 2 "Local:CP_Radial_D5.0mm_P2.00mm" H 10838 5300 30  0001 C CNN
F 3 "" H 10800 5450 60  0000 C CNN
	1    10800 5450
	1    0    0    -1  
$EndComp
$Comp
L LD1117S33TR U408
U 1 1 5890DE30
P 10300 5250
F 0 "U408" H 10300 5550 50  0000 C CNN
F 1 "AMS1117_33" H 10300 5450 50  0000 C CNN
F 2 "Local:SOT-223" H 10300 5350 50  0001 C CNN
F 3 "" H 10300 5250 50  0000 C CNN
	1    10300 5250
	1    0    0    -1  
$EndComp
Wire Wire Line
	10700 5200 10800 5200
Wire Wire Line
	10800 5100 10800 5300
Wire Wire Line
	10800 5600 10800 5700
Wire Wire Line
	10300 5500 10300 5700
Wire Wire Line
	9800 5200 9900 5200
Wire Wire Line
	9800 4850 9800 5200
Connection ~ 10800 5200
$Comp
L GND #PWR0140
U 1 1 5890DE3E
P 10300 5700
F 0 "#PWR0140" H 10300 5450 50  0001 C CNN
F 1 "GND" H 10300 5550 50  0000 C CNN
F 2 "" H 10300 5700 50  0000 C CNN
F 3 "" H 10300 5700 50  0000 C CNN
	1    10300 5700
	1    0    0    -1  
$EndComp
$Comp
L GND #PWR0141
U 1 1 5890DE44
P 10800 5700
F 0 "#PWR0141" H 10800 5450 50  0001 C CNN
F 1 "GND" H 10800 5550 50  0000 C CNN
F 2 "" H 10800 5700 50  0000 C CNN
F 3 "" H 10800 5700 50  0000 C CNN
	1    10800 5700
	1    0    0    -1  
$EndComp
Text Label 9800 4850 3    47   ~ 0
VCC1+6V
Text GLabel 10800 5100 1    47   Input ~ 0
+3V3A
$Comp
L Earth #PWR0142
U 1 1 5891C77D
P 5000 4900
F 0 "#PWR0142" H 5000 4650 50  0001 C CNN
F 1 "Earth" H 5000 4750 50  0001 C CNN
F 2 "" H 5000 4900 50  0000 C CNN
F 3 "" H 5000 4900 50  0000 C CNN
	1    5000 4900
	1    0    0    -1  
$EndComp
$Comp
L GNDPWR #PWR0143
U 1 1 5891CD17
P 2400 6800
F 0 "#PWR0143" H 2400 6600 50  0001 C CNN
F 1 "GNDPWR" H 2400 6670 50  0000 C CNN
F 2 "" H 2400 6750 50  0000 C CNN
F 3 "" H 2400 6750 50  0000 C CNN
	1    2400 6800
	1    0    0    -1  
$EndComp
$Comp
L +12V #PWR0144
U 1 1 5891D40A
P 2300 2300
F 0 "#PWR0144" H 2300 2150 50  0001 C CNN
F 1 "+12V" V 2300 2500 50  0000 C CNN
F 2 "" H 2300 2300 50  0000 C CNN
F 3 "" H 2300 2300 50  0000 C CNN
	1    2300 2300
	0    -1   -1   0   
$EndComp
$Comp
L +24V #PWR0145
U 1 1 5891D701
P 2300 4800
F 0 "#PWR0145" H 2300 4650 50  0001 C CNN
F 1 "+24V" V 2300 5000 50  0000 C CNN
F 2 "" H 2300 4800 50  0000 C CNN
F 3 "" H 2300 4800 50  0000 C CNN
	1    2300 4800
	0    -1   -1   0   
$EndComp
$Comp
L +12V #PWR0146
U 1 1 5891E0B6
P 8500 3100
F 0 "#PWR0146" H 8500 2950 50  0001 C CNN
F 1 "+12V" H 8500 3240 50  0000 C CNN
F 2 "" H 8500 3100 50  0000 C CNN
F 3 "" H 8500 3100 50  0000 C CNN
	1    8500 3100
	1    0    0    -1  
$EndComp
$Comp
L +24V #PWR0147
U 1 1 5891E1FE
P 9100 3100
F 0 "#PWR0147" H 9100 2950 50  0001 C CNN
F 1 "+24V" H 9100 3240 50  0000 C CNN
F 2 "" H 9100 3100 50  0000 C CNN
F 3 "" H 9100 3100 50  0000 C CNN
	1    9100 3100
	1    0    0    -1  
$EndComp
Connection ~ 9800 3100
Connection ~ 8500 5200
$Comp
L GND #PWR0148
U 1 1 58921126
P 5500 5300
F 0 "#PWR0148" H 5500 5050 50  0001 C CNN
F 1 "GND" H 5500 5150 50  0000 C CNN
F 2 "" H 5500 5300 50  0000 C CNN
F 3 "" H 5500 5300 50  0000 C CNN
	1    5500 5300
	1    0    0    -1  
$EndComp
Connection ~ 5500 4800
Wire Wire Line
	5000 3500 5100 3500
$Comp
L CP C408
U 1 1 58926E0B
P 4500 4550
F 0 "C408" H 4525 4650 50  0000 L CNN
F 1 "10uF 16V" H 4300 4450 50  0000 L CNN
F 2 "Local:CP_Radial_D4_L8_P2.0_HorizontalS" H 4538 4400 50  0001 C CNN
F 3 "" H 4500 4550 50  0000 C CNN
	1    4500 4550
	1    0    0    -1  
$EndComp
$Comp
L Earth #PWR0149
U 1 1 5892DF64
P 1400 3300
F 0 "#PWR0149" H 1400 3050 50  0001 C CNN
F 1 "Earth" H 1400 3150 50  0001 C CNN
F 2 "" H 1400 3300 50  0000 C CNN
F 3 "" H 1400 3300 50  0000 C CNN
	1    1400 3300
	1    0    0    -1  
$EndComp
$Comp
L Earth #PWR0150
U 1 1 5892DFE7
P 1400 5800
F 0 "#PWR0150" H 1400 5550 50  0001 C CNN
F 1 "Earth" H 1400 5650 50  0001 C CNN
F 2 "" H 1400 5800 50  0000 C CNN
F 3 "" H 1400 5800 50  0000 C CNN
	1    1400 5800
	1    0    0    -1  
$EndComp
Text Label 8900 4600 0    47   ~ 0
VCC1+6V
Wire Wire Line
	8900 4600 9300 4600
Text GLabel 9300 4600 2    47   Input ~ 0
USB_PWR
$Comp
L PWR_FLAG #FLG0151
U 1 1 589B7C5B
P 7450 3100
F 0 "#FLG0151" H 7450 3195 50  0001 C CNN
F 1 "PWR_FLAG" V 7450 3450 50  0000 C CNN
F 2 "" H 7450 3100 50  0000 C CNN
F 3 "" H 7450 3100 50  0000 C CNN
	1    7450 3100
	0    1    1    0   
$EndComp
$Comp
L PWR_FLAG #FLG0152
U 1 1 589B7FE1
P 7450 3600
F 0 "#FLG0152" H 7450 3695 50  0001 C CNN
F 1 "PWR_FLAG" V 7450 3950 50  0000 C CNN
F 2 "" H 7450 3600 50  0000 C CNN
F 3 "" H 7450 3600 50  0000 C CNN
	1    7450 3600
	0    1    1    0   
$EndComp
$Comp
L PWR_FLAG #FLG0153
U 1 1 589B8DD5
P 8000 5600
F 0 "#FLG0153" H 8000 5695 50  0001 C CNN
F 1 "PWR_FLAG" H 8000 5780 50  0000 C CNN
F 2 "" H 8000 5600 50  0000 C CNN
F 3 "" H 8000 5600 50  0000 C CNN
	1    8000 5600
	1    0    0    -1  
$EndComp
$Comp
L GND #PWR0154
U 1 1 589B9016
P 8000 5700
F 0 "#PWR0154" H 8000 5450 50  0001 C CNN
F 1 "GND" H 8000 5550 50  0000 C CNN
F 2 "" H 8000 5700 50  0000 C CNN
F 3 "" H 8000 5700 50  0000 C CNN
	1    8000 5700
	1    0    0    -1  
$EndComp
Wire Wire Line
	8000 5700 8000 5600
$Comp
L GNDPWR #PWR0155
U 1 1 589BD0C2
P 9100 4200
F 0 "#PWR0155" H 9100 4000 50  0001 C CNN
F 1 "GNDPWR" H 9100 4070 50  0000 C CNN
F 2 "" H 9100 4150 50  0000 C CNN
F 3 "" H 9100 4150 50  0000 C CNN
	1    9100 4200
	1    0    0    -1  
$EndComp
$Comp
L PWR_FLAG #FLG0156
U 1 1 589BD37B
P 9100 4100
F 0 "#FLG0156" H 9100 4195 50  0001 C CNN
F 1 "PWR_FLAG" H 9100 4280 50  0000 C CNN
F 2 "" H 9100 4100 50  0000 C CNN
F 3 "" H 9100 4100 50  0000 C CNN
	1    9100 4100
	1    0    0    -1  
$EndComp
Wire Wire Line
	9100 4200 9100 4100
$Comp
L +12V #PWR0157
U 1 1 589BE4A6
P 8500 4100
F 0 "#PWR0157" H 8500 3950 50  0001 C CNN
F 1 "+12V" H 8500 4240 50  0000 C CNN
F 2 "" H 8500 4100 50  0000 C CNN
F 3 "" H 8500 4100 50  0000 C CNN
	1    8500 4100
	1    0    0    -1  
$EndComp
$Comp
L PWR_FLAG #FLG0158
U 1 1 589BE5BD
P 8500 4200
F 0 "#FLG0158" H 8500 4295 50  0001 C CNN
F 1 "PWR_FLAG" H 8500 4380 50  0000 C CNN
F 2 "" H 8500 4200 50  0000 C CNN
F 3 "" H 8500 4200 50  0000 C CNN
	1    8500 4200
	-1   0    0    1   
$EndComp
Wire Wire Line
	8500 4100 8500 4200
$EndSCHEMATC
