(module ATX_BOX (layer F.Cu) (tedit 577AB99A)
  (fp_text reference REF** (at 0 -1) (layer F.SilkS)
    (effects (font (size 1 1) (thickness 0.15)))
  )
  (fp_text value ATX_BOX (at 0 1) (layer F.Fab)
    (effects (font (size 1 1) (thickness 0.15)))
  )
  (fp_line (start -67.5 48) (end -67.5 -46) (layer F.SilkS) (width 0.15))
  (fp_line (start 67.5 -46) (end -67.5 -46) (layer F.SilkS) (width 0.15))
  (fp_line (start 67.5 48) (end -67.5 48) (layer F.SilkS) (width 0.15))
  (fp_line (start 67.5 48) (end 67.5 -46) (layer F.SilkS) (width 0.15))
  (fp_line (start -72.5 -54) (end 72.5 -54) (layer F.SilkS) (width 0.15))
  (fp_line (start 72.5 -54) (end 72.5 54) (layer F.SilkS) (width 0.15))
  (fp_line (start 72.5 54) (end -72.5 54) (layer F.SilkS) (width 0.15))
  (fp_line (start -72.5 54) (end -72.5 -54) (layer F.SilkS) (width 0.15))
  (pad 1 thru_hole circle (at 67.5 48) (size 8 8) (drill 3.4) (layers *.Cu *.Mask F.SilkS))
  (pad 2 thru_hole oval (at 67.5 -47) (size 8 10.4) (drill oval 3.4 6) (layers *.Cu *.Mask F.SilkS)
    (zone_connect 2))
  (pad 3 thru_hole oval (at -67.5 -47) (size 8 10.4) (drill oval 3.4 6) (layers *.Cu *.Mask F.SilkS))
  (pad 4 thru_hole circle (at -67.5 48) (size 8 8) (drill 3.4) (layers *.Cu *.Mask F.SilkS))
)
