(module CP_Radial_D8.0mm_P3.50mm (layer F.Cu) (tedit 58765D06)
  (descr "CP, Radial series, Radial, pin pitch=3.50mm, , diameter=8mm, Electrolytic Capacitor")
  (tags "CP Radial series Radial pin pitch 3.50mm  diameter 8mm Electrolytic Capacitor")
  (fp_text reference REF** (at 1.75 -5.06) (layer F.SilkS)
    (effects (font (size 1 1) (thickness 0.15)))
  )
  (fp_text value CP_Radial_D8.0mm_P3.50mm (at 1.75 5.06) (layer F.Fab)
    (effects (font (size 1 1) (thickness 0.15)))
  )
  (fp_circle (center 1.75 0) (end 5.75 0) (layer F.Fab) (width 0.1))
  (fp_circle (center 1.75 0) (end 5.84 0) (layer F.SilkS) (width 0.12))
  (fp_line (start -2.2 0) (end -1 0) (layer F.Fab) (width 0.1))
  (fp_line (start -1.6 -0.65) (end -1.6 0.65) (layer F.Fab) (width 0.1))
  (fp_line (start 1.75 -4.05) (end 1.75 4.05) (layer F.SilkS) (width 0.12))
  (fp_line (start 1.79 -4.05) (end 1.79 4.05) (layer F.SilkS) (width 0.12))
  (fp_line (start 1.83 -4.05) (end 1.83 4.05) (layer F.SilkS) (width 0.12))
  (fp_line (start 1.87 -4.049) (end 1.87 4.049) (layer F.SilkS) (width 0.12))
  (fp_line (start 1.91 -4.047) (end 1.91 4.047) (layer F.SilkS) (width 0.12))
  (fp_line (start 1.95 -4.046) (end 1.95 4.046) (layer F.SilkS) (width 0.12))
  (fp_line (start 1.99 -4.043) (end 1.99 4.043) (layer F.SilkS) (width 0.12))
  (fp_line (start 2.03 -4.041) (end 2.03 4.041) (layer F.SilkS) (width 0.12))
  (fp_line (start 2.07 -4.038) (end 2.07 4.038) (layer F.SilkS) (width 0.12))
  (fp_line (start 2.11 -4.035) (end 2.11 4.035) (layer F.SilkS) (width 0.12))
  (fp_line (start 2.15 -4.031) (end 2.15 4.031) (layer F.SilkS) (width 0.12))
  (fp_line (start 2.19 -4.027) (end 2.19 4.027) (layer F.SilkS) (width 0.12))
  (fp_line (start 2.23 -4.022) (end 2.23 4.022) (layer F.SilkS) (width 0.12))
  (fp_line (start 2.27 -4.017) (end 2.27 4.017) (layer F.SilkS) (width 0.12))
  (fp_line (start 2.31 -4.012) (end 2.31 4.012) (layer F.SilkS) (width 0.12))
  (fp_line (start 2.35 -4.006) (end 2.35 4.006) (layer F.SilkS) (width 0.12))
  (fp_line (start 2.39 -4) (end 2.39 4) (layer F.SilkS) (width 0.12))
  (fp_line (start 2.43 -3.994) (end 2.43 3.994) (layer F.SilkS) (width 0.12))
  (fp_line (start 2.471 -3.987) (end 2.471 3.987) (layer F.SilkS) (width 0.12))
  (fp_line (start 2.511 -3.979) (end 2.511 3.979) (layer F.SilkS) (width 0.12))
  (fp_line (start 2.551 -3.971) (end 2.551 -0.98) (layer F.SilkS) (width 0.12))
  (fp_line (start 2.551 0.98) (end 2.551 3.971) (layer F.SilkS) (width 0.12))
  (fp_line (start 2.591 -3.963) (end 2.591 -0.98) (layer F.SilkS) (width 0.12))
  (fp_line (start 2.591 0.98) (end 2.591 3.963) (layer F.SilkS) (width 0.12))
  (fp_line (start 2.631 -3.955) (end 2.631 -0.98) (layer F.SilkS) (width 0.12))
  (fp_line (start 2.631 0.98) (end 2.631 3.955) (layer F.SilkS) (width 0.12))
  (fp_line (start 2.671 -3.946) (end 2.671 -0.98) (layer F.SilkS) (width 0.12))
  (fp_line (start 2.671 0.98) (end 2.671 3.946) (layer F.SilkS) (width 0.12))
  (fp_line (start 2.711 -3.936) (end 2.711 -0.98) (layer F.SilkS) (width 0.12))
  (fp_line (start 2.711 0.98) (end 2.711 3.936) (layer F.SilkS) (width 0.12))
  (fp_line (start 2.751 -3.926) (end 2.751 -0.98) (layer F.SilkS) (width 0.12))
  (fp_line (start 2.751 0.98) (end 2.751 3.926) (layer F.SilkS) (width 0.12))
  (fp_line (start 2.791 -3.916) (end 2.791 -0.98) (layer F.SilkS) (width 0.12))
  (fp_line (start 2.791 0.98) (end 2.791 3.916) (layer F.SilkS) (width 0.12))
  (fp_line (start 2.831 -3.905) (end 2.831 -0.98) (layer F.SilkS) (width 0.12))
  (fp_line (start 2.831 0.98) (end 2.831 3.905) (layer F.SilkS) (width 0.12))
  (fp_line (start 2.871 -3.894) (end 2.871 -0.98) (layer F.SilkS) (width 0.12))
  (fp_line (start 2.871 0.98) (end 2.871 3.894) (layer F.SilkS) (width 0.12))
  (fp_line (start 2.911 -3.883) (end 2.911 -0.98) (layer F.SilkS) (width 0.12))
  (fp_line (start 2.911 0.98) (end 2.911 3.883) (layer F.SilkS) (width 0.12))
  (fp_line (start 2.951 -3.87) (end 2.951 -0.98) (layer F.SilkS) (width 0.12))
  (fp_line (start 2.951 0.98) (end 2.951 3.87) (layer F.SilkS) (width 0.12))
  (fp_line (start 2.991 -3.858) (end 2.991 -0.98) (layer F.SilkS) (width 0.12))
  (fp_line (start 2.991 0.98) (end 2.991 3.858) (layer F.SilkS) (width 0.12))
  (fp_line (start 3.031 -3.845) (end 3.031 -0.98) (layer F.SilkS) (width 0.12))
  (fp_line (start 3.031 0.98) (end 3.031 3.845) (layer F.SilkS) (width 0.12))
  (fp_line (start 3.071 -3.832) (end 3.071 -0.98) (layer F.SilkS) (width 0.12))
  (fp_line (start 3.071 0.98) (end 3.071 3.832) (layer F.SilkS) (width 0.12))
  (fp_line (start 3.111 -3.818) (end 3.111 -0.98) (layer F.SilkS) (width 0.12))
  (fp_line (start 3.111 0.98) (end 3.111 3.818) (layer F.SilkS) (width 0.12))
  (fp_line (start 3.151 -3.803) (end 3.151 -0.98) (layer F.SilkS) (width 0.12))
  (fp_line (start 3.151 0.98) (end 3.151 3.803) (layer F.SilkS) (width 0.12))
  (fp_line (start 3.191 -3.789) (end 3.191 -0.98) (layer F.SilkS) (width 0.12))
  (fp_line (start 3.191 0.98) (end 3.191 3.789) (layer F.SilkS) (width 0.12))
  (fp_line (start 3.231 -3.773) (end 3.231 -0.98) (layer F.SilkS) (width 0.12))
  (fp_line (start 3.231 0.98) (end 3.231 3.773) (layer F.SilkS) (width 0.12))
  (fp_line (start 3.271 -3.758) (end 3.271 -0.98) (layer F.SilkS) (width 0.12))
  (fp_line (start 3.271 0.98) (end 3.271 3.758) (layer F.SilkS) (width 0.12))
  (fp_line (start 3.311 -3.741) (end 3.311 -0.98) (layer F.SilkS) (width 0.12))
  (fp_line (start 3.311 0.98) (end 3.311 3.741) (layer F.SilkS) (width 0.12))
  (fp_line (start 3.351 -3.725) (end 3.351 -0.98) (layer F.SilkS) (width 0.12))
  (fp_line (start 3.351 0.98) (end 3.351 3.725) (layer F.SilkS) (width 0.12))
  (fp_line (start 3.391 -3.707) (end 3.391 -0.98) (layer F.SilkS) (width 0.12))
  (fp_line (start 3.391 0.98) (end 3.391 3.707) (layer F.SilkS) (width 0.12))
  (fp_line (start 3.431 -3.69) (end 3.431 -0.98) (layer F.SilkS) (width 0.12))
  (fp_line (start 3.431 0.98) (end 3.431 3.69) (layer F.SilkS) (width 0.12))
  (fp_line (start 3.471 -3.671) (end 3.471 -0.98) (layer F.SilkS) (width 0.12))
  (fp_line (start 3.471 0.98) (end 3.471 3.671) (layer F.SilkS) (width 0.12))
  (fp_line (start 3.511 -3.652) (end 3.511 -0.98) (layer F.SilkS) (width 0.12))
  (fp_line (start 3.511 0.98) (end 3.511 3.652) (layer F.SilkS) (width 0.12))
  (fp_line (start 3.551 -3.633) (end 3.551 -0.98) (layer F.SilkS) (width 0.12))
  (fp_line (start 3.551 0.98) (end 3.551 3.633) (layer F.SilkS) (width 0.12))
  (fp_line (start 3.591 -3.613) (end 3.591 -0.98) (layer F.SilkS) (width 0.12))
  (fp_line (start 3.591 0.98) (end 3.591 3.613) (layer F.SilkS) (width 0.12))
  (fp_line (start 3.631 -3.593) (end 3.631 -0.98) (layer F.SilkS) (width 0.12))
  (fp_line (start 3.631 0.98) (end 3.631 3.593) (layer F.SilkS) (width 0.12))
  (fp_line (start 3.671 -3.572) (end 3.671 -0.98) (layer F.SilkS) (width 0.12))
  (fp_line (start 3.671 0.98) (end 3.671 3.572) (layer F.SilkS) (width 0.12))
  (fp_line (start 3.711 -3.55) (end 3.711 -0.98) (layer F.SilkS) (width 0.12))
  (fp_line (start 3.711 0.98) (end 3.711 3.55) (layer F.SilkS) (width 0.12))
  (fp_line (start 3.751 -3.528) (end 3.751 -0.98) (layer F.SilkS) (width 0.12))
  (fp_line (start 3.751 0.98) (end 3.751 3.528) (layer F.SilkS) (width 0.12))
  (fp_line (start 3.791 -3.505) (end 3.791 -0.98) (layer F.SilkS) (width 0.12))
  (fp_line (start 3.791 0.98) (end 3.791 3.505) (layer F.SilkS) (width 0.12))
  (fp_line (start 3.831 -3.482) (end 3.831 -0.98) (layer F.SilkS) (width 0.12))
  (fp_line (start 3.831 0.98) (end 3.831 3.482) (layer F.SilkS) (width 0.12))
  (fp_line (start 3.871 -3.458) (end 3.871 -0.98) (layer F.SilkS) (width 0.12))
  (fp_line (start 3.871 0.98) (end 3.871 3.458) (layer F.SilkS) (width 0.12))
  (fp_line (start 3.911 -3.434) (end 3.911 -0.98) (layer F.SilkS) (width 0.12))
  (fp_line (start 3.911 0.98) (end 3.911 3.434) (layer F.SilkS) (width 0.12))
  (fp_line (start 3.951 -3.408) (end 3.951 -0.98) (layer F.SilkS) (width 0.12))
  (fp_line (start 3.951 0.98) (end 3.951 3.408) (layer F.SilkS) (width 0.12))
  (fp_line (start 3.991 -3.383) (end 3.991 -0.98) (layer F.SilkS) (width 0.12))
  (fp_line (start 3.991 0.98) (end 3.991 3.383) (layer F.SilkS) (width 0.12))
  (fp_line (start 4.031 -3.356) (end 4.031 -0.98) (layer F.SilkS) (width 0.12))
  (fp_line (start 4.031 0.98) (end 4.031 3.356) (layer F.SilkS) (width 0.12))
  (fp_line (start 4.071 -3.329) (end 4.071 -0.98) (layer F.SilkS) (width 0.12))
  (fp_line (start 4.071 0.98) (end 4.071 3.329) (layer F.SilkS) (width 0.12))
  (fp_line (start 4.111 -3.301) (end 4.111 -0.98) (layer F.SilkS) (width 0.12))
  (fp_line (start 4.111 0.98) (end 4.111 3.301) (layer F.SilkS) (width 0.12))
  (fp_line (start 4.151 -3.272) (end 4.151 -0.98) (layer F.SilkS) (width 0.12))
  (fp_line (start 4.151 0.98) (end 4.151 3.272) (layer F.SilkS) (width 0.12))
  (fp_line (start 4.191 -3.243) (end 4.191 -0.98) (layer F.SilkS) (width 0.12))
  (fp_line (start 4.191 0.98) (end 4.191 3.243) (layer F.SilkS) (width 0.12))
  (fp_line (start 4.231 -3.213) (end 4.231 -0.98) (layer F.SilkS) (width 0.12))
  (fp_line (start 4.231 0.98) (end 4.231 3.213) (layer F.SilkS) (width 0.12))
  (fp_line (start 4.271 -3.182) (end 4.271 -0.98) (layer F.SilkS) (width 0.12))
  (fp_line (start 4.271 0.98) (end 4.271 3.182) (layer F.SilkS) (width 0.12))
  (fp_line (start 4.311 -3.15) (end 4.311 -0.98) (layer F.SilkS) (width 0.12))
  (fp_line (start 4.311 0.98) (end 4.311 3.15) (layer F.SilkS) (width 0.12))
  (fp_line (start 4.351 -3.118) (end 4.351 -0.98) (layer F.SilkS) (width 0.12))
  (fp_line (start 4.351 0.98) (end 4.351 3.118) (layer F.SilkS) (width 0.12))
  (fp_line (start 4.391 -3.084) (end 4.391 -0.98) (layer F.SilkS) (width 0.12))
  (fp_line (start 4.391 0.98) (end 4.391 3.084) (layer F.SilkS) (width 0.12))
  (fp_line (start 4.431 -3.05) (end 4.431 -0.98) (layer F.SilkS) (width 0.12))
  (fp_line (start 4.431 0.98) (end 4.431 3.05) (layer F.SilkS) (width 0.12))
  (fp_line (start 4.471 -3.015) (end 4.471 -0.98) (layer F.SilkS) (width 0.12))
  (fp_line (start 4.471 0.98) (end 4.471 3.015) (layer F.SilkS) (width 0.12))
  (fp_line (start 4.511 -2.979) (end 4.511 2.979) (layer F.SilkS) (width 0.12))
  (fp_line (start 4.551 -2.942) (end 4.551 2.942) (layer F.SilkS) (width 0.12))
  (fp_line (start 4.591 -2.904) (end 4.591 2.904) (layer F.SilkS) (width 0.12))
  (fp_line (start 4.631 -2.865) (end 4.631 2.865) (layer F.SilkS) (width 0.12))
  (fp_line (start 4.671 -2.824) (end 4.671 2.824) (layer F.SilkS) (width 0.12))
  (fp_line (start 4.711 -2.783) (end 4.711 2.783) (layer F.SilkS) (width 0.12))
  (fp_line (start 4.751 -2.74) (end 4.751 2.74) (layer F.SilkS) (width 0.12))
  (fp_line (start 4.791 -2.697) (end 4.791 2.697) (layer F.SilkS) (width 0.12))
  (fp_line (start 4.831 -2.652) (end 4.831 2.652) (layer F.SilkS) (width 0.12))
  (fp_line (start 4.871 -2.605) (end 4.871 2.605) (layer F.SilkS) (width 0.12))
  (fp_line (start 4.911 -2.557) (end 4.911 2.557) (layer F.SilkS) (width 0.12))
  (fp_line (start 4.951 -2.508) (end 4.951 2.508) (layer F.SilkS) (width 0.12))
  (fp_line (start 4.991 -2.457) (end 4.991 2.457) (layer F.SilkS) (width 0.12))
  (fp_line (start 5.031 -2.404) (end 5.031 2.404) (layer F.SilkS) (width 0.12))
  (fp_line (start 5.071 -2.349) (end 5.071 2.349) (layer F.SilkS) (width 0.12))
  (fp_line (start 5.111 -2.293) (end 5.111 2.293) (layer F.SilkS) (width 0.12))
  (fp_line (start 5.151 -2.234) (end 5.151 2.234) (layer F.SilkS) (width 0.12))
  (fp_line (start 5.191 -2.173) (end 5.191 2.173) (layer F.SilkS) (width 0.12))
  (fp_line (start 5.231 -2.109) (end 5.231 2.109) (layer F.SilkS) (width 0.12))
  (fp_line (start 5.271 -2.043) (end 5.271 2.043) (layer F.SilkS) (width 0.12))
  (fp_line (start 5.311 -1.974) (end 5.311 1.974) (layer F.SilkS) (width 0.12))
  (fp_line (start 5.351 -1.902) (end 5.351 1.902) (layer F.SilkS) (width 0.12))
  (fp_line (start 5.391 -1.826) (end 5.391 1.826) (layer F.SilkS) (width 0.12))
  (fp_line (start 5.431 -1.745) (end 5.431 1.745) (layer F.SilkS) (width 0.12))
  (fp_line (start 5.471 -1.66) (end 5.471 1.66) (layer F.SilkS) (width 0.12))
  (fp_line (start 5.511 -1.57) (end 5.511 1.57) (layer F.SilkS) (width 0.12))
  (fp_line (start 5.551 -1.473) (end 5.551 1.473) (layer F.SilkS) (width 0.12))
  (fp_line (start 5.591 -1.369) (end 5.591 1.369) (layer F.SilkS) (width 0.12))
  (fp_line (start 5.631 -1.254) (end 5.631 1.254) (layer F.SilkS) (width 0.12))
  (fp_line (start 5.671 -1.127) (end 5.671 1.127) (layer F.SilkS) (width 0.12))
  (fp_line (start 5.711 -0.983) (end 5.711 0.983) (layer F.SilkS) (width 0.12))
  (fp_line (start 5.751 -0.814) (end 5.751 0.814) (layer F.SilkS) (width 0.12))
  (fp_line (start 5.791 -0.598) (end 5.791 0.598) (layer F.SilkS) (width 0.12))
  (fp_line (start 5.831 -0.246) (end 5.831 0.246) (layer F.SilkS) (width 0.12))
  (fp_line (start -2.2 0) (end -1 0) (layer F.SilkS) (width 0.12))
  (fp_line (start -1.6 -0.65) (end -1.6 0.65) (layer F.SilkS) (width 0.12))
  (fp_line (start -2.6 -4.35) (end -2.6 4.35) (layer F.CrtYd) (width 0.05))
  (fp_line (start -2.6 4.35) (end 6.1 4.35) (layer F.CrtYd) (width 0.05))
  (fp_line (start 6.1 4.35) (end 6.1 -4.35) (layer F.CrtYd) (width 0.05))
  (fp_line (start 6.1 -4.35) (end -2.6 -4.35) (layer F.CrtYd) (width 0.05))
  (pad 1 thru_hole rect (at 0 0) (size 1.6 1.6) (drill 0.8) (layers *.Cu *.Mask))
  (pad 2 thru_hole circle (at 3.5 0) (size 1.6 1.6) (drill 0.8) (layers *.Cu *.Mask))
  (model Capacitors_ThroughHole.3dshapes/CP_Radial_D8.0mm_P3.50mm.wrl
    (at (xyz 0 0 0))
    (scale (xyz 0.393701 0.393701 0.393701))
    (rotate (xyz 0 0 0))
  )
)