(module CP_Radial_D4.0mm_P1.50mm (layer F.Cu) (tedit 58765D06)
  (descr "CP, Radial series, Radial, pin pitch=1.50mm, , diameter=4mm, Electrolytic Capacitor")
  (tags "CP Radial series Radial pin pitch 1.50mm  diameter 4mm Electrolytic Capacitor")
  (fp_text reference REF** (at 0.75 -3.06) (layer F.SilkS)
    (effects (font (size 1 1) (thickness 0.15)))
  )
  (fp_text value CP_Radial_D4.0mm_P1.50mm (at 0.75 3.06) (layer F.Fab)
    (effects (font (size 1 1) (thickness 0.15)))
  )
  (fp_arc (start 0.75 0) (end -1.188995 -0.78) (angle 136.2) (layer F.SilkS) (width 0.12))
  (fp_arc (start 0.75 0) (end -1.188995 0.78) (angle -136.2) (layer F.SilkS) (width 0.12))
  (fp_arc (start 0.75 0) (end 2.688995 -0.78) (angle 43.8) (layer F.SilkS) (width 0.12))
  (fp_circle (center 0.75 0) (end 2.75 0) (layer F.Fab) (width 0.1))
  (fp_line (start -1.7 0) (end -0.8 0) (layer F.Fab) (width 0.1))
  (fp_line (start -1.25 -0.45) (end -1.25 0.45) (layer F.Fab) (width 0.1))
  (fp_line (start 0.75 0.78) (end 0.75 2.05) (layer F.SilkS) (width 0.12))
  (fp_line (start 0.75 -2.05) (end 0.75 -0.78) (layer F.SilkS) (width 0.12))
  (fp_line (start 0.79 -2.05) (end 0.79 -0.78) (layer F.SilkS) (width 0.12))
  (fp_line (start 0.79 0.78) (end 0.79 2.05) (layer F.SilkS) (width 0.12))
  (fp_line (start 0.83 -2.049) (end 0.83 -0.78) (layer F.SilkS) (width 0.12))
  (fp_line (start 0.83 0.78) (end 0.83 2.049) (layer F.SilkS) (width 0.12))
  (fp_line (start 0.87 -2.047) (end 0.87 -0.78) (layer F.SilkS) (width 0.12))
  (fp_line (start 0.87 0.78) (end 0.87 2.047) (layer F.SilkS) (width 0.12))
  (fp_line (start 0.91 -2.044) (end 0.91 -0.78) (layer F.SilkS) (width 0.12))
  (fp_line (start 0.91 0.78) (end 0.91 2.044) (layer F.SilkS) (width 0.12))
  (fp_line (start 0.95 -2.041) (end 0.95 -0.78) (layer F.SilkS) (width 0.12))
  (fp_line (start 0.95 0.78) (end 0.95 2.041) (layer F.SilkS) (width 0.12))
  (fp_line (start 0.99 -2.037) (end 0.99 -0.78) (layer F.SilkS) (width 0.12))
  (fp_line (start 0.99 0.78) (end 0.99 2.037) (layer F.SilkS) (width 0.12))
  (fp_line (start 1.03 -2.032) (end 1.03 -0.78) (layer F.SilkS) (width 0.12))
  (fp_line (start 1.03 0.78) (end 1.03 2.032) (layer F.SilkS) (width 0.12))
  (fp_line (start 1.07 -2.026) (end 1.07 -0.78) (layer F.SilkS) (width 0.12))
  (fp_line (start 1.07 0.78) (end 1.07 2.026) (layer F.SilkS) (width 0.12))
  (fp_line (start 1.11 -2.019) (end 1.11 -0.78) (layer F.SilkS) (width 0.12))
  (fp_line (start 1.11 0.78) (end 1.11 2.019) (layer F.SilkS) (width 0.12))
  (fp_line (start 1.15 -2.012) (end 1.15 -0.78) (layer F.SilkS) (width 0.12))
  (fp_line (start 1.15 0.78) (end 1.15 2.012) (layer F.SilkS) (width 0.12))
  (fp_line (start 1.19 -2.004) (end 1.19 -0.78) (layer F.SilkS) (width 0.12))
  (fp_line (start 1.19 0.78) (end 1.19 2.004) (layer F.SilkS) (width 0.12))
  (fp_line (start 1.23 -1.995) (end 1.23 -0.78) (layer F.SilkS) (width 0.12))
  (fp_line (start 1.23 0.78) (end 1.23 1.995) (layer F.SilkS) (width 0.12))
  (fp_line (start 1.27 -1.985) (end 1.27 -0.78) (layer F.SilkS) (width 0.12))
  (fp_line (start 1.27 0.78) (end 1.27 1.985) (layer F.SilkS) (width 0.12))
  (fp_line (start 1.31 -1.974) (end 1.31 -0.78) (layer F.SilkS) (width 0.12))
  (fp_line (start 1.31 0.78) (end 1.31 1.974) (layer F.SilkS) (width 0.12))
  (fp_line (start 1.35 -1.963) (end 1.35 -0.78) (layer F.SilkS) (width 0.12))
  (fp_line (start 1.35 0.78) (end 1.35 1.963) (layer F.SilkS) (width 0.12))
  (fp_line (start 1.39 -1.95) (end 1.39 -0.78) (layer F.SilkS) (width 0.12))
  (fp_line (start 1.39 0.78) (end 1.39 1.95) (layer F.SilkS) (width 0.12))
  (fp_line (start 1.43 -1.937) (end 1.43 -0.78) (layer F.SilkS) (width 0.12))
  (fp_line (start 1.43 0.78) (end 1.43 1.937) (layer F.SilkS) (width 0.12))
  (fp_line (start 1.471 -1.923) (end 1.471 -0.78) (layer F.SilkS) (width 0.12))
  (fp_line (start 1.471 0.78) (end 1.471 1.923) (layer F.SilkS) (width 0.12))
  (fp_line (start 1.511 -1.907) (end 1.511 -0.78) (layer F.SilkS) (width 0.12))
  (fp_line (start 1.511 0.78) (end 1.511 1.907) (layer F.SilkS) (width 0.12))
  (fp_line (start 1.551 -1.891) (end 1.551 -0.78) (layer F.SilkS) (width 0.12))
  (fp_line (start 1.551 0.78) (end 1.551 1.891) (layer F.SilkS) (width 0.12))
  (fp_line (start 1.591 -1.874) (end 1.591 -0.78) (layer F.SilkS) (width 0.12))
  (fp_line (start 1.591 0.78) (end 1.591 1.874) (layer F.SilkS) (width 0.12))
  (fp_line (start 1.631 -1.856) (end 1.631 -0.78) (layer F.SilkS) (width 0.12))
  (fp_line (start 1.631 0.78) (end 1.631 1.856) (layer F.SilkS) (width 0.12))
  (fp_line (start 1.671 -1.837) (end 1.671 -0.78) (layer F.SilkS) (width 0.12))
  (fp_line (start 1.671 0.78) (end 1.671 1.837) (layer F.SilkS) (width 0.12))
  (fp_line (start 1.711 -1.817) (end 1.711 -0.78) (layer F.SilkS) (width 0.12))
  (fp_line (start 1.711 0.78) (end 1.711 1.817) (layer F.SilkS) (width 0.12))
  (fp_line (start 1.751 -1.796) (end 1.751 -0.78) (layer F.SilkS) (width 0.12))
  (fp_line (start 1.751 0.78) (end 1.751 1.796) (layer F.SilkS) (width 0.12))
  (fp_line (start 1.791 -1.773) (end 1.791 -0.78) (layer F.SilkS) (width 0.12))
  (fp_line (start 1.791 0.78) (end 1.791 1.773) (layer F.SilkS) (width 0.12))
  (fp_line (start 1.831 -1.75) (end 1.831 -0.78) (layer F.SilkS) (width 0.12))
  (fp_line (start 1.831 0.78) (end 1.831 1.75) (layer F.SilkS) (width 0.12))
  (fp_line (start 1.871 -1.725) (end 1.871 -0.78) (layer F.SilkS) (width 0.12))
  (fp_line (start 1.871 0.78) (end 1.871 1.725) (layer F.SilkS) (width 0.12))
  (fp_line (start 1.911 -1.699) (end 1.911 -0.78) (layer F.SilkS) (width 0.12))
  (fp_line (start 1.911 0.78) (end 1.911 1.699) (layer F.SilkS) (width 0.12))
  (fp_line (start 1.951 -1.672) (end 1.951 -0.78) (layer F.SilkS) (width 0.12))
  (fp_line (start 1.951 0.78) (end 1.951 1.672) (layer F.SilkS) (width 0.12))
  (fp_line (start 1.991 -1.643) (end 1.991 -0.78) (layer F.SilkS) (width 0.12))
  (fp_line (start 1.991 0.78) (end 1.991 1.643) (layer F.SilkS) (width 0.12))
  (fp_line (start 2.031 -1.613) (end 2.031 -0.78) (layer F.SilkS) (width 0.12))
  (fp_line (start 2.031 0.78) (end 2.031 1.613) (layer F.SilkS) (width 0.12))
  (fp_line (start 2.071 -1.581) (end 2.071 -0.78) (layer F.SilkS) (width 0.12))
  (fp_line (start 2.071 0.78) (end 2.071 1.581) (layer F.SilkS) (width 0.12))
  (fp_line (start 2.111 -1.547) (end 2.111 -0.78) (layer F.SilkS) (width 0.12))
  (fp_line (start 2.111 0.78) (end 2.111 1.547) (layer F.SilkS) (width 0.12))
  (fp_line (start 2.151 -1.512) (end 2.151 -0.78) (layer F.SilkS) (width 0.12))
  (fp_line (start 2.151 0.78) (end 2.151 1.512) (layer F.SilkS) (width 0.12))
  (fp_line (start 2.191 -1.475) (end 2.191 -0.78) (layer F.SilkS) (width 0.12))
  (fp_line (start 2.191 0.78) (end 2.191 1.475) (layer F.SilkS) (width 0.12))
  (fp_line (start 2.231 -1.436) (end 2.231 -0.78) (layer F.SilkS) (width 0.12))
  (fp_line (start 2.231 0.78) (end 2.231 1.436) (layer F.SilkS) (width 0.12))
  (fp_line (start 2.271 -1.395) (end 2.271 -0.78) (layer F.SilkS) (width 0.12))
  (fp_line (start 2.271 0.78) (end 2.271 1.395) (layer F.SilkS) (width 0.12))
  (fp_line (start 2.311 -1.351) (end 2.311 1.351) (layer F.SilkS) (width 0.12))
  (fp_line (start 2.351 -1.305) (end 2.351 1.305) (layer F.SilkS) (width 0.12))
  (fp_line (start 2.391 -1.256) (end 2.391 1.256) (layer F.SilkS) (width 0.12))
  (fp_line (start 2.431 -1.204) (end 2.431 1.204) (layer F.SilkS) (width 0.12))
  (fp_line (start 2.471 -1.148) (end 2.471 1.148) (layer F.SilkS) (width 0.12))
  (fp_line (start 2.511 -1.088) (end 2.511 1.088) (layer F.SilkS) (width 0.12))
  (fp_line (start 2.551 -1.023) (end 2.551 1.023) (layer F.SilkS) (width 0.12))
  (fp_line (start 2.591 -0.952) (end 2.591 0.952) (layer F.SilkS) (width 0.12))
  (fp_line (start 2.631 -0.874) (end 2.631 0.874) (layer F.SilkS) (width 0.12))
  (fp_line (start 2.671 -0.786) (end 2.671 0.786) (layer F.SilkS) (width 0.12))
  (fp_line (start 2.711 -0.686) (end 2.711 0.686) (layer F.SilkS) (width 0.12))
  (fp_line (start 2.751 -0.567) (end 2.751 0.567) (layer F.SilkS) (width 0.12))
  (fp_line (start 2.791 -0.415) (end 2.791 0.415) (layer F.SilkS) (width 0.12))
  (fp_line (start 2.831 -0.165) (end 2.831 0.165) (layer F.SilkS) (width 0.12))
  (fp_line (start -1.7 0) (end -0.8 0) (layer F.SilkS) (width 0.12))
  (fp_line (start -1.25 -0.45) (end -1.25 0.45) (layer F.SilkS) (width 0.12))
  (fp_line (start -1.6 -2.35) (end -1.6 2.35) (layer F.CrtYd) (width 0.05))
  (fp_line (start -1.6 2.35) (end 3.1 2.35) (layer F.CrtYd) (width 0.05))
  (fp_line (start 3.1 2.35) (end 3.1 -2.35) (layer F.CrtYd) (width 0.05))
  (fp_line (start 3.1 -2.35) (end -1.6 -2.35) (layer F.CrtYd) (width 0.05))
  (pad 1 thru_hole rect (at 0 0) (size 1.2 1.2) (drill 0.6) (layers *.Cu *.Mask))
  (pad 2 thru_hole circle (at 1.5 0) (size 1.2 1.2) (drill 0.6) (layers *.Cu *.Mask))
  (model Capacitors_ThroughHole.3dshapes/CP_Radial_D4.0mm_P1.50mm.wrl
    (at (xyz 0 0 0))
    (scale (xyz 0.393701 0.393701 0.393701))
    (rotate (xyz 0 0 0))
  )
)