(module D_Bridge_Horizontal (layer F.Cu) (tedit 58907E06)
  (fp_text reference REF** (at 0 0.0635) (layer F.SilkS)
    (effects (font (size 1 1) (thickness 0.15)))
  )
  (fp_text value D_Bridge_Horizontal (at 0 7.112) (layer F.Fab)
    (effects (font (size 1 1) (thickness 0.15)))
  )
  (fp_line (start 12.446 1.0795) (end 12.446 6.096) (layer F.SilkS) (width 0.15))
  (fp_line (start 10.033 1.0795) (end 10.033 6.096) (layer F.SilkS) (width 0.15))
  (fp_line (start 4.953 1.0795) (end 4.953 6.096) (layer F.SilkS) (width 0.15))
  (fp_line (start 2.54 1.0795) (end 2.54 6.096) (layer F.SilkS) (width 0.15))
  (fp_line (start -12.573 1.0795) (end -12.573 6.096) (layer F.SilkS) (width 0.15))
  (fp_line (start -14.986 1.0795) (end -14.986 6.096) (layer F.SilkS) (width 0.15))
  (fp_line (start -4.953 1.0795) (end -4.953 6.096) (layer F.SilkS) (width 0.15))
  (fp_line (start -2.54 1.0795) (end -2.54 6.096) (layer F.SilkS) (width 0.15))
  (fp_line (start 13.7795 6.096) (end 13.7795 26.035) (layer F.SilkS) (width 0.15))
  (fp_line (start -13.2715 26.035) (end 13.7795 26.035) (layer F.SilkS) (width 0.15))
  (fp_line (start -16.3195 22.987) (end -13.2715 26.035) (layer F.SilkS) (width 0.15))
  (fp_line (start -16.3195 6.096) (end -16.3195 22.987) (layer F.SilkS) (width 0.15))
  (fp_circle (center 0 17.018) (end 1.651 17.018) (layer F.SilkS) (width 0.15))
  (fp_line (start -16.3195 6.096) (end 13.7795 6.096) (layer F.SilkS) (width 0.15))
  (pad 1 thru_hole circle (at -13.7795 0) (size 3.4 3.4) (drill 1.2) (layers *.Cu *.Mask F.SilkS))
  (pad 2 thru_hole circle (at -3.7465 0) (size 3.4 3.4) (drill 1.2) (layers *.Cu *.Mask F.SilkS))
  (pad 3 thru_hole circle (at 3.7465 0) (size 3.4 3.4) (drill 1.2) (layers *.Cu *.Mask F.SilkS))
  (pad 4 thru_hole circle (at 11.2395 0) (size 3.4 3.4) (drill 1.2) (layers *.Cu *.Mask F.SilkS))
)
