(module DIP-8_n3_W7.62mm (layer F.Cu) (tedit 5746DE8A)
  (descr "8-lead dip package, row spacing 7.62 mm (300 mils)")
  (tags "dil dip 2.54 300")
  (fp_text reference REF** (at 0 -5.22) (layer F.SilkS)
    (effects (font (size 1 1) (thickness 0.15)))
  )
  (fp_text value DIP-8_W7.62mm (at 0 -3.72) (layer F.Fab)
    (effects (font (size 1 1) (thickness 0.15)))
  )
  (fp_line (start -1.05 -2.45) (end -1.05 10.1) (layer F.CrtYd) (width 0.05))
  (fp_line (start 8.65 -2.45) (end 8.65 10.1) (layer F.CrtYd) (width 0.05))
  (fp_line (start -1.05 -2.45) (end 8.65 -2.45) (layer F.CrtYd) (width 0.05))
  (fp_line (start -1.05 10.1) (end 8.65 10.1) (layer F.CrtYd) (width 0.05))
  (fp_line (start 0.135 -2.295) (end 0.135 -1.025) (layer F.SilkS) (width 0.15))
  (fp_line (start 7.485 -2.295) (end 7.485 -1.025) (layer F.SilkS) (width 0.15))
  (fp_line (start 7.485 9.915) (end 7.485 8.645) (layer F.SilkS) (width 0.15))
  (fp_line (start 0.135 9.915) (end 0.135 8.645) (layer F.SilkS) (width 0.15))
  (fp_line (start 0.135 -2.295) (end 7.485 -2.295) (layer F.SilkS) (width 0.15))
  (fp_line (start 0.135 9.915) (end 7.485 9.915) (layer F.SilkS) (width 0.15))
  (fp_line (start 0.135 -1.025) (end -0.8 -1.025) (layer F.SilkS) (width 0.15))
  (pad 1 thru_hole oval (at 0 0) (size 2 1.7) (drill 0.762) (layers *.Cu *.Mask F.SilkS))
  (pad 2 thru_hole oval (at 0 2.54) (size 2 1.7) (drill 0.762) (layers *.Cu *.Mask F.SilkS))
  (pad 4 thru_hole oval (at 0 7.62) (size 2 1.7) (drill 0.762) (layers *.Cu *.Mask F.SilkS))
  (pad 5 thru_hole oval (at 7.62 7.62) (size 2 1.7) (drill 0.762) (layers *.Cu *.Mask F.SilkS))
  (pad 6 thru_hole oval (at 7.62 5.08) (size 2 1.7) (drill 0.762) (layers *.Cu *.Mask F.SilkS))
  (pad 7 thru_hole oval (at 7.62 2.54) (size 2 1.7) (drill 0.762) (layers *.Cu *.Mask F.SilkS))
  (pad 8 thru_hole oval (at 7.62 0) (size 2 1.7) (drill 0.762) (layers *.Cu *.Mask F.SilkS))
  (model Housings_DIP.3dshapes/DIP-8_W7.62mm.wrl
    (at (xyz 0 0 0))
    (scale (xyz 1 1 1))
    (rotate (xyz 0 0 0))
  )
)
