(module FUSE_3A (layer F.Cu) (tedit 5746B9BC)
  (fp_text reference REF** (at 0 0) (layer F.SilkS)
    (effects (font (size 1 1) (thickness 0.15)))
  )
  (fp_text value FUSE_3A (at -0.25 3) (layer F.Fab)
    (effects (font (size 1 1) (thickness 0.15)))
  )
  (fp_line (start -3 2.28) (end 2.75 2.28) (layer F.SilkS) (width 0.15))
  (fp_line (start -3 0.76) (end 2.75 0.76) (layer F.SilkS) (width 0.15))
  (pad 1 thru_hole circle (at -3 1.5) (size 1.524 1.524) (drill 0.762) (layers *.Cu *.Mask F.SilkS))
  (pad 2 thru_hole circle (at 2.75 1.5) (size 1.524 1.524) (drill 0.762) (layers *.Cu *.Mask F.SilkS))
  (pad 1 smd oval (at -1.651 1.524) (size 3.2 0.2817) (layers F.Cu F.Paste F.Mask))
  (pad 2 smd oval (at 1.397 1.524) (size 3.2 0.2817) (layers F.Cu F.Paste F.Mask))
  (pad 1 smd oval (at -1.651 1.016) (size 3 0.2817) (layers F.Cu F.Paste F.Mask))
  (pad 2 smd oval (at 1.397 1.016) (size 3 0.2817) (layers F.Cu F.Paste F.Mask))
  (pad 1 smd oval (at -1.651 2.032) (size 3 0.2817) (layers F.Cu F.Paste F.Mask))
  (pad 2 smd oval (at 1.397 2.032) (size 3 0.2817) (layers F.Cu F.Paste F.Mask))
)
