(module PIN_X3 (layer F.Cu) (tedit 57796FEF)
  (fp_text reference REF** (at -5.842 -4.064 90) (layer F.SilkS)
    (effects (font (size 1 1) (thickness 0.15)))
  )
  (fp_text value PIN_X3 (at 5.969 -4.064 90) (layer F.Fab)
    (effects (font (size 1 1) (thickness 0.15)))
  )
  (fp_line (start 18.923 3.048) (end -18.923 3.048) (layer F.SilkS) (width 0.15))
  (fp_line (start 18.923 -8.89) (end 18.923 3.048) (layer F.SilkS) (width 0.15))
  (fp_line (start -18.923 -8.89) (end -18.923 3.048) (layer F.SilkS) (width 0.15))
  (fp_line (start 14.732 -8.89) (end 18.923 -8.89) (layer F.SilkS) (width 0.15))
  (fp_line (start -2.794 0) (end -2.794 -8.89) (layer F.SilkS) (width 0.15))
  (fp_line (start 2.794 0) (end 2.794 -8.89) (layer F.SilkS) (width 0.15))
  (fp_line (start 14.732 0) (end 9.144 0) (layer F.SilkS) (width 0.15))
  (fp_line (start 14.732 0) (end 14.732 -8.89) (layer F.SilkS) (width 0.15))
  (fp_line (start 9.144 -8.89) (end 9.144 0) (layer F.SilkS) (width 0.15))
  (fp_line (start -14.732 -8.89) (end -18.923 -8.89) (layer F.SilkS) (width 0.15))
  (fp_line (start -14.732 0) (end -14.732 -8.89) (layer F.SilkS) (width 0.15))
  (fp_line (start -9.144 0) (end -9.144 -8.89) (layer F.SilkS) (width 0.15))
  (fp_line (start -9.144 0) (end -14.732 0) (layer F.SilkS) (width 0.15))
  (fp_line (start -2.794 -8.89) (end -9.144 -8.89) (layer F.SilkS) (width 0.15))
  (fp_line (start 2.794 -8.89) (end 9.144 -8.89) (layer F.SilkS) (width 0.15))
  (fp_line (start -2.794 0) (end 2.794 0) (layer F.SilkS) (width 0.15))
  (pad 2 thru_hole rect (at 0 -3.937) (size 10 10) (drill oval 5.6 8) (layers *.Cu *.Mask F.SilkS))
  (pad 1 thru_hole rect (at -11.938 -3.937) (size 10 10) (drill oval 5.6 8) (layers *.Cu *.Mask F.SilkS))
  (pad 3 thru_hole rect (at 11.938 -3.937) (size 10 10) (drill oval 5.6 8) (layers *.Cu *.Mask F.SilkS))
)
