(module Pin_Header_Straight_2x06_Pitch2.54mm_Edge (layer F.Cu) (tedit 58960D38)
  (fp_text reference REF** (at 0 -2.54) (layer F.SilkS)
    (effects (font (size 1 1) (thickness 0.15)))
  )
  (fp_text value Pin_Header_Straight_2x06_Pitch2.54mm_Edge (at 0 2.54) (layer F.Fab)
    (effects (font (size 1 1) (thickness 0.15)))
  )
  (fp_line (start -7.62 1.905) (end -8.255 1.905) (layer F.SilkS) (width 0.15))
  (fp_line (start -7.62 1.905) (end -7.62 -1.905) (layer F.SilkS) (width 0.15))
  (fp_line (start -7.62 -1.905) (end 7.62 -1.905) (layer F.SilkS) (width 0.15))
  (fp_line (start 7.62 -1.905) (end 7.62 1.905) (layer F.SilkS) (width 0.15))
  (fp_line (start 7.62 1.905) (end 8.255 1.905) (layer F.SilkS) (width 0.15))
  (pad 6 smd rect (at -1.27 0) (size 1.524 3.524) (layers F.Cu F.Paste F.Mask))
  (pad 4 smd rect (at -3.81 0) (size 1.524 3.524) (layers F.Cu F.Paste F.Mask))
  (pad 2 smd rect (at -6.35 0) (size 1.524 3.524) (layers F.Cu F.Paste F.Mask))
  (pad 8 smd rect (at 1.27 0) (size 1.524 3.524) (layers F.Cu F.Paste F.Mask))
  (pad 10 smd rect (at 3.81 0) (size 1.524 3.524) (layers F.Cu F.Paste F.Mask))
  (pad 12 smd rect (at 6.35 0) (size 1.524 3.524) (layers F.Cu F.Paste F.Mask))
  (pad 1 smd rect (at -6.35 0) (size 1.524 3.524) (layers B.Cu F.Paste F.Mask))
  (pad 3 smd rect (at -3.81 0) (size 1.524 3.524) (layers B.Cu F.Paste F.Mask))
  (pad 5 smd rect (at -1.27 0) (size 1.524 3.524) (layers B.Cu F.Paste F.Mask))
  (pad 7 smd rect (at 1.27 0) (size 1.524 3.524) (layers B.Cu F.Paste F.Mask))
  (pad 9 smd rect (at 3.81 0) (size 1.524 3.524) (layers B.Cu F.Paste F.Mask))
  (pad 11 smd rect (at 6.35 0) (size 1.524 3.524) (layers B.Cu F.Paste F.Mask))
)
