EESchema Schematic File Version 2
LIBS:spice
EELAYER 25 0
EELAYER END
$Descr A4 11693 8268
encoding utf-8
Sheet 1 1
Title ""
Date ""
Rev ""
Comp ""
Comment1 ""
Comment2 ""
Comment3 ""
Comment4 ""
$EndDescr
$Comp
L V V1
U 1 1 56F2CA7B
P 2100 1600
F 0 "V1" H 1975 1800 60  0000 C CNN
F 1 "DC 3.3V" H 1700 1600 60  0000 C CNN
F 2 "" H 1775 1600 60  0000 C CNN
F 3 "" H 1775 1600 60  0000 C CNN
	1    2100 1600
	1    0    0    -1  
$EndComp
Text Notes 8550 5200 0    60   ~ 0
+pspice\n* \n.control\n  options nopage\n  options savecurrents\n  tran 1uS 10mS 0mS\n  set gnuplot_terminal=png\n  gnuplot project\n  + v(IS)\n  + v(IR)\n  + v(IP)\n  + v(US)\n  + v(UR)\n  + v(UP)\n  *+ v(PO)\n  + v(PS)\n.endc
$Comp
L 0 #GND01
U 1 1 57FC98F4
P 2100 1900
F 0 "#GND01" H 2100 1800 40  0001 C CNN
F 1 "0" H 2100 1830 40  0000 C CNN
F 2 "" H 2100 1900 60  0000 C CNN
F 3 "" H 2100 1900 60  0000 C CNN
	1    2100 1900
	1    0    0    -1  
$EndComp
Text GLabel 2100 1300 1    60   Input ~ 0
LV
Text Notes 8600 1650 0    60   ~ 0
/* RC filter */\nEQ[R]: solve(f[0] = 1 / (R * C), R)[1];\nEQ[f[0]]: solve(EQ[R], f[0])[1];\nPR[f[0]]: f[0]=5$\nPR[C]: C=680e-6$\nEQ[R], PR[f[0]], PR[C], numer;\nPR[R]: R=330$\nEQ[f[0]], PR[C], PR[R];
Wire Wire Line
	2100 1800 2100 1900
Wire Wire Line
	2100 1400 2100 1300
Text Notes 8550 6200 0    60   ~ 0
-pspice\n* \n.include ../.spice/diode-fast.lib\n.include ../.spice/lm358.lib\n.include ../.spice/optocoupler.lib
$Comp
L R R4
U 1 1 5861FEE6
P 3100 4500
F 0 "R4" H 3100 4600 60  0000 C CNN
F 1 "680" H 3100 4400 60  0000 C CNN
F 2 "" H 3100 4500 60  0000 C CNN
F 3 "" H 3100 4500 60  0000 C CNN
	1    3100 4500
	1    0    0    -1  
$EndComp
$Comp
L V V2
U 1 1 5861FFB0
P 2100 3500
F 0 "V2" H 1975 3700 60  0000 C CNN
F 1 "DC 310V" H 1700 3500 60  0000 C CNN
F 2 "" H 1775 3500 60  0000 C CNN
F 3 "" H 1775 3500 60  0000 C CNN
	1    2100 3500
	1    0    0    -1  
$EndComp
$Comp
L 0 #GND02
U 1 1 5861FFB6
P 2100 3800
F 0 "#GND02" H 2100 3700 40  0001 C CNN
F 1 "0" H 2100 3730 40  0000 C CNN
F 2 "" H 2100 3800 60  0000 C CNN
F 3 "" H 2100 3800 60  0000 C CNN
	1    2100 3800
	1    0    0    -1  
$EndComp
Text GLabel 2100 2700 1    60   Input ~ 0
HV
Wire Wire Line
	2100 3700 2100 3800
Wire Wire Line
	2100 3300 2100 3200
Wire Wire Line
	2900 4500 2800 4500
Wire Wire Line
	3300 4500 3400 4500
$Comp
L C C4
U 1 1 58620025
P 3400 4700
F 0 "C4" H 3400 4825 60  0000 C CNN
F 1 "680n" H 3400 4575 60  0000 C CNN
F 2 "" H 2750 5250 60  0000 C CNN
F 3 "" H 2750 5250 60  0000 C CNN
	1    3400 4700
	0    -1   -1   0   
$EndComp
$Comp
L R R1
U 1 1 586200FD
P 2700 3500
F 0 "R1" H 2700 3600 60  0000 C CNN
F 1 "{Rsh}" H 2700 3400 60  0000 C CNN
F 2 "" H 2700 3500 60  0000 C CNN
F 3 "" H 2700 3500 60  0000 C CNN
	1    2700 3500
	0    -1   -1   0   
$EndComp
Text Notes 950  5500 0    60   ~ 0
-pspice\n* \n.param\n+ Rsh=10e-3\n+ Rload=31\n+ Rover=70\n+ Um=3.3\n+ Us=1.1\n+ It=110\n+ Ut=408\n+ Fpwm=78e3\n+ Ir=10\n+ Ur=320
Wire Wire Line
	2700 3700 2700 3800
$Comp
L 0 #GND03
U 1 1 5862024F
P 2700 3800
F 0 "#GND03" H 2700 3700 40  0001 C CNN
F 1 "0" H 2700 3730 40  0000 C CNN
F 2 "" H 2700 3800 60  0000 C CNN
F 3 "" H 2700 3800 60  0000 C CNN
	1    2700 3800
	1    0    0    -1  
$EndComp
Text GLabel 2700 3200 0    60   Input ~ 0
IS
$Comp
L R Rl1
U 1 1 58620316
P 2700 2900
F 0 "Rl1" H 2700 3000 60  0000 C CNN
F 1 "{Rload}" H 2700 2800 60  0000 C CNN
F 2 "" H 2700 2900 60  0000 C CNN
F 3 "" H 2700 2900 60  0000 C CNN
	1    2700 2900
	0    -1   -1   0   
$EndComp
Wire Wire Line
	2700 3100 2700 3300
$Comp
L V V3
U 1 1 586210E2
P 2100 3000
F 0 "V3" H 1975 3200 60  0000 C CNN
F 1 "PULSE 0V 30V 4mS 1uS 1uS 10uS 10mS" V 1350 3000 60  0000 C CNN
F 2 "" H 1775 3000 60  0000 C CNN
F 3 "" H 1775 3000 60  0000 C CNN
	1    2100 3000
	1    0    0    -1  
$EndComp
Wire Wire Line
	2100 2700 2100 2800
Text GLabel 2700 2600 1    60   Input ~ 0
HV
Wire Wire Line
	2700 2700 2700 2600
Wire Wire Line
	3400 4500 3400 4600
Wire Wire Line
	3400 4800 3400 4900
$Comp
L 0 #GND04
U 1 1 58621329
P 3400 4900
F 0 "#GND04" H 3400 4800 40  0001 C CNN
F 1 "0" H 3400 4830 40  0000 C CNN
F 2 "" H 3400 4900 60  0000 C CNN
F 3 "" H 3400 4900 60  0000 C CNN
	1    3400 4900
	1    0    0    -1  
$EndComp
$Comp
L OA X1
U 1 1 5862137D
P 5500 2200
F 0 "X1" H 5600 2350 60  0000 C CNN
F 1 "LM358" H 5700 1950 60  0000 C CNN
F 2 "" H 5400 2200 60  0000 C CNN
F 3 "" H 5400 2200 60  0000 C CNN
	1    5500 2200
	1    0    0    -1  
$EndComp
$Comp
L OA X2
U 1 1 586213F4
P 5500 3500
F 0 "X2" H 5600 3650 60  0000 C CNN
F 1 "LM358" H 5700 3250 60  0000 C CNN
F 2 "" H 5400 3500 60  0000 C CNN
F 3 "" H 5400 3500 60  0000 C CNN
	1    5500 3500
	1    0    0    -1  
$EndComp
$Comp
L 0 #GND05
U 1 1 58621450
P 5500 2600
F 0 "#GND05" H 5500 2500 40  0001 C CNN
F 1 "0" H 5500 2530 40  0000 C CNN
F 2 "" H 5500 2600 60  0000 C CNN
F 3 "" H 5500 2600 60  0000 C CNN
	1    5500 2600
	1    0    0    -1  
$EndComp
$Comp
L 0 #GND06
U 1 1 58621476
P 5500 3900
F 0 "#GND06" H 5500 3800 40  0001 C CNN
F 1 "0" H 5500 3830 40  0000 C CNN
F 2 "" H 5500 3900 60  0000 C CNN
F 3 "" H 5500 3900 60  0000 C CNN
	1    5500 3900
	1    0    0    -1  
$EndComp
Text GLabel 5500 1800 1    60   Input ~ 0
LV
Text GLabel 5500 3100 1    60   Input ~ 0
LV
Wire Wire Line
	5500 1900 5500 1800
Wire Wire Line
	5500 2600 5500 2500
Wire Wire Line
	5500 3200 5500 3100
Wire Wire Line
	5500 3900 5500 3800
Wire Wire Line
	5200 2300 5100 2300
Wire Wire Line
	5200 3600 5100 3600
Wire Wire Line
	5200 3400 5100 3400
Wire Wire Line
	5200 2100 5100 2100
Wire Wire Line
	5800 2200 5900 2200
Wire Wire Line
	5800 3500 5900 3500
$Comp
L D XD1
U 1 1 5862173E
P 6000 2200
F 0 "XD1" H 6000 2325 60  0000 C CNN
F 1 "XD1N4148" H 6000 2075 60  0000 C CNN
F 2 "" H 6000 2200 60  0000 C CNN
F 3 "" H 6000 2200 60  0000 C CNN
	1    6000 2200
	-1   0    0    -1  
$EndComp
$Comp
L D XD2
U 1 1 586217A7
P 6000 3500
F 0 "XD2" H 6000 3625 60  0000 C CNN
F 1 "XD1N4148" H 6000 3375 60  0000 C CNN
F 2 "" H 6000 3500 60  0000 C CNN
F 3 "" H 6000 3500 60  0000 C CNN
	1    6000 3500
	-1   0    0    -1  
$EndComp
Wire Wire Line
	6100 2200 6200 2200
Wire Wire Line
	6100 3500 6200 3500
Text GLabel 6200 2200 2    60   Input ~ 0
PO
Text GLabel 6200 3500 2    60   Input ~ 0
PO
Text GLabel 6800 3300 3    60   Input ~ 0
PO
Wire Wire Line
	6800 3300 6800 3200
$Comp
L R Ro1
U 1 1 58621A9A
P 6800 2500
F 0 "Ro1" H 6800 2600 60  0000 C CNN
F 1 "100" H 6800 2400 60  0000 C CNN
F 2 "" H 6800 2500 60  0000 C CNN
F 3 "" H 6800 2500 60  0000 C CNN
	1    6800 2500
	0    -1   -1   0   
$EndComp
$Comp
L V V4
U 1 1 58621E4A
P 2800 4800
F 0 "V4" H 2675 5000 60  0000 C CNN
F 1 "PULSE 0V 3.3V 0S 100nS 100nS {(Ir/It)*(Us/Um)/Fpwm} {1/Fpwm}" V 2450 3900 60  0000 C CNN
F 2 "" H 2475 4800 60  0000 C CNN
F 3 "" H 2475 4800 60  0000 C CNN
	1    2800 4800
	1    0    0    -1  
$EndComp
$Comp
L V V5
U 1 1 58621F6A
P 4400 4800
F 0 "V5" H 4275 5000 60  0000 C CNN
F 1 "PULSE 0V 3.3V 0S 100nS 100nS {(Ur/Ut)*(Us/Um)/Fpwm} {1/Fpwm}" V 4050 3900 60  0000 C CNN
F 2 "" H 4075 4800 60  0000 C CNN
F 3 "" H 4075 4800 60  0000 C CNN
	1    4400 4800
	1    0    0    -1  
$EndComp
Wire Wire Line
	2800 4500 2800 4600
Wire Wire Line
	2800 5000 2800 5100
$Comp
L 0 #GND07
U 1 1 5862221D
P 2800 5100
F 0 "#GND07" H 2800 5000 40  0001 C CNN
F 1 "0" H 2800 5030 40  0000 C CNN
F 2 "" H 2800 5100 60  0000 C CNN
F 3 "" H 2800 5100 60  0000 C CNN
	1    2800 5100
	1    0    0    -1  
$EndComp
$Comp
L R R5
U 1 1 5862253A
P 4700 4500
F 0 "R5" H 4700 4600 60  0000 C CNN
F 1 "680" H 4700 4400 60  0000 C CNN
F 2 "" H 4700 4500 60  0000 C CNN
F 3 "" H 4700 4500 60  0000 C CNN
	1    4700 4500
	1    0    0    -1  
$EndComp
$Comp
L C C5
U 1 1 586225BB
P 5000 4700
F 0 "C5" H 5000 4825 60  0000 C CNN
F 1 "680n" H 5000 4575 60  0000 C CNN
F 2 "" H 4350 5250 60  0000 C CNN
F 3 "" H 4350 5250 60  0000 C CNN
	1    5000 4700
	0    -1   -1   0   
$EndComp
Wire Wire Line
	4500 4500 4400 4500
Wire Wire Line
	4400 4500 4400 4600
Wire Wire Line
	4900 4500 5000 4500
Wire Wire Line
	5000 4500 5000 4600
Wire Wire Line
	5000 4800 5000 4900
Wire Wire Line
	4400 5000 4400 5100
$Comp
L 0 #GND08
U 1 1 58622714
P 4400 5100
F 0 "#GND08" H 4400 5000 40  0001 C CNN
F 1 "0" H 4400 5030 40  0000 C CNN
F 2 "" H 4400 5100 60  0000 C CNN
F 3 "" H 4400 5100 60  0000 C CNN
	1    4400 5100
	1    0    0    -1  
$EndComp
$Comp
L 0 #GND09
U 1 1 5862275F
P 5000 4900
F 0 "#GND09" H 5000 4800 40  0001 C CNN
F 1 "0" H 5000 4830 40  0000 C CNN
F 2 "" H 5000 4900 60  0000 C CNN
F 3 "" H 5000 4900 60  0000 C CNN
	1    5000 4900
	1    0    0    -1  
$EndComp
Text GLabel 3400 4500 2    60   Input ~ 0
IR
Text GLabel 5000 4500 2    60   Input ~ 0
UR
Text GLabel 2800 4500 0    60   Input ~ 0
IM
Text GLabel 4400 4500 0    60   Input ~ 0
UM
Text GLabel 5100 2100 0    60   Input ~ 0
IR
Text GLabel 5100 3400 0    60   Input ~ 0
UR
$Comp
L C C1
U 1 1 58622B61
P 3100 3500
F 0 "C1" H 3100 3625 60  0000 C CNN
F 1 "1n" H 3100 3375 60  0000 C CNN
F 2 "" H 2450 4050 60  0000 C CNN
F 3 "" H 2450 4050 60  0000 C CNN
	1    3100 3500
	0    -1   -1   0   
$EndComp
Text GLabel 3100 3200 1    60   Input ~ 0
IS
$Comp
L 0 #GND010
U 1 1 58622D0B
P 3100 3800
F 0 "#GND010" H 3100 3700 40  0001 C CNN
F 1 "0" H 3100 3730 40  0000 C CNN
F 2 "" H 3100 3800 60  0000 C CNN
F 3 "" H 3100 3800 60  0000 C CNN
	1    3100 3800
	1    0    0    -1  
$EndComp
Wire Wire Line
	3100 3600 3100 3800
Wire Wire Line
	3100 3400 3100 3200
$Comp
L R R3
U 1 1 58622EE5
P 3700 2900
F 0 "R3" H 3700 3000 60  0000 C CNN
F 1 "370K" H 3700 2800 60  0000 C CNN
F 2 "" H 3700 2900 60  0000 C CNN
F 3 "" H 3700 2900 60  0000 C CNN
	1    3700 2900
	0    -1   -1   0   
$EndComp
$Comp
L R R2
U 1 1 58622F67
P 3700 3500
F 0 "R2" H 3700 3600 60  0000 C CNN
F 1 "1K" H 3700 3400 60  0000 C CNN
F 2 "" H 3700 3500 60  0000 C CNN
F 3 "" H 3700 3500 60  0000 C CNN
	1    3700 3500
	0    -1   -1   0   
$EndComp
Wire Wire Line
	3700 3100 3700 3300
Wire Wire Line
	3700 2700 3700 2600
Wire Wire Line
	3700 3700 3700 3800
$Comp
L C C2
U 1 1 586231F6
P 4100 3500
F 0 "C2" H 4100 3625 60  0000 C CNN
F 1 "1n" H 4100 3375 60  0000 C CNN
F 2 "" H 3450 4050 60  0000 C CNN
F 3 "" H 3450 4050 60  0000 C CNN
	1    4100 3500
	0    -1   -1   0   
$EndComp
Text GLabel 4100 3200 1    60   Input ~ 0
US
$Comp
L 0 #GND011
U 1 1 586231FD
P 4100 3800
F 0 "#GND011" H 4100 3700 40  0001 C CNN
F 1 "0" H 4100 3730 40  0000 C CNN
F 2 "" H 4100 3800 60  0000 C CNN
F 3 "" H 4100 3800 60  0000 C CNN
	1    4100 3800
	1    0    0    -1  
$EndComp
Wire Wire Line
	4100 3600 4100 3800
Wire Wire Line
	4100 3400 4100 3200
$Comp
L 0 #GND012
U 1 1 58623241
P 3700 3800
F 0 "#GND012" H 3700 3700 40  0001 C CNN
F 1 "0" H 3700 3730 40  0000 C CNN
F 2 "" H 3700 3800 60  0000 C CNN
F 3 "" H 3700 3800 60  0000 C CNN
	1    3700 3800
	1    0    0    -1  
$EndComp
Text GLabel 3700 3200 0    60   Input ~ 0
US
Text GLabel 3700 2600 1    60   Input ~ 0
HV
Text GLabel 5100 2300 0    60   Input ~ 0
IS
Text GLabel 5100 3600 0    60   Input ~ 0
US
Text GLabel 5850 2200 1    60   Input ~ 0
IP
Text GLabel 5850 3500 1    60   Input ~ 0
UP
Text GLabel 6800 2200 1    60   Input ~ 0
LV
Wire Wire Line
	6800 2200 6800 2300
Text GLabel 3300 2150 3    60   Input ~ 0
IS
Text GLabel 3300 850  1    60   Input ~ 0
HV
$Comp
L R Rl2
U 1 1 58629D1E
P 3300 1850
F 0 "Rl2" H 3300 1950 60  0000 C CNN
F 1 "{Rover}" H 3300 1750 60  0000 C CNN
F 2 "" H 3300 1850 60  0000 C CNN
F 3 "" H 3300 1850 60  0000 C CNN
	1    3300 1850
	0    -1   -1   0   
$EndComp
$Comp
L SWITCH S1
U 1 1 5862A34B
P 3300 1250
F 0 "S1" H 3250 1400 60  0000 C CNN
F 1 "SW1" H 3550 1100 60  0000 C CNN
F 2 "" H 3300 900 60  0000 C CNN
F 3 "" H 3300 900 60  0000 C CNN
	1    3300 1250
	0    1    1    0   
$EndComp
Wire Wire Line
	3300 1650 3300 1550
Wire Wire Line
	3300 950  3300 850 
Wire Wire Line
	3300 2050 3300 2150
Wire Wire Line
	3000 1300 2900 1300
Wire Wire Line
	2900 1300 2900 1400
$Comp
L 0 #GND013
U 1 1 5862A76A
P 2900 1400
F 0 "#GND013" H 2900 1300 40  0001 C CNN
F 1 "0" H 2900 1330 40  0000 C CNN
F 2 "" H 2900 1400 60  0000 C CNN
F 3 "" H 2900 1400 60  0000 C CNN
	1    2900 1400
	1    0    0    -1  
$EndComp
$Comp
L V V6
U 1 1 5862A7B7
P 2700 1500
F 0 "V6" H 2575 1700 60  0000 C CNN
F 1 "PULSE 0V 1V 7mS 1uS 1uS 10uS 10mS" V 2450 1250 60  0000 C CNN
F 2 "" H 2375 1500 60  0000 C CNN
F 3 "" H 2375 1500 60  0000 C CNN
	1    2700 1500
	1    0    0    -1  
$EndComp
Wire Wire Line
	3000 1200 2700 1200
Wire Wire Line
	2700 1200 2700 1300
Wire Wire Line
	2700 1700 2700 1800
$Comp
L 0 #GND014
U 1 1 5862AB5C
P 2700 1800
F 0 "#GND014" H 2700 1700 40  0001 C CNN
F 1 "0" H 2700 1730 40  0000 C CNN
F 2 "" H 2700 1800 60  0000 C CNN
F 3 "" H 2700 1800 60  0000 C CNN
	1    2700 1800
	1    0    0    -1  
$EndComp
Text Notes 3900 1050 0    60   ~ 0
-pspice\n* \n.model sw1 sw vt=0.5 vh=0.2 ron=0.1 roff=1Meg
$Comp
L ONPN XO1
U 1 1 5862CB8F
P 7000 3000
F 0 "XO1" H 7000 3200 60  0000 C CNN
F 1 "VO615A" H 6975 2800 60  0000 C CNN
F 2 "" H 6750 3000 60  0000 C CNN
F 3 "" H 6750 3000 60  0000 C CNN
	1    7000 3000
	1    0    0    -1  
$EndComp
Wire Wire Line
	6800 2700 6800 2800
$Comp
L 0 #GND015
U 1 1 5862D0FC
P 7200 3900
F 0 "#GND015" H 7200 3800 40  0001 C CNN
F 1 "0" H 7200 3830 40  0000 C CNN
F 2 "" H 7200 3900 60  0000 C CNN
F 3 "" H 7200 3900 60  0000 C CNN
	1    7200 3900
	1    0    0    -1  
$EndComp
$Comp
L R Ro2
U 1 1 5862D17F
P 7200 3600
F 0 "Ro2" H 7200 3700 60  0000 C CNN
F 1 "1K" H 7200 3500 60  0000 C CNN
F 2 "" H 7200 3600 60  0000 C CNN
F 3 "" H 7200 3600 60  0000 C CNN
	1    7200 3600
	0    -1   -1   0   
$EndComp
Wire Wire Line
	7200 2800 7200 2700
Text GLabel 7200 2700 1    60   Input ~ 0
LV
Wire Wire Line
	7200 3200 7200 3400
Wire Wire Line
	7200 3800 7200 3900
Text GLabel 7200 3300 2    60   Input ~ 0
PS
$EndSCHEMATC
