EESchema Schematic File Version 2
LIBS:spice
EELAYER 25 0
EELAYER END
$Descr A4 11693 8268
encoding utf-8
Sheet 1 1
Title ""
Date ""
Rev ""
Comp ""
Comment1 ""
Comment2 ""
Comment3 ""
Comment4 ""
$EndDescr
Wire Wire Line
	5800 2600 5800 2700
Text GLabel 5200 2000 2    60   Input ~ 0
PWR1
$Comp
L V V1
U 1 1 56F2CA7B
P 2500 1700
F 0 "V1" H 2375 1900 60  0000 C CNN
F 1 "DC 0V SIN 0V {Usupply*sqrt(2)} {Fsupply} 0S 0S" V 2750 1700 60  0000 C CNN
F 2 "" H 2175 1700 60  0000 C CNN
F 3 "" H 2175 1700 60  0000 C CNN
	1    2500 1700
	1    0    0    -1  
$EndComp
Wire Wire Line
	2500 1400 2500 1500
Wire Wire Line
	2500 1900 2500 2000
Text Notes 2100 5250 0    60   ~ 0
+pspice\n* \n.control\n  options nopage\n  options savecurrents\n  tran 10uS 50mS 0S\n  let U=v(VPP,VEE)\n  let U1=v(pwr1)\n  let U2=v(pwr2)\n  let I1=i(v11)\n  let I2=i(v21)\n  let P1=U1*I1\n  let P2=U2*I2\n  set gnuplot_terminal=png\n  gnuplot project\n  + U\n  + U1\n  + U2\n  + I1\n  + I2\n  + P1/10\n  + P2/10\n  meas tran mP1 avg P1\n  meas tran mP2 avg P2\n.endc
Text GLabel 2500 1400 1    60   Input ~ 0
VPP
$Comp
L R R1
U 1 1 56F2E11A
P 6400 2550
F 0 "R1" H 6400 2650 60  0000 C CNN
F 1 "{Rload}" H 6400 2450 60  0000 C CNN
F 2 "" H 6400 2550 60  0000 C CNN
F 3 "" H 6400 2550 60  0000 C CNN
	1    6400 2550
	0    -1   -1   0   
$EndComp
Wire Wire Line
	6400 2750 6400 2850
Wire Wire Line
	6400 2350 6400 2250
$Comp
L 0 #GND01
U 1 1 56F2E270
P 5800 2700
F 0 "#GND01" H 5800 2600 40  0001 C CNN
F 1 "0" H 5800 2630 40  0000 C CNN
F 2 "" H 5800 2700 60  0000 C CNN
F 3 "" H 5800 2700 60  0000 C CNN
	1    5800 2700
	1    0    0    -1  
$EndComp
Text GLabel 6400 1750 1    60   Input ~ 0
PWR1
$Comp
L C C1
U 1 1 5775487D
P 5800 2500
F 0 "C1" H 5800 2625 60  0000 C CNN
F 1 "{Csmooth*NCsmooth1}" H 5800 2375 60  0000 C CNN
F 2 "" H 5150 3050 60  0000 C CNN
F 3 "" H 5150 3050 60  0000 C CNN
	1    5800 2500
	0    -1   -1   0   
$EndComp
Text GLabel 5800 2300 1    60   Input ~ 0
PWR1
Wire Wire Line
	5800 2300 5800 2400
$Comp
L D D11
U 1 1 57754F9C
P 4800 2000
F 0 "D11" H 4800 2125 60  0000 C CNN
F 1 "DI_HFA30PB120" H 4800 1875 60  0000 C CNN
F 2 "" H 4800 2000 60  0000 C CNN
F 3 "" H 4800 2000 60  0000 C CNN
	1    4800 2000
	1    0    0    -1  
$EndComp
Text Notes 5200 900  0    60   ~ 0
-pspice\n*\n.include ../.spice/diode-rect.lib
$Comp
L D D13
U 1 1 57755246
P 4800 2800
F 0 "D13" H 4800 2925 60  0000 C CNN
F 1 "DI_HFA30PB120" H 4800 2675 60  0000 C CNN
F 2 "" H 4800 2800 60  0000 C CNN
F 3 "" H 4800 2800 60  0000 C CNN
	1    4800 2800
	1    0    0    -1  
$EndComp
$Comp
L D D12
U 1 1 57755296
P 4800 2400
F 0 "D12" H 4800 2525 60  0000 C CNN
F 1 "DI_HFA30PB120" H 4800 2275 60  0000 C CNN
F 2 "" H 4800 2400 60  0000 C CNN
F 3 "" H 4800 2400 60  0000 C CNN
	1    4800 2400
	-1   0    0    -1  
$EndComp
$Comp
L D D14
U 1 1 577552DD
P 4800 3200
F 0 "D14" H 4800 3325 60  0000 C CNN
F 1 "DI_HFA30PB120" H 4800 3075 60  0000 C CNN
F 2 "" H 4800 3200 60  0000 C CNN
F 3 "" H 4800 3200 60  0000 C CNN
	1    4800 3200
	-1   0    0    -1  
$EndComp
Wire Wire Line
	4500 2000 4700 2000
Wire Wire Line
	4600 2000 4600 2400
Wire Wire Line
	4600 2400 4700 2400
Connection ~ 4600 2000
Wire Wire Line
	4700 2800 4600 2800
Wire Wire Line
	4600 2800 4600 3200
Wire Wire Line
	4500 3200 4700 3200
Wire Wire Line
	4900 2400 5000 2400
Wire Wire Line
	5000 2400 5000 3200
Wire Wire Line
	4900 3200 5100 3200
Wire Wire Line
	4900 2800 5100 2800
Wire Wire Line
	5100 2800 5100 2000
Wire Wire Line
	4900 2000 5200 2000
Connection ~ 5000 3200
Connection ~ 4600 3200
Text GLabel 4500 2000 0    60   Input ~ 0
VPP
Text Notes 3500 1550 0    60   ~ 0
-pspice\n* \n.param\n+ Usupply=220V\n+ Fsupply=50Hz\n+ Uload=220V\n+ Pload=2.2kW\n+ Csmooth=600uF\n+ NCsmooth1=3\n+ NCsmooth2=4\n+ Rload=Uload^2/Pload
Text GLabel 2500 2000 3    60   Input ~ 0
VEE
Text GLabel 4500 3200 0    60   Input ~ 0
VEE
$Comp
L 0 #GND02
U 1 1 5892FE21
P 5100 3400
F 0 "#GND02" H 5100 3300 40  0001 C CNN
F 1 "0" H 5100 3330 40  0000 C CNN
F 2 "" H 5100 3400 60  0000 C CNN
F 3 "" H 5100 3400 60  0000 C CNN
	1    5100 3400
	1    0    0    -1  
$EndComp
Wire Wire Line
	5100 3200 5100 3400
$Comp
L 0 #GND03
U 1 1 58930A62
P 6400 2850
F 0 "#GND03" H 6400 2750 40  0001 C CNN
F 1 "0" H 6400 2780 40  0000 C CNN
F 2 "" H 6400 2850 60  0000 C CNN
F 3 "" H 6400 2850 60  0000 C CNN
	1    6400 2850
	1    0    0    -1  
$EndComp
Connection ~ 5100 2000
Wire Wire Line
	5800 4600 5800 4700
Text GLabel 5200 4000 2    60   Input ~ 0
PWR2
$Comp
L R R2
U 1 1 5893243D
P 6400 4550
F 0 "R2" H 6400 4650 60  0000 C CNN
F 1 "{Rload}" H 6400 4450 60  0000 C CNN
F 2 "" H 6400 4550 60  0000 C CNN
F 3 "" H 6400 4550 60  0000 C CNN
	1    6400 4550
	0    -1   -1   0   
$EndComp
Wire Wire Line
	6400 4750 6400 4850
Wire Wire Line
	6400 4350 6400 4250
$Comp
L 0 #GND04
U 1 1 58932445
P 5800 4700
F 0 "#GND04" H 5800 4600 40  0001 C CNN
F 1 "0" H 5800 4630 40  0000 C CNN
F 2 "" H 5800 4700 60  0000 C CNN
F 3 "" H 5800 4700 60  0000 C CNN
	1    5800 4700
	1    0    0    -1  
$EndComp
Text GLabel 6400 3750 1    60   Input ~ 0
PWR2
$Comp
L C C2
U 1 1 5893244C
P 5800 4500
F 0 "C2" H 5800 4625 60  0000 C CNN
F 1 "{Csmooth*NCsmooth2}" H 5800 4375 60  0000 C CNN
F 2 "" H 5150 5050 60  0000 C CNN
F 3 "" H 5150 5050 60  0000 C CNN
	1    5800 4500
	0    -1   -1   0   
$EndComp
Text GLabel 5800 4300 1    60   Input ~ 0
PWR2
Wire Wire Line
	5800 4300 5800 4400
$Comp
L D D21
U 1 1 58932454
P 4800 4000
F 0 "D21" H 4800 4125 60  0000 C CNN
F 1 "DI_HFA30PB120" H 4800 3875 60  0000 C CNN
F 2 "" H 4800 4000 60  0000 C CNN
F 3 "" H 4800 4000 60  0000 C CNN
	1    4800 4000
	1    0    0    -1  
$EndComp
$Comp
L D D23
U 1 1 5893245A
P 4800 4800
F 0 "D23" H 4800 4925 60  0000 C CNN
F 1 "DI_HFA30PB120" H 4800 4675 60  0000 C CNN
F 2 "" H 4800 4800 60  0000 C CNN
F 3 "" H 4800 4800 60  0000 C CNN
	1    4800 4800
	1    0    0    -1  
$EndComp
$Comp
L D D22
U 1 1 58932460
P 4800 4400
F 0 "D22" H 4800 4525 60  0000 C CNN
F 1 "DI_HFA30PB120" H 4800 4275 60  0000 C CNN
F 2 "" H 4800 4400 60  0000 C CNN
F 3 "" H 4800 4400 60  0000 C CNN
	1    4800 4400
	-1   0    0    -1  
$EndComp
$Comp
L D D24
U 1 1 58932466
P 4800 5200
F 0 "D24" H 4800 5325 60  0000 C CNN
F 1 "DI_HFA30PB120" H 4800 5075 60  0000 C CNN
F 2 "" H 4800 5200 60  0000 C CNN
F 3 "" H 4800 5200 60  0000 C CNN
	1    4800 5200
	-1   0    0    -1  
$EndComp
Wire Wire Line
	4500 4000 4700 4000
Wire Wire Line
	4600 4000 4600 4400
Wire Wire Line
	4600 4400 4700 4400
Connection ~ 4600 4000
Wire Wire Line
	4700 4800 4600 4800
Wire Wire Line
	4600 4800 4600 5200
Wire Wire Line
	4500 5200 4700 5200
Wire Wire Line
	4900 4400 5000 4400
Wire Wire Line
	5000 4400 5000 5200
Wire Wire Line
	4900 5200 5100 5200
Wire Wire Line
	4900 4800 5100 4800
Wire Wire Line
	5100 4800 5100 4000
Wire Wire Line
	4900 4000 5200 4000
Connection ~ 5000 5200
Connection ~ 4600 5200
Text GLabel 4500 4000 0    60   Input ~ 0
VPP
Text GLabel 4500 5200 0    60   Input ~ 0
VEE
$Comp
L 0 #GND05
U 1 1 5893247D
P 5100 5400
F 0 "#GND05" H 5100 5300 40  0001 C CNN
F 1 "0" H 5100 5330 40  0000 C CNN
F 2 "" H 5100 5400 60  0000 C CNN
F 3 "" H 5100 5400 60  0000 C CNN
	1    5100 5400
	1    0    0    -1  
$EndComp
Wire Wire Line
	5100 5200 5100 5400
$Comp
L 0 #GND06
U 1 1 58932484
P 6400 4850
F 0 "#GND06" H 6400 4750 40  0001 C CNN
F 1 "0" H 6400 4780 40  0000 C CNN
F 2 "" H 6400 4850 60  0000 C CNN
F 3 "" H 6400 4850 60  0000 C CNN
	1    6400 4850
	1    0    0    -1  
$EndComp
Connection ~ 5100 4000
$Comp
L V V11
U 1 1 58932C4D
P 6400 2050
F 0 "V11" H 6275 2250 60  0000 C CNN
F 1 "DC 0V" V 6625 2050 60  0000 C CNN
F 2 "" H 6075 2050 60  0000 C CNN
F 3 "" H 6075 2050 60  0000 C CNN
	1    6400 2050
	1    0    0    -1  
$EndComp
Wire Wire Line
	6400 1750 6400 1850
$Comp
L V V21
U 1 1 58932DA0
P 6400 4050
F 0 "V21" H 6275 4250 60  0000 C CNN
F 1 "DC 0V" V 6625 4050 60  0000 C CNN
F 2 "" H 6075 4050 60  0000 C CNN
F 3 "" H 6075 4050 60  0000 C CNN
	1    6400 4050
	1    0    0    -1  
$EndComp
Wire Wire Line
	6400 3750 6400 3850
$EndSCHEMATC
