EESchema Schematic File Version 2
LIBS:power
LIBS:device
LIBS:transistors
LIBS:conn
LIBS:linear
LIBS:regul
LIBS:74xx
LIBS:cmos4000
LIBS:adc-dac
LIBS:memory
LIBS:xilinx
LIBS:microcontrollers
LIBS:dsp
LIBS:microchip
LIBS:analog_switches
LIBS:motorola
LIBS:texas
LIBS:intel
LIBS:audio
LIBS:interface
LIBS:digital-audio
LIBS:philips
LIBS:display
LIBS:cypress
LIBS:siliconi
LIBS:opto
LIBS:atmel
LIBS:contrib
LIBS:valves
EELAYER 25 0
EELAYER END
$Descr A4 11693 8268
encoding utf-8
Sheet 1 1
Title ""
Date ""
Rev ""
Comp ""
Comment1 ""
Comment2 ""
Comment3 ""
Comment4 ""
$EndDescr
Text Notes 2250 850  0    60   ~ 0
VOLTAGE SENSE
Text GLabel 4200 1300 1    47   Input ~ 0
+3V3_DRV
$Comp
L C C1
U 1 1 585FD0CE
P 4200 1650
F 0 "C1" H 4225 1750 50  0000 L CNN
F 1 "100n" H 4225 1550 50  0000 L CNN
F 2 "Local:C_0603" H 4238 1500 50  0001 C CNN
F 3 "" H 4200 1650 50  0000 C CNN
	1    4200 1650
	-1   0    0    -1  
$EndComp
Wire Wire Line
	4200 1500 4200 1300
Wire Wire Line
	4200 1800 4200 2000
$Comp
L GNDPWR #PWR01
U 1 1 585FD0D7
P 4200 2000
F 0 "#PWR01" H 4200 1800 50  0001 C CNN
F 1 "GNDPWR" H 4200 1870 50  0000 C CNN
F 2 "" H 4200 1950 50  0000 C CNN
F 3 "" H 4200 1950 50  0000 C CNN
	1    4200 2000
	1    0    0    -1  
$EndComp
$Comp
L ATTINY13-S U1
U 1 1 585FD0DD
P 2700 1650
F 0 "U1" H 2700 2050 50  0000 C CNN
F 1 "ATTINY13A" H 3350 1250 50  0000 C CNN
F 2 "Local:SOIC-8_3.9x4.9mm_Pitch1.27mm" H 3350 1650 50  0001 C CIN
F 3 "" H 1900 2000 50  0000 C CNN
	1    2700 1650
	1    0    0    -1  
$EndComp
Wire Wire Line
	3700 1400 3800 1400
Wire Wire Line
	1700 1600 1300 1600
$Comp
L R R2
U 1 1 585FD0E6
P 1000 2450
F 0 "R2" V 1080 2450 50  0000 C CNN
F 1 "8K2" V 1000 2450 50  0000 C CNN
F 2 "Local:R_0603" V 930 2450 50  0001 C CNN
F 3 "" H 1000 2450 50  0000 C CNN
	1    1000 2450
	-1   0    0    -1  
$EndComp
Wire Wire Line
	1000 2300 1000 2200
Text Label 1300 1600 0    47   ~ 0
U_SIG
Wire Wire Line
	1000 2600 1000 2800
Wire Wire Line
	750  2700 1300 2700
Connection ~ 1000 2700
$Comp
L R R7
U 1 1 585FD0FB
P 1000 2950
F 0 "R7" V 1080 2950 50  0000 C CNN
F 1 "2K2" V 1000 2950 50  0000 C CNN
F 2 "Local:R_0603" V 930 2950 50  0001 C CNN
F 3 "" H 1000 2950 50  0000 C CNN
	1    1000 2950
	-1   0    0    -1  
$EndComp
$Comp
L GNDPWR #PWR02
U 1 1 585FD102
P 1000 3200
F 0 "#PWR02" H 1000 3000 50  0001 C CNN
F 1 "GNDPWR" H 1000 3070 50  0000 C CNN
F 2 "" H 1000 3150 50  0000 C CNN
F 3 "" H 1000 3150 50  0000 C CNN
	1    1000 3200
	1    0    0    -1  
$EndComp
Wire Wire Line
	1000 3100 1000 3200
$Comp
L VPP #PWR03
U 1 1 585FD109
P 1000 2200
F 0 "#PWR03" H 1000 2050 50  0001 C CNN
F 1 "VPP" H 1000 2350 50  0000 C CNN
F 2 "" H 1000 2200 50  0000 C CNN
F 3 "" H 1000 2200 50  0000 C CNN
	1    1000 2200
	1    0    0    -1  
$EndComp
Text Label 1300 2700 2    47   ~ 0
U_SIG
Wire Wire Line
	3700 1900 3800 1900
Wire Wire Line
	3800 1900 3800 2000
$Comp
L GNDPWR #PWR04
U 1 1 585FD112
P 3800 2000
F 0 "#PWR04" H 3800 1800 50  0001 C CNN
F 1 "GNDPWR" H 3800 1870 50  0000 C CNN
F 2 "" H 3800 1950 50  0000 C CNN
F 3 "" H 3800 1950 50  0000 C CNN
	1    3800 2000
	1    0    0    -1  
$EndComp
Wire Wire Line
	3800 1400 3800 1300
Text GLabel 3800 1300 1    47   Input ~ 0
+3V3_DRV
Wire Wire Line
	1300 1400 1700 1400
Wire Wire Line
	1300 1500 1700 1500
Wire Wire Line
	1700 1700 1300 1700
Wire Wire Line
	1300 1800 1700 1800
Wire Wire Line
	1700 1900 1300 1900
Text Label 1300 1800 0    47   ~ 0
UART_TX
$Comp
L PC817 U2
U 1 1 585FD124
P 2500 3000
F 0 "U2" H 2500 3200 50  0000 C CNN
F 1 "LTV-356T" H 2500 2800 50  0000 C CNN
F 2 "Local:OPTO4S" H 2300 2800 50  0001 L CIN
F 3 "" H 2500 3000 50  0000 L CNN
	1    2500 3000
	1    0    0    -1  
$EndComp
Wire Wire Line
	2200 3100 2100 3100
Wire Wire Line
	2100 3100 2100 3400
Wire Wire Line
	2200 2900 2100 2900
Wire Wire Line
	2100 2900 2100 2800
$Comp
L R R3
U 1 1 585FD135
P 2100 2650
F 0 "R3" V 2180 2650 50  0000 C CNN
F 1 "220" V 2100 2650 50  0000 C CNN
F 2 "Local:R_0603" V 2030 2650 50  0001 C CNN
F 3 "" H 2100 2650 50  0000 C CNN
	1    2100 2650
	-1   0    0    -1  
$EndComp
Wire Wire Line
	2100 2500 2100 2400
Wire Wire Line
	2100 3400 2500 3400
Text Label 2500 3400 2    47   ~ 0
UART_TX
Wire Wire Line
	2800 3100 2900 3100
Wire Wire Line
	2900 3100 2900 3200
$Comp
L GND #PWR05
U 1 1 585FD141
P 2900 3200
F 0 "#PWR05" H 2900 2950 50  0001 C CNN
F 1 "GND" H 2900 3050 50  0000 C CNN
F 2 "" H 2900 3200 50  0000 C CNN
F 3 "" H 2900 3200 50  0000 C CNN
	1    2900 3200
	1    0    0    -1  
$EndComp
Wire Wire Line
	2800 2900 3000 2900
Text GLabel 3000 2900 2    47   Input ~ 0
MON_TX
$Comp
L R R4
U 1 1 585FD14A
P 2900 2650
F 0 "R4" V 2980 2650 50  0000 C CNN
F 1 "1K5" V 2900 2650 50  0000 C CNN
F 2 "Local:R_0603" V 2830 2650 50  0001 C CNN
F 3 "" H 2900 2650 50  0000 C CNN
	1    2900 2650
	-1   0    0    -1  
$EndComp
Wire Wire Line
	2900 2900 2900 2800
Connection ~ 2900 2900
Wire Wire Line
	2900 2500 2900 2400
$Comp
L +3V3 #PWR06
U 1 1 585FD154
P 2900 2400
F 0 "#PWR06" H 2900 2250 50  0001 C CNN
F 1 "+3V3" H 2900 2540 50  0000 C CNN
F 2 "" H 2900 2400 50  0000 C CNN
F 3 "" H 2900 2400 50  0000 C CNN
	1    2900 2400
	1    0    0    -1  
$EndComp
Text Notes -1850 2850 0    60   ~ 0
/* Voltage Divider */\n/* U[S] - input voltage */\n/* U[T] - ADC top voltage */\n/* I[D] - current through divider */\n/* R[H] - high side resistance of divider */\n/* R[L] - low side resistance of divider */\n/* P[D] - power of divider */\n/* A[B] - ADC resolution in bits */\n/* U[A] - ADC unit (Volts per count) */\nEQ[DIV]: U[S] / (R[H]+R[L]) = U[T] / R[L];\nEQ[U[S]]: solve(EQ[DIV], U[S])[1];\nEQ[R[H]]: solve(EQ[U[S]], R[H])[1];\nEQ[I[D]]: I[D] = U[S] / (R[H] + R[L]);\nEQ[P[D]]: P[D] = U[S] * I[D], EQ[I[D]];\nEQ[U[A]]: U[A] = U[S] / (2^A[B]), EQ[U[S]];\n\nPR[ADC]: [U[T]=1.1, A[B]=10]$\nPR[U[S]]: U[S]=400$\nPR[R[L]]: R[L]=1e3$\n\nEQ[R[H]], PR[U[S]], PR[U[S]], PR[R[L]];\nPR[R[H]]: R[H]=220e3+150e3$\nEQ[U[S]], PR[ADC], PR[R[L]], PR[R[H]];\nEQ[I[D]], PR[U[S]], PR[R[H]], PR[R[L]];\nEQ[P[D]], PR[U[S]], PR[R[H]], PR[R[L]];\nEQ[U[A]], PR[ADC], PR[R[H]], PR[R[L]];
Text Notes 2200 1000 0    60   ~ 0
U[S(MAX)]: 408 V
Text Notes -4450 5950 0    60   ~ 0
/* Current Shunt */\n/* N[P] - parallel resistors */\n/* N[S] - serial resistors */\n/* R[R] - single resistor resistance */\n/* P[S] - shunt power */\n/* P[R] - single resistor power */\n/* I[T] - max current value */\n/* U[T] - ADC top voltage */\n/* A[B] - ADC value width in bits */\n/* I[A] - ADC unit (Amps per count) */\nEQ[R[S]]: R[S] = R[R] * N[S] / N[P];\nEQ[P[S]]: P[S] = R[S] * I[S]^2, EQ[R[S]];\nEQ[P[R]]: P[R] = R[R] * (I[S] / N[P])^2;\nEQ[U[S]]: U[S] = R[S] * I[S], EQ[R[S]];\nEQ[I[T]]: I[T] = U[T] / R[S], EQ[R[S]];\nEQ[I[A]]: I[A] = I[T] / (2^A[B]), EQ[I[T]];\n\nPR[SH]: [N[P]=2, N[S]=4, R[R]=10e-3]$\nPR[I[S]]: I[S]=20$\nPR[ADC]: [U[T]=1.1, A[B]=10]$\n\nEQ[R[S]], PR[SH];\nEQ[P[S]], PR[SH], PR[I[S]];\nEQ[P[R]], PR[SH], PR[I[S]];\nEQ[U[S]], PR[SH], PR[I[S]];\nEQ[I[T]], PR[SH], PR[ADC];\nEQ[I[A]], PR[SH], PR[ADC];
$Comp
L LM358N U4
U 2 1 5861B76B
P 2000 7100
F 0 "U4" H 1950 7300 50  0000 L CNN
F 1 "LM258" H 1950 6850 50  0000 L CNN
F 2 "Local:SOIC-8_3.9x4.9mm_Pitch1.27mm" H 2000 7100 50  0001 C CNN
F 3 "" H 2000 7100 50  0000 C CNN
	2    2000 7100
	1    0    0    -1  
$EndComp
Text Notes -1900 5700 0    60   ~ 0
/* Current Shunt */\n/* N[P] - parallel resistors */\n/* N[S] - serial resistors */\n/* R[R] - single resistor resistance */\n/* P[S] - shunt power */\n/* P[R] - single resistor power */\n/* I[T] - max current value */\n/* U[T] - ADC top voltage */\n/* A[B] - ADC value width in bits */\n/* I[A] - ADC resolution (Amps per count) */\nEQ[R[S]]: R[S] = R[R] * N[S] / N[P];\nEQ[P[S]]: P[S] = R[S] * I[S]^2, EQ[R[S]];\nEQ[P[R]]: P[R] = R[R] * (I[S] / N[P])^2;\nEQ[U[S]]: U[S] = R[S] * I[S], EQ[R[S]];\nEQ[I[T]]: I[T] = U[T] / R[S], EQ[R[S]];\nEQ[I[A]]: I[A] = I[T] / (2^A[B]), EQ[I[T]];\n\nPR[SH]: [N[P]=3, N[S]=3, R[R]=10e-3]$\nPR[I[S]]: I[S]=30$\nPR[ADC]: [U[T]=1.1, A[B]=10]$\n\nEQ[R[S]], PR[SH];\nEQ[P[S]], PR[SH], PR[I[S]];\nEQ[P[R]], PR[SH], PR[I[S]];\nEQ[U[S]], PR[SH], PR[I[S]];\nEQ[I[T]], PR[SH], PR[ADC];\nEQ[I[A]], PR[SH], PR[ADC];
$Comp
L R R8
U 1 1 5861C5AB
P 2250 4200
F 0 "R8" V 2330 4200 50  0000 C CNN
F 1 "100" V 2250 4200 50  0000 C CNN
F 2 "Local:R_0603" V 2180 4200 50  0001 C CNN
F 3 "" H 2250 4200 50  0000 C CNN
	1    2250 4200
	0    1    -1   0   
$EndComp
Wire Wire Line
	2400 4200 2800 4200
Wire Wire Line
	2500 4200 2500 4400
Wire Wire Line
	2500 4400 2600 4400
Wire Wire Line
	2000 4200 2000 4300
Wire Wire Line
	2000 4200 2100 4200
Text Notes 1850 4050 0    60   ~ 0
Protection Shunt
Text Label 1300 1500 0    47   ~ 0
U_MOD
Text Label 1300 1400 0    47   ~ 0
I_MOD
Text Label 1300 1700 0    47   ~ 0
UART_RX
Text Label 1300 1900 0    47   ~ 0
I_SIG
$Comp
L GNDPWR #PWR07
U 1 1 58621DF3
P 2000 4300
F 0 "#PWR07" H 2000 4100 50  0001 C CNN
F 1 "GNDPWR" H 2000 4170 50  0000 C CNN
F 2 "" H 2000 4250 50  0000 C CNN
F 3 "" H 2000 4250 50  0000 C CNN
	1    2000 4300
	1    0    0    -1  
$EndComp
Text GLabel 2600 4400 2    47   Input ~ 0
DRV_GND
$Comp
L LM358N U4
U 1 1 586260C0
P 2000 5700
F 0 "U4" H 1950 5900 50  0000 L CNN
F 1 "LM258" H 1950 5450 50  0000 L CNN
F 2 "Local:SOIC-8_3.9x4.9mm_Pitch1.27mm" H 2000 5700 50  0001 C CNN
F 3 "" H 2000 5700 50  0000 C CNN
	1    2000 5700
	1    0    0    -1  
$EndComp
Text Label 2800 4200 2    47   ~ 0
I_SIG
Connection ~ 2500 4200
$Comp
L GNDPWR #PWR08
U 1 1 58630514
P 1900 6100
F 0 "#PWR08" H 1900 5900 50  0001 C CNN
F 1 "GNDPWR" H 1900 5970 50  0000 C CNN
F 2 "" H 1900 6050 50  0000 C CNN
F 3 "" H 1900 6050 50  0000 C CNN
	1    1900 6100
	1    0    0    -1  
$EndComp
Wire Wire Line
	1900 6000 1900 6100
Wire Wire Line
	1900 5300 1900 5400
$Comp
L GNDPWR #PWR09
U 1 1 586308A4
P 1900 7500
F 0 "#PWR09" H 1900 7300 50  0001 C CNN
F 1 "GNDPWR" H 1900 7370 50  0000 C CNN
F 2 "" H 1900 7450 50  0000 C CNN
F 3 "" H 1900 7450 50  0000 C CNN
	1    1900 7500
	1    0    0    -1  
$EndComp
Wire Wire Line
	1900 7400 1900 7500
Wire Wire Line
	1900 6700 1900 6800
$Comp
L D D3
U 1 1 5863151A
P 2550 5700
F 0 "D3" H 2550 5800 50  0000 C CNN
F 1 "1N4148" H 2550 5600 50  0000 C CNN
F 2 "Local:MiniMELF_Standard" H 2550 5700 50  0001 C CNN
F 3 "" H 2550 5700 50  0000 C CNN
	1    2550 5700
	1    0    0    -1  
$EndComp
$Comp
L D D4
U 1 1 5863161D
P 2550 7100
F 0 "D4" H 2550 7200 50  0000 C CNN
F 1 "1N4148" H 2550 7000 50  0000 C CNN
F 2 "Local:MiniMELF_Standard" H 2550 7100 50  0001 C CNN
F 3 "" H 2550 7100 50  0000 C CNN
	1    2550 7100
	1    0    0    -1  
$EndComp
Wire Wire Line
	2700 7100 2900 7100
Wire Wire Line
	2900 5700 2700 5700
Wire Wire Line
	2400 5700 2300 5700
Wire Wire Line
	2400 7100 2300 7100
Wire Wire Line
	3000 6600 3300 6600
Text Label 3000 6600 0    47   ~ 0
ALERT
Text Label 2900 5700 2    47   ~ 0
ALERT
Text Label 2900 7100 2    47   ~ 0
ALERT
Text Label 700  5600 0    47   ~ 0
I_MOD
Wire Wire Line
	3300 6400 3200 6400
$Comp
L R R12
U 1 1 58633E15
P 3200 6150
F 0 "R12" V 3280 6150 50  0000 C CNN
F 1 "100" V 3200 6150 50  0000 C CNN
F 2 "Local:R_0603" V 3130 6150 50  0001 C CNN
F 3 "" H 3200 6150 50  0000 C CNN
	1    3200 6150
	-1   0    0    -1  
$EndComp
Wire Wire Line
	1200 5600 1700 5600
Wire Wire Line
	1200 7000 1700 7000
Wire Wire Line
	1300 5600 1300 5700
Wire Wire Line
	1700 5800 1500 5800
Text Label 1500 5800 0    47   ~ 0
I_SIG
Wire Wire Line
	1700 7200 1500 7200
Text Label 1500 7200 0    47   ~ 0
U_SIG
Wire Wire Line
	1300 7000 1300 7100
Wire Wire Line
	3200 6400 3200 6300
Wire Wire Line
	3200 6000 3200 5900
Connection ~ 1300 5600
$Comp
L C C2
U 1 1 58638322
P 1300 5850
F 0 "C2" H 1325 5950 50  0000 L CNN
F 1 "680n" H 1100 5750 50  0000 L CNN
F 2 "Local:C_0603" H 1338 5700 50  0001 C CNN
F 3 "" H 1300 5850 50  0000 C CNN
	1    1300 5850
	-1   0    0    -1  
$EndComp
$Comp
L R R9
U 1 1 58638E4F
P 1050 5600
F 0 "R9" V 1130 5600 50  0000 C CNN
F 1 "680" V 1050 5600 50  0000 C CNN
F 2 "Local:R_0603" V 980 5600 50  0001 C CNN
F 3 "" H 1050 5600 50  0000 C CNN
	1    1050 5600
	0    1    -1   0   
$EndComp
Wire Wire Line
	900  5600 700  5600
Wire Wire Line
	1300 6000 1300 6100
$Comp
L GNDPWR #PWR010
U 1 1 58639BB4
P 1300 6100
F 0 "#PWR010" H 1300 5900 50  0001 C CNN
F 1 "GNDPWR" H 1300 5970 50  0000 C CNN
F 2 "" H 1300 6050 50  0000 C CNN
F 3 "" H 1300 6050 50  0000 C CNN
	1    1300 6100
	1    0    0    -1  
$EndComp
$Comp
L R R14
U 1 1 5863A0E7
P 1050 7000
F 0 "R14" V 1130 7000 50  0000 C CNN
F 1 "680" V 1050 7000 50  0000 C CNN
F 2 "Local:R_0603" V 980 7000 50  0001 C CNN
F 3 "" H 1050 7000 50  0000 C CNN
	1    1050 7000
	0    1    -1   0   
$EndComp
$Comp
L C C3
U 1 1 5863A262
P 1300 7250
F 0 "C3" H 1325 7350 50  0000 L CNN
F 1 "680n" H 1100 7150 50  0000 L CNN
F 2 "Local:C_0603" H 1338 7100 50  0001 C CNN
F 3 "" H 1300 7250 50  0000 C CNN
	1    1300 7250
	-1   0    0    -1  
$EndComp
Wire Wire Line
	1300 7400 1300 7500
$Comp
L GNDPWR #PWR011
U 1 1 5863A269
P 1300 7500
F 0 "#PWR011" H 1300 7300 50  0001 C CNN
F 1 "GNDPWR" H 1300 7370 50  0000 C CNN
F 2 "" H 1300 7450 50  0000 C CNN
F 3 "" H 1300 7450 50  0000 C CNN
	1    1300 7500
	1    0    0    -1  
$EndComp
Connection ~ 1300 7000
Wire Wire Line
	900  7000 700  7000
Text Label 700  7000 0    47   ~ 0
U_MOD
$Comp
L ZENER D1
U 1 1 5863C770
P 1600 2900
F 0 "D1" H 1600 3000 50  0000 C CNN
F 1 "1V5-5V" H 1600 2800 50  0000 C CNN
F 2 "Local:MiniMELF_Standard" H 1600 2900 50  0001 C CNN
F 3 "" H 1600 2900 50  0000 C CNN
	1    1600 2900
	0    -1   1    0   
$EndComp
Wire Wire Line
	1600 3100 1600 3200
$Comp
L GNDPWR #PWR012
U 1 1 5863CC2B
P 1600 3200
F 0 "#PWR012" H 1600 3000 50  0001 C CNN
F 1 "GNDPWR" H 1600 3070 50  0000 C CNN
F 2 "" H 1600 3150 50  0000 C CNN
F 3 "" H 1600 3150 50  0000 C CNN
	1    1600 3200
	1    0    0    -1  
$EndComp
Text Label 1600 2500 3    47   ~ 0
U_SIG
Wire Wire Line
	1600 2500 1600 2700
$Comp
L PC817 U3
U 1 1 5863F797
P 4100 3000
F 0 "U3" H 4100 3200 50  0000 C CNN
F 1 "LTV-356T" H 4100 2800 50  0000 C CNN
F 2 "Local:OPTO4S" H 3900 2800 50  0001 L CIN
F 3 "" H 4100 3000 50  0000 L CNN
	1    4100 3000
	1    0    0    -1  
$EndComp
Wire Wire Line
	3800 3100 3700 3100
Wire Wire Line
	3700 3100 3700 3400
Wire Wire Line
	3800 2900 3700 2900
Wire Wire Line
	3700 2900 3700 2800
$Comp
L R R5
U 1 1 5863F7A7
P 3700 2650
F 0 "R5" V 3780 2650 50  0000 C CNN
F 1 "220" V 3700 2650 50  0000 C CNN
F 2 "Local:R_0603" V 3630 2650 50  0001 C CNN
F 3 "" H 3700 2650 50  0000 C CNN
	1    3700 2650
	-1   0    0    -1  
$EndComp
Wire Wire Line
	3700 2500 3700 2400
Wire Wire Line
	3700 3400 3800 3400
Text Label 4900 2900 2    47   ~ 0
UART_RX
Wire Wire Line
	4400 3100 4500 3100
Wire Wire Line
	4500 3100 4500 3200
Wire Wire Line
	4400 2900 4900 2900
Text GLabel 3800 3400 2    47   Input ~ 0
MON_RX
$Comp
L R R6
U 1 1 5863F7BA
P 4500 2650
F 0 "R6" V 4580 2650 50  0000 C CNN
F 1 "1K5" V 4500 2650 50  0000 C CNN
F 2 "Local:R_0603" V 4430 2650 50  0001 C CNN
F 3 "" H 4500 2650 50  0000 C CNN
	1    4500 2650
	-1   0    0    -1  
$EndComp
Wire Wire Line
	4500 2900 4500 2800
Connection ~ 4500 2900
Wire Wire Line
	4500 2500 4500 2400
$Comp
L GNDPWR #PWR013
U 1 1 5863F9D9
P 4500 3200
F 0 "#PWR013" H 4500 3000 50  0001 C CNN
F 1 "GNDPWR" H 4500 3070 50  0000 C CNN
F 2 "" H 4500 3150 50  0000 C CNN
F 3 "" H 4500 3150 50  0000 C CNN
	1    4500 3200
	1    0    0    -1  
$EndComp
$Comp
L PC817 U5
U 1 1 5862452F
P 3600 6500
F 0 "U5" H 3600 6700 50  0000 C CNN
F 1 "LTV-356T" H 3600 6300 50  0000 C CNN
F 2 "Local:OPTO4S" H 3400 6300 50  0001 L CIN
F 3 "" H 3600 6500 50  0000 L CNN
	1    3600 6500
	1    0    0    -1  
$EndComp
Text GLabel 2200 2400 2    47   Input ~ 0
+3V3_DRV
$Comp
L +3V3 #PWR014
U 1 1 58625BBD
P 3700 2400
F 0 "#PWR014" H 3700 2250 50  0001 C CNN
F 1 "+3V3" H 3700 2540 50  0000 C CNN
F 2 "" H 3700 2400 50  0000 C CNN
F 3 "" H 3700 2400 50  0000 C CNN
	1    3700 2400
	1    0    0    -1  
$EndComp
Text GLabel 4400 2400 0    47   Input ~ 0
+3V3_DRV
Wire Wire Line
	2100 2400 2200 2400
Wire Wire Line
	4500 2400 4400 2400
$Comp
L CONN_01X02 P1
U 1 1 58633596
P 5000 4150
F 0 "P1" H 5000 4300 50  0000 C CNN
F 1 "PWR" V 5100 4150 50  0000 C CNN
F 2 "Local:Pin_Header_Straight_1x02" H 5000 4150 50  0001 C CNN
F 3 "" H 5000 4150 50  0000 C CNN
	1    5000 4150
	1    0    0    1   
$EndComp
Text GLabel 4200 4800 0    47   Input ~ 0
+3V3_DRV
Wire Wire Line
	4800 4200 4700 4200
Wire Wire Line
	4700 4200 4700 4300
Wire Wire Line
	4800 4100 4700 4100
$Comp
L GND #PWR015
U 1 1 58633AB2
P 4700 4300
F 0 "#PWR015" H 4700 4050 50  0001 C CNN
F 1 "GND" H 4700 4150 50  0000 C CNN
F 2 "" H 4700 4300 50  0000 C CNN
F 3 "" H 4700 4300 50  0000 C CNN
	1    4700 4300
	1    0    0    -1  
$EndComp
$Comp
L GND #PWR016
U 1 1 58633B20
P 4600 5100
F 0 "#PWR016" H 4600 4850 50  0001 C CNN
F 1 "GND" H 4600 4950 50  0000 C CNN
F 2 "" H 4600 5100 50  0000 C CNN
F 3 "" H 4600 5100 50  0000 C CNN
	1    4600 5100
	1    0    0    -1  
$EndComp
$Comp
L GNDPWR #PWR017
U 1 1 58633BAF
P 4200 5100
F 0 "#PWR017" H 4200 4900 50  0001 C CNN
F 1 "GNDPWR" H 4200 4970 50  0000 C CNN
F 2 "" H 4200 5050 50  0000 C CNN
F 3 "" H 4200 5050 50  0000 C CNN
	1    4200 5100
	1    0    0    -1  
$EndComp
Wire Wire Line
	4200 5100 4200 5000
Wire Wire Line
	4200 5000 4600 5000
Wire Wire Line
	4600 5000 4600 5100
$Comp
L +3V3 #PWR018
U 1 1 58634138
P 4700 4000
F 0 "#PWR018" H 4700 3850 50  0001 C CNN
F 1 "+3V3" H 4700 4140 50  0000 C CNN
F 2 "" H 4700 4000 50  0000 C CNN
F 3 "" H 4700 4000 50  0000 C CNN
	1    4700 4000
	1    0    0    -1  
$EndComp
$Comp
L +3V3 #PWR019
U 1 1 58634250
P 4300 4700
F 0 "#PWR019" H 4300 4550 50  0001 C CNN
F 1 "+3V3" H 4300 4840 50  0000 C CNN
F 2 "" H 4300 4700 50  0000 C CNN
F 3 "" H 4300 4700 50  0000 C CNN
	1    4300 4700
	1    0    0    -1  
$EndComp
Wire Wire Line
	4200 4800 4300 4800
Wire Wire Line
	4300 4800 4300 4700
Wire Wire Line
	4700 4100 4700 4000
$Comp
L CONN_01X03 P2
U 1 1 586344E5
P 5900 4200
F 0 "P2" H 5900 4400 50  0000 C CNN
F 1 "UART" V 6000 4200 50  0000 C CNN
F 2 "Local:Pin_Header_Straight_1x03" H 5900 4200 50  0001 C CNN
F 3 "" H 5900 4200 50  0000 C CNN
	1    5900 4200
	1    0    0    1   
$EndComp
Wire Wire Line
	5700 4300 5600 4300
Wire Wire Line
	5600 4300 5600 4400
$Comp
L GND #PWR020
U 1 1 5863471F
P 5600 4400
F 0 "#PWR020" H 5600 4150 50  0001 C CNN
F 1 "GND" H 5600 4250 50  0000 C CNN
F 2 "" H 5600 4400 50  0000 C CNN
F 3 "" H 5600 4400 50  0000 C CNN
	1    5600 4400
	1    0    0    -1  
$EndComp
Wire Wire Line
	5700 4100 5600 4100
Wire Wire Line
	5700 4200 5600 4200
Text GLabel 5600 4100 0    47   Input ~ 0
MON_RX
Text GLabel 5600 4200 0    47   Input ~ 0
MON_TX
$Comp
L R R13
U 1 1 58634CC4
P 4000 6850
F 0 "R13" V 4080 6850 50  0000 C CNN
F 1 "1K5" V 4000 6850 50  0000 C CNN
F 2 "Local:R_0603" V 3930 6850 50  0001 C CNN
F 3 "" H 4000 6850 50  0000 C CNN
	1    4000 6850
	-1   0    0    -1  
$EndComp
Wire Wire Line
	4000 7000 4000 7100
Wire Wire Line
	3900 6400 4000 6400
Wire Wire Line
	4000 6400 4000 6300
Text GLabel 3200 5900 1    47   Input ~ 0
+3V3_DRV
Text GLabel 1900 5300 1    47   Input ~ 0
+3V3_DRV
Text GLabel 1900 6700 1    47   Input ~ 0
+3V3_DRV
Wire Wire Line
	3900 6600 4300 6600
Wire Wire Line
	4000 6600 4000 6700
$Comp
L +3V3 #PWR021
U 1 1 58635588
P 4000 6300
F 0 "#PWR021" H 4000 6150 50  0001 C CNN
F 1 "+3V3" H 4000 6440 50  0000 C CNN
F 2 "" H 4000 6300 50  0000 C CNN
F 3 "" H 4000 6300 50  0000 C CNN
	1    4000 6300
	1    0    0    -1  
$EndComp
$Comp
L GND #PWR022
U 1 1 5863584B
P 4000 7100
F 0 "#PWR022" H 4000 6850 50  0001 C CNN
F 1 "GND" H 4000 6950 50  0000 C CNN
F 2 "" H 4000 7100 50  0000 C CNN
F 3 "" H 4000 7100 50  0000 C CNN
	1    4000 7100
	1    0    0    -1  
$EndComp
Connection ~ 4000 6600
$Comp
L CONN_01X02 P4
U 1 1 58635D6A
P 4500 6650
F 0 "P4" H 4500 6800 50  0000 C CNN
F 1 "ALERT" V 4600 6650 50  0000 C CNN
F 2 "Local:Pin_Header_Straight_1x02" H 4500 6650 50  0001 C CNN
F 3 "" H 4500 6650 50  0000 C CNN
	1    4500 6650
	1    0    0    1   
$EndComp
$Comp
L GND #PWR023
U 1 1 58635EE8
P 4200 6800
F 0 "#PWR023" H 4200 6550 50  0001 C CNN
F 1 "GND" H 4200 6650 50  0000 C CNN
F 2 "" H 4200 6800 50  0000 C CNN
F 3 "" H 4200 6800 50  0000 C CNN
	1    4200 6800
	1    0    0    -1  
$EndComp
Wire Wire Line
	4300 6700 4200 6700
Wire Wire Line
	4200 6700 4200 6800
Wire Wire Line
	3200 4200 3200 4000
Text Label 3200 4000 3    47   ~ 0
I_SIG
$Comp
L GNDPWR #PWR024
U 1 1 5863C575
P 3200 4700
F 0 "#PWR024" H 3200 4500 50  0001 C CNN
F 1 "GNDPWR" H 3200 4570 50  0000 C CNN
F 2 "" H 3200 4650 50  0000 C CNN
F 3 "" H 3200 4650 50  0000 C CNN
	1    3200 4700
	1    0    0    -1  
$EndComp
Wire Wire Line
	3200 4600 3200 4700
$Comp
L ZENER D2
U 1 1 58628961
P 3200 4400
F 0 "D2" H 3200 4500 50  0000 C CNN
F 1 "1V5-5V" H 3200 4300 50  0000 C CNN
F 2 "Local:MiniMELF_Standard" H 3200 4400 50  0001 C CNN
F 3 "" H 3200 4400 50  0000 C CNN
	1    3200 4400
	0    -1   1    0   
$EndComp
$Comp
L VPP #PWR025
U 1 1 58636A0F
P 4800 1900
F 0 "#PWR025" H 4800 1750 50  0001 C CNN
F 1 "VPP" H 4800 2050 50  0000 C CNN
F 2 "" H 4800 1900 50  0000 C CNN
F 3 "" H 4800 1900 50  0000 C CNN
	1    4800 1900
	1    0    0    -1  
$EndComp
$Comp
L +3V3 #PWR026
U 1 1 58636AF2
P 5100 1900
F 0 "#PWR026" H 5100 1750 50  0001 C CNN
F 1 "+3V3" H 5100 2040 50  0000 C CNN
F 2 "" H 5100 1900 50  0000 C CNN
F 3 "" H 5100 1900 50  0000 C CNN
	1    5100 1900
	1    0    0    -1  
$EndComp
Wire Wire Line
	4800 1900 4800 2000
Wire Wire Line
	4800 2000 5100 2000
Wire Wire Line
	5100 2000 5100 1900
$Comp
L R R1
U 1 1 58637101
P 750 2450
F 0 "R1" V 830 2450 50  0000 C CNN
F 1 "47K" V 750 2450 50  0000 C CNN
F 2 "Local:R_0603" V 680 2450 50  0001 C CNN
F 3 "" H 750 2450 50  0000 C CNN
	1    750  2450
	-1   0    0    -1  
$EndComp
Wire Wire Line
	750  2700 750  2600
Wire Wire Line
	750  2300 750  2000
Text Label 750  2000 3    60   ~ 0
U_OVR
Text GLabel 5500 6000 3    47   Input ~ 0
DRV_GND
$Comp
L VPP #PWR027
U 1 1 58637B36
P 5500 5500
F 0 "#PWR027" H 5500 5350 50  0001 C CNN
F 1 "VPP" H 5500 5650 50  0000 C CNN
F 2 "" H 5500 5500 50  0000 C CNN
F 3 "" H 5500 5500 50  0000 C CNN
	1    5500 5500
	1    0    0    -1  
$EndComp
$Comp
L R R10
U 1 1 58637C80
P 5500 5750
F 0 "R10" V 5580 5750 50  0000 C CNN
F 1 "2K2" V 5500 5750 50  0000 C CNN
F 2 "Local:R_0603" V 5430 5750 50  0001 C CNN
F 3 "" H 5500 5750 50  0000 C CNN
	1    5500 5750
	-1   0    0    -1  
$EndComp
Wire Wire Line
	5500 5500 5500 5600
Wire Wire Line
	5500 5900 5500 6000
$Comp
L R R11
U 1 1 58638476
P 5800 5750
F 0 "R11" V 5880 5750 50  0000 C CNN
F 1 "8K2" V 5800 5750 50  0000 C CNN
F 2 "Local:R_0603" V 5730 5750 50  0001 C CNN
F 3 "" H 5800 5750 50  0000 C CNN
	1    5800 5750
	-1   0    0    -1  
$EndComp
Wire Wire Line
	5800 5600 5800 5350
Text Label 5800 5350 3    60   ~ 0
I_OVR
Text GLabel 5800 6000 3    47   Input ~ 0
DRV_GND
Wire Wire Line
	5800 5900 5800 6000
$Comp
L CONN_01X03 P3
U 1 1 58638ED0
P 6600 5100
F 0 "P3" H 6600 5300 50  0000 C CNN
F 1 "TEST" V 6700 5100 50  0000 C CNN
F 2 "Local:Pin_Header_Straight_1x03" H 6600 5100 50  0001 C CNN
F 3 "" H 6600 5100 50  0000 C CNN
	1    6600 5100
	1    0    0    1   
$EndComp
Wire Wire Line
	6400 5200 6300 5200
Wire Wire Line
	6300 5200 6300 5300
Text Label 6100 5000 0    60   ~ 0
U_OVR
Text Label 6100 5100 0    60   ~ 0
I_OVR
Wire Wire Line
	6400 5000 6100 5000
Wire Wire Line
	6400 5100 6100 5100
$Comp
L GND #PWR028
U 1 1 5863975C
P 6300 5300
F 0 "#PWR028" H 6300 5050 50  0001 C CNN
F 1 "GND" H 6300 5150 50  0000 C CNN
F 2 "" H 6300 5300 50  0000 C CNN
F 3 "" H 6300 5300 50  0000 C CNN
	1    6300 5300
	1    0    0    -1  
$EndComp
$EndSCHEMATC
